%!PS-Adobe-2.0 EPSF-2.0
%%BoundingBox:  0 0 567 544
%%Title: : c
%%Creator: ROOT Version 6.04/14
%%CreationDate: Wed May 12 04:02:41 2021
%%DocumentNeededResources: ProcSet (FontSetInit)
%%EndComments
%%BeginProlog
80 dict begin
/s {stroke} def /l {lineto} def /m {moveto} def /t {translate} def
/r {rotate} def /rl {roll}  def /R {repeat} def
/d {rlineto} def /rm {rmoveto} def /gr {grestore} def /f {eofill} def
/c {setrgbcolor} def /black {0 setgray} def /sd {setdash} def
/cl {closepath} def /sf {scalefont setfont} def /lw {setlinewidth} def
/box {m dup 0 exch d exch 0 d 0 exch neg d cl} def
/NC{systemdict begin initclip end}def/C{NC box clip newpath}def
/bl {box s} def /bf {gsave box gsave f grestore 1 lw [] 0 sd s grestore} def /Y { 0 exch d} def /X { 0 d} def 
/K {{pop pop 0 moveto} exch kshow} bind def
/ita {/ang 15 def gsave [1 0 ang dup sin exch cos div 1 0 0] concat} def 
/mp {newpath /y exch def /x exch def} def
/side {[w .77 mul w .23 mul] .385 w mul sd w 0 l currentpoint t -144 r} def
/mr {mp x y w2 0 360 arc} def /m24 {mr s} def /m20 {mr f} def
/mb {mp x y w2 add m w2 neg 0 d 0 w neg d w 0 d 0 w d cl} def
/mt {mp x y w2 add m w2 neg w neg d w 0 d cl} def
/m21 {mb f} def /m25 {mb s} def /m22 {mt f} def /m26{mt s} def
/m23 {mp x y w2 sub m w2 w d w neg 0 d cl f} def
/m27 {mp x y w2 add m w3 neg w2 neg d w3 w2 neg d w3 w2 d cl s} def
/m28 {mp x w2 sub y w2 sub w3 add m w3 0 d  0 w3 neg d w3 0 d 0 w3 d w3 0 d  0 w3 d w3 neg 0 d 0 w3 d w3 neg 0 d 0 w3 neg d w3 neg 0 d cl s } def
/m29 {mp gsave x w2 sub y w2 add w3 sub m currentpoint t 4 {side} repeat cl fill gr} def
/m30 {mp gsave x w2 sub y w2 add w3 sub m currentpoint t 4 {side} repeat cl s gr} def
/m31 {mp x y w2 sub m 0 w d x w2 sub y m w 0 d x w2 sub y w2 add m w w neg d x w2 sub y w2 sub m w w d s} def
/m32 {mp x y w2 sub m w2 w d w neg 0 d cl s} def
/m33 {mp x y w2 add m w3 neg w2 neg d w3 w2 neg d w3 w2 d cl f} def
/m34 {mp x w2 sub y w2 sub w3 add m w3 0 d  0 w3 neg d w3 0 d 0 w3 d w3 0 d  0 w3 d w3 neg 0 d 0 w3 d w3 neg 0 d 0 w3 neg d w3 neg 0 d cl f } def
/m2 {mp x y w2 sub m 0 w d x w2 sub y m w 0 d s} def
/m5 {mp x w2 sub y w2 sub m w w d x w2 sub y w2 add m w w neg d s} def
%%IncludeResource: ProcSet (FontSetInit)
%%IncludeResource: font Times-Roman
%%IncludeResource: font Times-Italic
%%IncludeResource: font Times-Bold
%%IncludeResource: font Times-BoldItalic
%%IncludeResource: font Helvetica
%%IncludeResource: font Helvetica-Oblique
%%IncludeResource: font Helvetica-Bold
%%IncludeResource: font Helvetica-BoldOblique
%%IncludeResource: font Courier
%%IncludeResource: font Courier-Oblique
%%IncludeResource: font Courier-Bold
%%IncludeResource: font Courier-BoldOblique
%%IncludeResource: font Symbol
%%IncludeResource: font ZapfDingbats
/reEncode {exch findfont dup length dict begin {1 index /FID eq  {pop pop} {def} ifelse } forall /Encoding exch def currentdict end dup /FontName get exch definefont pop } def [/Times-Bold /Times-Italic /Times-BoldItalic /Helvetica /Helvetica-Oblique
 /Helvetica-Bold /Helvetica-BoldOblique /Courier /Courier-Oblique /Courier-Bold /Courier-BoldOblique /Times-Roman /AvantGarde-Book /AvantGarde-BookOblique /AvantGarde-Demi /AvantGarde-DemiOblique /Bookman-Demi /Bookman-DemiItalic /Bookman-Light
 /Bookman-LightItalic /Helvetica-Narrow /Helvetica-Narrow-Bold /Helvetica-Narrow-BoldOblique /Helvetica-Narrow-Oblique /NewCenturySchlbk-Roman /NewCenturySchlbk-Bold /NewCenturySchlbk-BoldItalic /NewCenturySchlbk-Italic /Palatino-Bold
 /Palatino-BoldItalic /Palatino-Italic /Palatino-Roman ] {ISOLatin1Encoding reEncode } forall
%%EndProlog
%%BeginSetup
%%EndSetup
newpath  gsave  .25 .25 scale  gsave  0 0 t black[  ] 0 sd 3 lw 1 1 1 c 2268 2176 0 0 bf black 1 1 1 c 2268 1458 0 718 bf black 1 1 1 c 1791 1364 363 718 bf black 1791 1364 363 718 bl 1 1 1 c 1791 1364 363 718 bf black 1791 1364 363 718 bl 6 lw 1 1 1
 c black 363 718 m 1791 X s 3 lw 363 718 m 1791 X s 363 753 m -35 Y s 407 735 m -17 Y s 451 735 m -17 Y s 495 735 m -17 Y s 538 735 m -17 Y s 582 753 m -35 Y s 626 735 m -17 Y s 670 735 m -17 Y s 714 735 m -17 Y s 758 735 m -17 Y s 802 753 m -35 Y s
 846 735 m -17 Y s 890 735 m -17 Y s 934 735 m -17 Y s 978 735 m -17 Y s 1021 753 m -35 Y s 1065 735 m -17 Y s 1109 735 m -17 Y s 1153 735 m -17 Y s 1197 735 m -17 Y s 1241 753 m -35 Y s 1285 735 m -17 Y s 1329 735 m -17 Y s 1373 735 m -17 Y s 1417
 735 m -17 Y s 1461 753 m -35 Y s 1504 735 m -17 Y s 1548 735 m -17 Y s 1592 735 m -17 Y s 1636 735 m -17 Y s 1680 753 m -35 Y s 1724 735 m -17 Y s 1768 735 m -17 Y s 1812 735 m -17 Y s 1856 735 m -17 Y s 1900 753 m -35 Y s 1944 735 m -17 Y s 1987
 735 m -17 Y s 2031 735 m -17 Y s 2075 735 m -17 Y s 2119 753 m -35 Y s 2119 753 m -35 Y s
 gsave  2268 1458 0 718 C 342.44 650.637 t 0 r /Helvetica findfont 72.3383 sf 0 0 m (0) show NC gr 
 gsave  2268 1458 0 718 C 532.685 650.637 t 0 r /Helvetica findfont 72.3383 sf 0 0 m (0.5) show NC gr 
 gsave  2268 1458 0 718 C 783.808 650.637 t 0 r /Helvetica findfont 72.3383 sf 0 0 m (1) show NC gr 
 gsave  2268 1458 0 718 C 970.248 650.637 t 0 r /Helvetica findfont 72.3383 sf 0 0 m (1.5) show NC gr 
 gsave  2268 1458 0 718 C 1221.37 650.637 t 0 r /Helvetica findfont 72.3383 sf 0 0 m (2) show NC gr 
 gsave  2268 1458 0 718 C 1407.81 650.637 t 0 r /Helvetica findfont 72.3383 sf 0 0 m (2.5) show NC gr 
 gsave  2268 1458 0 718 C 1658.93 650.637 t 0 r /Helvetica findfont 72.3383 sf 0 0 m (3) show NC gr 
 gsave  2268 1458 0 718 C 1849.18 650.637 t 0 r /Helvetica findfont 72.3383 sf 0 0 m (3.5) show NC gr 
 gsave  2268 1458 0 718 C 2096.5 650.637 t 0 r /Helvetica findfont 72.3383 sf 0 0 m (4) show NC gr  363 2082 m 1791 X s 363 2047 m 35 Y s 407 2064 m 18 Y s 451 2064 m 18 Y s 495 2064 m 18 Y s 538 2064 m 18 Y s 582 2047 m 35 Y s 626 2064 m 18 Y s 670
 2064 m 18 Y s 714 2064 m 18 Y s 758 2064 m 18 Y s 802 2047 m 35 Y s 846 2064 m 18 Y s 890 2064 m 18 Y s 934 2064 m 18 Y s 978 2064 m 18 Y s 1021 2047 m 35 Y s 1065 2064 m 18 Y s 1109 2064 m 18 Y s 1153 2064 m 18 Y s 1197 2064 m 18 Y s 1241 2047 m 35
 Y s 1285 2064 m 18 Y s 1329 2064 m 18 Y s 1373 2064 m 18 Y s 1417 2064 m 18 Y s 1461 2047 m 35 Y s 1504 2064 m 18 Y s 1548 2064 m 18 Y s 1592 2064 m 18 Y s 1636 2064 m 18 Y s 1680 2047 m 35 Y s 1724 2064 m 18 Y s 1768 2064 m 18 Y s 1812 2064 m 18 Y
 s 1856 2064 m 18 Y s 1900 2047 m 35 Y s 1944 2064 m 18 Y s 1987 2064 m 18 Y s 2031 2064 m 18 Y s 2075 2064 m 18 Y s 2119 2047 m 35 Y s 2119 2047 m 35 Y s 363 718 m 1364 Y s
 gsave  2268 1458 0 718 C 133.171 1662.74 t 90 r /Helvetica findfont 72.3383 sf 0 0 m (Events / 0.12) show NC gr  426 859 m -63 X s 395 894 m -32 X s 395 929 m -32 X s 395 965 m -32 X s 426 1000 m -63 X s 395 1035 m -32 X s 395 1070 m -32 X s 395
 1105 m -32 X s 426 1141 m -63 X s 395 1176 m -32 X s 395 1211 m -32 X s 395 1246 m -32 X s 426 1281 m -63 X s 395 1317 m -32 X s 395 1352 m -32 X s 395 1387 m -32 X s 426 1422 m -63 X s 395 1458 m -32 X s 395 1493 m -32 X s 395 1528 m -32 X s 426
 1563 m -63 X s 395 1598 m -32 X s 395 1634 m -32 X s 395 1669 m -32 X s 426 1704 m -63 X s 395 1739 m -32 X s 395 1774 m -32 X s 395 1810 m -32 X s 426 1845 m -63 X s 395 1880 m -32 X s 395 1915 m -32 X s 395 1950 m -32 X s 426 1986 m -63 X s 426
 859 m -63 X s 395 824 m -32 X s 395 789 m -32 X s 395 753 m -32 X s 426 1986 m -63 X s 395 2021 m -32 X s 395 2056 m -32 X s
 gsave  2268 1458 0 718 C 190.245 833.272 t 0 r /Helvetica findfont 72.3383 sf 0 0 m (2000) show NC gr 
 gsave  2268 1458 0 718 C 190.245 974.053 t 0 r /Helvetica findfont 72.3383 sf 0 0 m (4000) show NC gr 
 gsave  2268 1458 0 718 C 190.245 1114.83 t 0 r /Helvetica findfont 72.3383 sf 0 0 m (6000) show NC gr 
 gsave  2268 1458 0 718 C 190.245 1255.61 t 0 r /Helvetica findfont 72.3383 sf 0 0 m (8000) show NC gr 
 gsave  2268 1458 0 718 C 152.196 1396.4 t 0 r /Helvetica findfont 72.3383 sf 0 0 m (10000) show NC gr 
 gsave  2268 1458 0 718 C 152.196 1537.18 t 0 r /Helvetica findfont 72.3383 sf 0 0 m (12000) show NC gr 
 gsave  2268 1458 0 718 C 152.196 1677.96 t 0 r /Helvetica findfont 72.3383 sf 0 0 m (14000) show NC gr 
 gsave  2268 1458 0 718 C 152.196 1818.74 t 0 r /Helvetica findfont 72.3383 sf 0 0 m (16000) show NC gr 
 gsave  2268 1458 0 718 C 152.196 1959.52 t 0 r /Helvetica findfont 72.3383 sf 0 0 m (18000) show NC gr  2154 718 m 1364 Y s 2091 859 m 63 X s 2123 894 m 31 X s 2123 929 m 31 X s 2123 965 m 31 X s 2091 1000 m 63 X s 2123 1035 m 31 X s 2123 1070 m 31
 X s 2123 1105 m 31 X s 2091 1141 m 63 X s 2123 1176 m 31 X s 2123 1211 m 31 X s 2123 1246 m 31 X s 2091 1281 m 63 X s 2123 1317 m 31 X s 2123 1352 m 31 X s 2123 1387 m 31 X s 2091 1422 m 63 X s 2123 1458 m 31 X s 2123 1493 m 31 X s 2123 1528 m 31 X
 s 2091 1563 m 63 X s 2123 1598 m 31 X s 2123 1634 m 31 X s 2123 1669 m 31 X s 2091 1704 m 63 X s 2123 1739 m 31 X s 2123 1774 m 31 X s 2123 1810 m 31 X s 2091 1845 m 63 X s 2123 1880 m 31 X s 2123 1915 m 31 X s 2123 1950 m 31 X s 2091 1986 m 63 X s
 2091 859 m 63 X s 2123 824 m 31 X s 2123 789 m 31 X s 2123 753 m 31 X s 2091 1986 m 63 X s 2123 2021 m 31 X s 2123 2056 m 31 X s 1 1 1 c black 363 724 m 53 X 20 Y 52 X 57 Y 53 X 107 Y 53 X 156 Y 52 X 147 Y 53 X 113 Y 53 X 64 Y 52 X 60 Y 53 X 69 Y 53
 X -29 Y 52 X -139 Y 53 X -151 Y 53 X -115 Y 53 X -84 Y 52 X -66 Y 53 X -45 Y 53 X -37 Y 52 X -25 Y 53 X -19 Y 53 X -17 Y 52 X -16 Y 53 X -12 Y 53 X -9 Y 52 X -8 Y 53 X -8 Y 53 X -6 Y 52 X -4 Y 53 X -3 Y 53 X -2 Y 53 X -2 Y 105 X -1 Y 105 X s 0.999
 0.999 0.999 c black 0.999 0.999 0.999 c 2154 718 m -1791 X 6 Y 53 X 20 Y 52 X 57 Y 53 X 107 Y 53 X 156 Y 52 X 147 Y 53 X 113 Y 53 X 64 Y 52 X 60 Y 53 X 69 Y 53 X -29 Y 52 X -139 Y 53 X -151 Y 53 X -115 Y 53 X -84 Y 52 X -66 Y 53 X -45 Y 53 X -37 Y
 52 X -25 Y 53 X -19 Y 53 X -17 Y 52 X -16 Y 53 X -12 Y 53 X -9 Y 52 X -8 Y 53 X -8 Y 53 X -6 Y 52 X -4 Y 53 X -3 Y 53 X -2 Y 53 X -2 Y 105 X -1 Y 105 X f black 0.999 0.999 0.999 c black 363 724 m 53 X 20 Y 52 X 57 Y 53 X 107 Y 53 X 156 Y 52 X 147 Y
 53 X 113 Y 53 X 64 Y 52 X 60 Y 53 X 69 Y 53 X -29 Y 52 X -139 Y 53 X -151 Y 53 X -115 Y 53 X -84 Y 52 X -66 Y 53 X -45 Y 53 X -37 Y 52 X -25 Y 53 X -19 Y 53 X -17 Y 52 X -16 Y 53 X -12 Y 53 X -9 Y 52 X -8 Y 53 X -8 Y 53 X -6 Y 52 X -4 Y 53 X -3 Y 53
 X -2 Y 53 X -2 Y 105 X -1 Y 105 X s 1 1 1 c black 1 1 1 c 2154 718 m -1791 X 6 Y 53 X 20 Y 52 X 57 Y 53 X 107 Y 53 X 156 Y 52 X 147 Y 53 X 113 Y 53 X 64 Y 52 X 60 Y 53 X 69 Y 53 X -29 Y 52 X -139 Y 53 X -151 Y 53 X -115 Y 53 X -84 Y 52 X -66 Y 53 X
 -45 Y 53 X -37 Y 52 X -25 Y 53 X -19 Y 53 X -17 Y 52 X -16 Y 53 X -12 Y 53 X -9 Y 52 X -8 Y 53 X -8 Y 53 X -6 Y 52 X -4 Y 53 X -3 Y 53 X -2 Y 53 X -2 Y 105 X -1 Y 105 X f black 1 1 1 c black 363 724 m 53 X 20 Y 52 X 57 Y 53 X 107 Y 53 X 156 Y 52 X
 147 Y 53 X 113 Y 53 X 64 Y 52 X 60 Y 53 X 69 Y 53 X -29 Y 52 X -139 Y 53 X -151 Y 53 X -115 Y 53 X -84 Y 52 X -66 Y 53 X -45 Y 53 X -37 Y 52 X -25 Y 53 X -19 Y 53 X -17 Y 52 X -16 Y 53 X -12 Y 53 X -9 Y 52 X -8 Y 53 X -8 Y 53 X -6 Y 52 X -4 Y 53 X
 -3 Y 53 X -2 Y 53 X -2 Y 105 X -1 Y 105 X s 0.8 0.8 0.8 c black 0.8 0.8 0.8 c 2154 718 m -1791 X 6 Y 53 X 20 Y 52 X 57 Y 53 X 107 Y 53 X 156 Y 52 X 147 Y 53 X 113 Y 53 X 64 Y 52 X 60 Y 53 X 69 Y 53 X -29 Y 52 X -139 Y 53 X -151 Y 53 X -115 Y 53 X
 -84 Y 52 X -66 Y 53 X -45 Y 53 X -37 Y 52 X -25 Y 53 X -19 Y 53 X -17 Y 52 X -16 Y 53 X -12 Y 53 X -9 Y 52 X -8 Y 53 X -8 Y 53 X -6 Y 52 X -4 Y 53 X -3 Y 53 X -2 Y 53 X -2 Y 105 X -1 Y 105 X f black 0.8 0.8 0.8 c black 363 724 m 53 X 20 Y 52 X 57 Y
 53 X 107 Y 53 X 156 Y 52 X 147 Y 53 X 113 Y 53 X 64 Y 52 X 60 Y 53 X 69 Y 53 X -29 Y 52 X -139 Y 53 X -151 Y 53 X -115 Y 53 X -84 Y 52 X -66 Y 53 X -45 Y 53 X -37 Y 52 X -25 Y 53 X -19 Y 53 X -17 Y 52 X -16 Y 53 X -12 Y 53 X -9 Y 52 X -8 Y 53 X -8 Y
 53 X -6 Y 52 X -4 Y 53 X -3 Y 53 X -2 Y 53 X -2 Y 105 X -1 Y 105 X s 0.999 0.999 0.999 c black 0.999 0.999 0.999 c 2154 718 m -1791 X 3 Y 53 X 9 Y 52 X 26 Y 53 X 48 Y 53 X 68 Y 52 X 71 Y 53 X 64 Y 53 X 59 Y 52 X 79 Y 53 X 100 Y 53 X 15 Y 52 X -83 Y
 53 X -103 Y 53 X -74 Y 53 X -62 Y 52 X -48 Y 53 X -33 Y 53 X -29 Y 52 X -19 Y 53 X -16 Y 53 X -14 Y 52 X -14 Y 53 X -9 Y 53 X -7 Y 52 X -7 Y 53 X -7 Y 53 X -6 Y 52 X -3 Y 53 X -3 Y 53 X -1 Y 53 X -2 Y 105 X -1 Y 105 X f black 0.999 0.999 0.999 c
 black 363 721 m 53 X 9 Y 52 X 26 Y 53 X 48 Y 53 X 68 Y 52 X 71 Y 53 X 64 Y 53 X 59 Y 52 X 79 Y 53 X 100 Y 53 X 15 Y 52 X -83 Y 53 X -103 Y 53 X -74 Y 53 X -62 Y 52 X -48 Y 53 X -33 Y 53 X -29 Y 52 X -19 Y 53 X -16 Y 53 X -14 Y 52 X -14 Y 53 X -9 Y
 53 X -7 Y 52 X -7 Y 53 X -7 Y 53 X -6 Y 52 X -3 Y 53 X -3 Y 53 X -1 Y 53 X -2 Y 105 X -1 Y 105 X s 1 1 1 c black 1 1 1 c 2154 718 m -1791 X 3 Y 53 X 9 Y 52 X 26 Y 53 X 48 Y 53 X 68 Y 52 X 71 Y 53 X 64 Y 53 X 59 Y 52 X 79 Y 53 X 100 Y 53 X 15 Y 52 X
 -83 Y 53 X -103 Y 53 X -74 Y 53 X -62 Y 52 X -48 Y 53 X -33 Y 53 X -29 Y 52 X -19 Y 53 X -16 Y 53 X -14 Y 52 X -14 Y 53 X -9 Y 53 X -7 Y 52 X -7 Y 53 X -7 Y 53 X -6 Y 52 X -3 Y 53 X -3 Y 53 X -1 Y 53 X -2 Y 105 X -1 Y 105 X f black 1 1 1 c black 363
 721 m 53 X 9 Y 52 X 26 Y 53 X 48 Y 53 X 68 Y 52 X 71 Y 53 X 64 Y 53 X 59 Y 52 X 79 Y 53 X 100 Y 53 X 15 Y 52 X -83 Y 53 X -103 Y 53 X -74 Y 53 X -62 Y 52 X -48 Y 53 X -33 Y 53 X -29 Y 52 X -19 Y 53 X -16 Y 53 X -14 Y 52 X -14 Y 53 X -9 Y 53 X -7 Y
 52 X -7 Y 53 X -7 Y 53 X -6 Y 52 X -3 Y 53 X -3 Y 53 X -1 Y 53 X -2 Y 105 X -1 Y 105 X s 0.4 0.4 0.4 c black 0.4 0.4 0.4 c 2154 718 m -1791 X 3 Y 53 X 9 Y 52 X 26 Y 53 X 48 Y 53 X 68 Y 52 X 71 Y 53 X 64 Y 53 X 59 Y 52 X 79 Y 53 X 100 Y 53 X 15 Y 52
 X -83 Y 53 X -103 Y 53 X -74 Y 53 X -62 Y 52 X -48 Y 53 X -33 Y 53 X -29 Y 52 X -19 Y 53 X -16 Y 53 X -14 Y 52 X -14 Y 53 X -9 Y 53 X -7 Y 52 X -7 Y 53 X -7 Y 53 X -6 Y 52 X -3 Y 53 X -3 Y 53 X -1 Y 53 X -2 Y 105 X -1 Y 105 X f black 0.4 0.4 0.4 c
 black 363 721 m 53 X 9 Y 52 X 26 Y 53 X 48 Y 53 X 68 Y 52 X 71 Y 53 X 64 Y 53 X 59 Y 52 X 79 Y 53 X 100 Y 53 X 15 Y 52 X -83 Y 53 X -103 Y 53 X -74 Y 53 X -62 Y 52 X -48 Y 53 X -33 Y 53 X -29 Y 52 X -19 Y 53 X -16 Y 53 X -14 Y 52 X -14 Y 53 X -9 Y
 53 X -7 Y 52 X -7 Y 53 X -7 Y 53 X -6 Y 52 X -3 Y 53 X -3 Y 53 X -1 Y 53 X -2 Y 105 X -1 Y 105 X s 0.999 0.999 0.999 c black 0.999 0.999 0.999 c 2154 718 m -1791 X 1 Y 53 X 2 Y 52 X 6 Y 53 X 12 Y 53 X 18 Y 52 X 21 Y 53 X 20 Y 53 X 12 Y 52 X 14 Y 53
 X 6 Y 53 X 6 Y 52 X -11 Y 53 X -20 Y 53 X -13 Y 53 X -16 Y 52 X -8 Y 53 X -7 Y 53 X -11 Y 52 X -3 Y 53 X -5 Y 53 X -5 Y 52 X -4 Y 53 X -2 Y 53 X -2 Y 52 X -2 Y 53 X -4 Y 53 X -1 Y 52 X -1 Y 53 X -1 Y 53 X -1 Y 211 X -1 Y 52 X f black 0.999 0.999
 0.999 c black 363 719 m 53 X 2 Y 52 X 6 Y 53 X 12 Y 53 X 18 Y 52 X 21 Y 53 X 20 Y 53 X 12 Y 52 X 14 Y 53 X 6 Y 53 X 6 Y 52 X -11 Y 53 X -20 Y 53 X -13 Y 53 X -16 Y 52 X -8 Y 53 X -7 Y 53 X -11 Y 52 X -3 Y 53 X -5 Y 53 X -5 Y 52 X -4 Y 53 X -2 Y 53 X
 -2 Y 52 X -2 Y 53 X -4 Y 53 X -1 Y 52 X -1 Y 53 X -1 Y 53 X -1 Y 211 X -1 Y 52 X s 1 1 1 c black 1 1 1 c 2154 718 m -1791 X 1 Y 53 X 2 Y 52 X 6 Y 53 X 12 Y 53 X 18 Y 52 X 21 Y 53 X 20 Y 53 X 12 Y 52 X 14 Y 53 X 6 Y 53 X 6 Y 52 X -11 Y 53 X -20 Y 53
 X -13 Y 53 X -16 Y 52 X -8 Y 53 X -7 Y 53 X -11 Y 52 X -3 Y 53 X -5 Y 53 X -5 Y 52 X -4 Y 53 X -2 Y 53 X -2 Y 52 X -2 Y 53 X -4 Y 53 X -1 Y 52 X -1 Y 53 X -1 Y 53 X -1 Y 211 X -1 Y 52 X f black 1 1 1 c black 363 719 m 53 X 2 Y 52 X 6 Y 53 X 12 Y 53
 X 18 Y 52 X 21 Y 53 X 20 Y 53 X 12 Y 52 X 14 Y 53 X 6 Y 53 X 6 Y 52 X -11 Y 53 X -20 Y 53 X -13 Y 53 X -16 Y 52 X -8 Y 53 X -7 Y 53 X -11 Y 52 X -3 Y 53 X -5 Y 53 X -5 Y 52 X -4 Y 53 X -2 Y 53 X -2 Y 52 X -2 Y 53 X -4 Y 53 X -1 Y 52 X -1 Y 53 X -1 Y
 53 X -1 Y 211 X -1 Y 52 X s 0.2 0.6 1 c black 0.2 0.6 1 c 2154 718 m -1791 X 1 Y 53 X 2 Y 52 X 6 Y 53 X 12 Y 53 X 18 Y 52 X 21 Y 53 X 20 Y 53 X 12 Y 52 X 14 Y 53 X 6 Y 53 X 6 Y 52 X -11 Y 53 X -20 Y 53 X -13 Y 53 X -16 Y 52 X -8 Y 53 X -7 Y 53 X -11
 Y 52 X -3 Y 53 X -5 Y 53 X -5 Y 52 X -4 Y 53 X -2 Y 53 X -2 Y 52 X -2 Y 53 X -4 Y 53 X -1 Y 52 X -1 Y 53 X -1 Y 53 X -1 Y 211 X -1 Y 52 X f black 0.2 0.6 1 c black 363 719 m 53 X 2 Y 52 X 6 Y 53 X 12 Y 53 X 18 Y 52 X 21 Y 53 X 20 Y 53 X 12 Y 52 X 14
 Y 53 X 6 Y 53 X 6 Y 52 X -11 Y 53 X -20 Y 53 X -13 Y 53 X -16 Y 52 X -8 Y 53 X -7 Y 53 X -11 Y 52 X -3 Y 53 X -5 Y 53 X -5 Y 52 X -4 Y 53 X -2 Y 53 X -2 Y 52 X -2 Y 53 X -4 Y 53 X -1 Y 52 X -1 Y 53 X -1 Y 53 X -1 Y 211 X -1 Y 52 X s 0.999 0.999
 0.999 c black 0.999 0.999 0.999 c 2154 718 m -1791 X 1 Y 53 X 1 Y 52 X 3 Y 53 X 5 Y 53 X 10 Y 52 X 12 Y 53 X 15 Y 53 X 12 Y 52 X 15 Y 53 X 10 Y 53 X 10 Y 52 X -4 Y 53 X -16 Y 53 X -8 Y 53 X -14 Y 52 X -7 Y 53 X -6 Y 53 X -9 Y 52 X -4 Y 53 X -4 Y 53
 X -4 Y 52 X -4 Y 53 X -2 Y 53 X -1 Y 52 X -3 Y 53 X -3 Y 53 X -1 Y 52 X -1 Y 53 X -1 Y 53 X -1 Y 211 X -1 Y 52 X f black 0.999 0.999 0.999 c black 363 719 m 53 X 1 Y 52 X 3 Y 53 X 5 Y 53 X 10 Y 52 X 12 Y 53 X 15 Y 53 X 12 Y 52 X 15 Y 53 X 10 Y 53 X
 10 Y 52 X -4 Y 53 X -16 Y 53 X -8 Y 53 X -14 Y 52 X -7 Y 53 X -6 Y 53 X -9 Y 52 X -4 Y 53 X -4 Y 53 X -4 Y 52 X -4 Y 53 X -2 Y 53 X -1 Y 52 X -3 Y 53 X -3 Y 53 X -1 Y 52 X -1 Y 53 X -1 Y 53 X -1 Y 211 X -1 Y 52 X s 1 1 1 c black 1 1 1 c 2154 718 m
 -1791 X 1 Y 53 X 1 Y 52 X 3 Y 53 X 5 Y 53 X 10 Y 52 X 12 Y 53 X 15 Y 53 X 12 Y 52 X 15 Y 53 X 10 Y 53 X 10 Y 52 X -4 Y 53 X -16 Y 53 X -8 Y 53 X -14 Y 52 X -7 Y 53 X -6 Y 53 X -9 Y 52 X -4 Y 53 X -4 Y 53 X -4 Y 52 X -4 Y 53 X -2 Y 53 X -1 Y 52 X -3
 Y 53 X -3 Y 53 X -1 Y 52 X -1 Y 53 X -1 Y 53 X -1 Y 211 X -1 Y 52 X f black 1 1 1 c black 363 719 m 53 X 1 Y 52 X 3 Y 53 X 5 Y 53 X 10 Y 52 X 12 Y 53 X 15 Y 53 X 12 Y 52 X 15 Y 53 X 10 Y 53 X 10 Y 52 X -4 Y 53 X -16 Y 53 X -8 Y 53 X -14 Y 52 X -7 Y
 53 X -6 Y 53 X -9 Y 52 X -4 Y 53 X -4 Y 53 X -4 Y 52 X -4 Y 53 X -2 Y 53 X -1 Y 52 X -3 Y 53 X -3 Y 53 X -1 Y 52 X -1 Y 53 X -1 Y 53 X -1 Y 211 X -1 Y 52 X s 0.4 0.4 0.8 c black 0.4 0.4 0.8 c 2154 718 m -1791 X 1 Y 53 X 1 Y 52 X 3 Y 53 X 5 Y 53 X 10
 Y 52 X 12 Y 53 X 15 Y 53 X 12 Y 52 X 15 Y 53 X 10 Y 53 X 10 Y 52 X -4 Y 53 X -16 Y 53 X -8 Y 53 X -14 Y 52 X -7 Y 53 X -6 Y 53 X -9 Y 52 X -4 Y 53 X -4 Y 53 X -4 Y 52 X -4 Y 53 X -2 Y 53 X -1 Y 52 X -3 Y 53 X -3 Y 53 X -1 Y 52 X -1 Y 53 X -1 Y 53 X
 -1 Y 211 X -1 Y 52 X f black 0.4 0.4 0.8 c black 363 719 m 53 X 1 Y 52 X 3 Y 53 X 5 Y 53 X 10 Y 52 X 12 Y 53 X 15 Y 53 X 12 Y 52 X 15 Y 53 X 10 Y 53 X 10 Y 52 X -4 Y 53 X -16 Y 53 X -8 Y 53 X -14 Y 52 X -7 Y 53 X -6 Y 53 X -9 Y 52 X -4 Y 53 X -4 Y
 53 X -4 Y 52 X -4 Y 53 X -2 Y 53 X -1 Y 52 X -3 Y 53 X -3 Y 53 X -1 Y 52 X -1 Y 53 X -1 Y 53 X -1 Y 211 X -1 Y 52 X s 0.999 0.999 0.999 c black 0.999 0.999 0.999 c 2154 718 m -1791 X 53 X 1 Y 52 X 3 Y 53 X 4 Y 53 X 7 Y 52 X 9 Y 53 X 12 Y 53 X 9 Y 52
 X 13 Y 53 X 7 Y 53 X 8 Y 52 X -3 Y 53 X -11 Y 53 X -7 Y 53 X -10 Y 52 X -7 Y 53 X -4 Y 53 X -7 Y 52 X -3 Y 53 X -3 Y 53 X -4 Y 52 X -3 Y 53 X -2 Y 105 X -3 Y 53 X -2 Y 53 X -1 Y 52 X -1 Y 106 X -1 Y 211 X -1 Y 52 X f black 0.999 0.999 0.999 c black
 363 718 m 53 X 1 Y 52 X 3 Y 53 X 4 Y 53 X 7 Y 52 X 9 Y 53 X 12 Y 53 X 9 Y 52 X 13 Y 53 X 7 Y 53 X 8 Y 52 X -3 Y 53 X -11 Y 53 X -7 Y 53 X -10 Y 52 X -7 Y 53 X -4 Y 53 X -7 Y 52 X -3 Y 53 X -3 Y 53 X -4 Y 52 X -3 Y 53 X -2 Y 105 X -3 Y 53 X -2 Y 53 X
 -1 Y 52 X -1 Y 106 X -1 Y 211 X -1 Y 52 X s 1 1 1 c black 1 1 1 c 2154 718 m -1791 X 53 X 1 Y 52 X 3 Y 53 X 4 Y 53 X 7 Y 52 X 9 Y 53 X 12 Y 53 X 9 Y 52 X 13 Y 53 X 7 Y 53 X 8 Y 52 X -3 Y 53 X -11 Y 53 X -7 Y 53 X -10 Y 52 X -7 Y 53 X -4 Y 53 X -7 Y
 52 X -3 Y 53 X -3 Y 53 X -4 Y 52 X -3 Y 53 X -2 Y 105 X -3 Y 53 X -2 Y 53 X -1 Y 52 X -1 Y 106 X -1 Y 211 X -1 Y 52 X f black 1 1 1 c black 363 718 m 53 X 1 Y 52 X 3 Y 53 X 4 Y 53 X 7 Y 52 X 9 Y 53 X 12 Y 53 X 9 Y 52 X 13 Y 53 X 7 Y 53 X 8 Y 52 X -3
 Y 53 X -11 Y 53 X -7 Y 53 X -10 Y 52 X -7 Y 53 X -4 Y 53 X -7 Y 52 X -3 Y 53 X -3 Y 53 X -4 Y 52 X -3 Y 53 X -2 Y 105 X -3 Y 53 X -2 Y 53 X -1 Y 52 X -1 Y 106 X -1 Y 211 X -1 Y 52 X s 1 0.8 0 c black 1 0.8 0 c 2154 718 m -1791 X 53 X 1 Y 52 X 3 Y 53
 X 4 Y 53 X 7 Y 52 X 9 Y 53 X 12 Y 53 X 9 Y 52 X 13 Y 53 X 7 Y 53 X 8 Y 52 X -3 Y 53 X -11 Y 53 X -7 Y 53 X -10 Y 52 X -7 Y 53 X -4 Y 53 X -7 Y 52 X -3 Y 53 X -3 Y 53 X -4 Y 52 X -3 Y 53 X -2 Y 105 X -3 Y 53 X -2 Y 53 X -1 Y 52 X -1 Y 106 X -1 Y 211
 X -1 Y 52 X f black 1 0.8 0 c black 363 718 m 53 X 1 Y 52 X 3 Y 53 X 4 Y 53 X 7 Y 52 X 9 Y 53 X 12 Y 53 X 9 Y 52 X 13 Y 53 X 7 Y 53 X 8 Y 52 X -3 Y 53 X -11 Y 53 X -7 Y 53 X -10 Y 52 X -7 Y 53 X -4 Y 53 X -7 Y 52 X -3 Y 53 X -3 Y 53 X -4 Y 52 X -3 Y
 53 X -2 Y 105 X -3 Y 53 X -2 Y 53 X -1 Y 52 X -1 Y 106 X -1 Y 211 X -1 Y 52 X s 0.999 0.999 0.999 c black 0.999 0.999 0.999 c 2154 718 m -1791 X 105 X 1 Y 106 X 2 Y 52 X 1 Y 53 X 2 Y 53 X 1 Y 52 X 2 Y 53 X 1 Y 53 X 1 Y 52 X -1 Y 53 X -1 Y 53 X -2 Y
 53 X -1 Y 52 X -1 Y 53 X -1 Y 105 X -1 Y 106 X -1 Y 105 X -1 Y 263 X -1 Y 369 X f black 0.999 0.999 0.999 c black 363 718 m 105 X 1 Y 106 X 2 Y 52 X 1 Y 53 X 2 Y 53 X 1 Y 52 X 2 Y 53 X 1 Y 53 X 1 Y 52 X -1 Y 53 X -1 Y 53 X -2 Y 53 X -1 Y 52 X -1 Y
 53 X -1 Y 105 X -1 Y 106 X -1 Y 105 X -1 Y 263 X -1 Y 369 X s 1 1 1 c black 1 1 1 c 2154 718 m -1791 X 105 X 1 Y 106 X 2 Y 52 X 1 Y 53 X 2 Y 53 X 1 Y 52 X 2 Y 53 X 1 Y 53 X 1 Y 52 X -1 Y 53 X -1 Y 53 X -2 Y 53 X -1 Y 52 X -1 Y 53 X -1 Y 105 X -1 Y
 106 X -1 Y 105 X -1 Y 263 X -1 Y 369 X f black 1 1 1 c black 363 718 m 105 X 1 Y 106 X 2 Y 52 X 1 Y 53 X 2 Y 53 X 1 Y 52 X 2 Y 53 X 1 Y 53 X 1 Y 52 X -1 Y 53 X -1 Y 53 X -2 Y 53 X -1 Y 52 X -1 Y 53 X -1 Y 105 X -1 Y 106 X -1 Y 105 X -1 Y 263 X -1 Y
 369 X s 0.6 0.2 0 c black 0.6 0.2 0 c 2154 718 m -1791 X 105 X 1 Y 106 X 2 Y 52 X 1 Y 53 X 2 Y 53 X 1 Y 52 X 2 Y 53 X 1 Y 53 X 1 Y 52 X -1 Y 53 X -1 Y 53 X -2 Y 53 X -1 Y 52 X -1 Y 53 X -1 Y 105 X -1 Y 106 X -1 Y 105 X -1 Y 263 X -1 Y 369 X f black
 0.6 0.2 0 c black 363 718 m 105 X 1 Y 106 X 2 Y 52 X 1 Y 53 X 2 Y 53 X 1 Y 52 X 2 Y 53 X 1 Y 53 X 1 Y 52 X -1 Y 53 X -1 Y 53 X -2 Y 53 X -1 Y 52 X -1 Y 53 X -1 Y 105 X -1 Y 106 X -1 Y 105 X -1 Y 263 X -1 Y 369 X s 363 718 m 1791 X s 363 753 m -35 Y
 s 407 735 m -17 Y s 451 735 m -17 Y s 495 735 m -17 Y s 538 735 m -17 Y s 582 753 m -35 Y s 626 735 m -17 Y s 670 735 m -17 Y s 714 735 m -17 Y s 758 735 m -17 Y s 802 753 m -35 Y s 846 735 m -17 Y s 890 735 m -17 Y s 934 735 m -17 Y s 978 735 m -17
 Y s 1021 753 m -35 Y s 1065 735 m -17 Y s 1109 735 m -17 Y s 1153 735 m -17 Y s 1197 735 m -17 Y s 1241 753 m -35 Y s 1285 735 m -17 Y s 1329 735 m -17 Y s 1373 735 m -17 Y s 1417 735 m -17 Y s 1461 753 m -35 Y s 1504 735 m -17 Y s 1548 735 m -17 Y
 s 1592 735 m -17 Y s 1636 735 m -17 Y s 1680 753 m -35 Y s 1724 735 m -17 Y s 1768 735 m -17 Y s 1812 735 m -17 Y s 1856 735 m -17 Y s 1900 753 m -35 Y s 1944 735 m -17 Y s 1987 735 m -17 Y s 2031 735 m -17 Y s 2075 735 m -17 Y s 2119 753 m -35 Y s
 2119 753 m -35 Y s 363 2082 m 1791 X s 363 2047 m 35 Y s 407 2064 m 18 Y s 451 2064 m 18 Y s 495 2064 m 18 Y s 538 2064 m 18 Y s 582 2047 m 35 Y s 626 2064 m 18 Y s 670 2064 m 18 Y s 714 2064 m 18 Y s 758 2064 m 18 Y s 802 2047 m 35 Y s 846 2064 m
 18 Y s 890 2064 m 18 Y s 934 2064 m 18 Y s 978 2064 m 18 Y s 1021 2047 m 35 Y s 1065 2064 m 18 Y s 1109 2064 m 18 Y s 1153 2064 m 18 Y s 1197 2064 m 18 Y s 1241 2047 m 35 Y s 1285 2064 m 18 Y s 1329 2064 m 18 Y s 1373 2064 m 18 Y s 1417 2064 m 18 Y
 s 1461 2047 m 35 Y s 1504 2064 m 18 Y s 1548 2064 m 18 Y s 1592 2064 m 18 Y s 1636 2064 m 18 Y s 1680 2047 m 35 Y s 1724 2064 m 18 Y s 1768 2064 m 18 Y s 1812 2064 m 18 Y s 1856 2064 m 18 Y s 1900 2047 m 35 Y s 1944 2064 m 18 Y s 1987 2064 m 18 Y s
 2031 2064 m 18 Y s 2075 2064 m 18 Y s 2119 2047 m 35 Y s 2119 2047 m 35 Y s 363 718 m 1364 Y s 426 859 m -63 X s 395 894 m -32 X s 395 929 m -32 X s 395 965 m -32 X s 426 1000 m -63 X s 395 1035 m -32 X s 395 1070 m -32 X s 395 1105 m -32 X s 426
 1141 m -63 X s 395 1176 m -32 X s 395 1211 m -32 X s 395 1246 m -32 X s 426 1281 m -63 X s 395 1317 m -32 X s 395 1352 m -32 X s 395 1387 m -32 X s 426 1422 m -63 X s 395 1458 m -32 X s 395 1493 m -32 X s 395 1528 m -32 X s 426 1563 m -63 X s 395
 1598 m -32 X s 395 1634 m -32 X s 395 1669 m -32 X s 426 1704 m -63 X s 395 1739 m -32 X s 395 1774 m -32 X s 395 1810 m -32 X s 426 1845 m -63 X s 395 1880 m -32 X s 395 1915 m -32 X s 395 1950 m -32 X s 426 1986 m -63 X s 426 859 m -63 X s 395 824
 m -32 X s 395 789 m -32 X s 395 753 m -32 X s 426 1986 m -63 X s 395 2021 m -32 X s 395 2056 m -32 X s 2154 718 m 1364 Y s 2091 859 m 63 X s 2123 894 m 31 X s 2123 929 m 31 X s 2123 965 m 31 X s 2091 1000 m 63 X s 2123 1035 m 31 X s 2123 1070 m 31 X
 s 2123 1105 m 31 X s 2091 1141 m 63 X s 2123 1176 m 31 X s 2123 1211 m 31 X s 2123 1246 m 31 X s 2091 1281 m 63 X s 2123 1317 m 31 X s 2123 1352 m 31 X s 2123 1387 m 31 X s 2091 1422 m 63 X s 2123 1458 m 31 X s 2123 1493 m 31 X s 2123 1528 m 31 X s
 2091 1563 m 63 X s 2123 1598 m 31 X s 2123 1634 m 31 X s 2123 1669 m 31 X s 2091 1704 m 63 X s 2123 1739 m 31 X s 2123 1774 m 31 X s 2123 1810 m 31 X s 2091 1845 m 63 X s 2123 1880 m 31 X s 2123 1915 m 31 X s 2123 1950 m 31 X s 2091 1986 m 63 X s
 2091 859 m 63 X s 2123 824 m 31 X s 2123 789 m 31 X s 2123 753 m 31 X s 2091 1986 m 63 X s 2123 2021 m 31 X s 2123 2056 m 31 X s 6 lw 1 1 1 c black 363 724 m 53 X 20 Y 52 X 57 Y 53 X 107 Y 53 X 156 Y 52 X 147 Y 53 X 113 Y 53 X 64 Y 52 X 60 Y 53 X 69
 Y 53 X -29 Y 52 X -139 Y 53 X -151 Y 53 X -115 Y 53 X -84 Y 52 X -66 Y 53 X -45 Y 53 X -37 Y 52 X -25 Y 53 X -19 Y 53 X -17 Y 52 X -16 Y 53 X -12 Y 53 X -9 Y 52 X -8 Y 53 X -8 Y 53 X -6 Y 52 X -4 Y 53 X -3 Y 53 X -2 Y 53 X -2 Y 105 X -1 Y 105 X s 1
 1 1 c black 3 lw /w 30 def /w2 {w 2 div} def /w3 {w 3 div} def 389 723 m20 6 lw 3 lw 442 740 m20 6 lw 3 lw 495 786 m20 6 lw 3 lw 547 883 m20 6 lw 3 lw 600 1026 m20 6 lw 3 lw 653 1163 m20 6 lw 3 lw 705 1283 m20 6 lw 3 lw 758 1375 m20 6 lw 3 lw 811
 1465 m20 6 lw 3 lw 863 1530 m20 6 lw 3 lw 916 1508 m20 6 lw 3 lw 969 1377 m20 6 lw 3 lw 1021 1224 m20 6 lw 3 lw 1074 1106 m20 6 lw 3 lw 1127 1009 m20 6 lw 3 lw 1180 947 m20 6 lw 3 lw 1232 896 m20 6 lw 3 lw 1285 857 m20 6 lw 3 lw 1338 826 m20 6 lw 3
 lw 1390 811 m20 6 lw 3 lw 1443 793 m20 6 lw 3 lw 1496 779 m20 6 lw 3 lw 1548 766 m20 6 lw 3 lw 1601 755 m20 6 lw 3 lw 1654 748 m20 6 lw 3 lw 1706 738 m20 6 lw 3 lw 1759 730 m20 6 lw 3 lw 1812 727 m20 6 lw 3 lw 1865 724 m20 6 lw 3 lw 1917 721 m20 6
 lw 3 lw 1970 720 m20 6 lw 3 lw 2023 719 m20 6 lw 3 lw 2075 719 m20 6 lw 3 lw 2128 719 m20 6 lw 3 lw 363 718 m 1791 X s 363 753 m -35 Y s 407 735 m -17 Y s 451 735 m -17 Y s 495 735 m -17 Y s 538 735 m -17 Y s 582 753 m -35 Y s 626 735 m -17 Y s 670
 735 m -17 Y s 714 735 m -17 Y s 758 735 m -17 Y s 802 753 m -35 Y s 846 735 m -17 Y s 890 735 m -17 Y s 934 735 m -17 Y s 978 735 m -17 Y s 1021 753 m -35 Y s 1065 735 m -17 Y s 1109 735 m -17 Y s 1153 735 m -17 Y s 1197 735 m -17 Y s 1241 753 m -35
 Y s 1285 735 m -17 Y s 1329 735 m -17 Y s 1373 735 m -17 Y s 1417 735 m -17 Y s 1461 753 m -35 Y s 1504 735 m -17 Y s 1548 735 m -17 Y s 1592 735 m -17 Y s 1636 735 m -17 Y s 1680 753 m -35 Y s 1724 735 m -17 Y s 1768 735 m -17 Y s 1812 735 m -17 Y
 s 1856 735 m -17 Y s 1900 753 m -35 Y s 1944 735 m -17 Y s 1987 735 m -17 Y s 2031 735 m -17 Y s 2075 735 m -17 Y s 2119 753 m -35 Y s 2119 753 m -35 Y s 363 2082 m 1791 X s 363 2047 m 35 Y s 407 2064 m 18 Y s 451 2064 m 18 Y s 495 2064 m 18 Y s 538
 2064 m 18 Y s 582 2047 m 35 Y s 626 2064 m 18 Y s 670 2064 m 18 Y s 714 2064 m 18 Y s 758 2064 m 18 Y s 802 2047 m 35 Y s 846 2064 m 18 Y s 890 2064 m 18 Y s 934 2064 m 18 Y s 978 2064 m 18 Y s 1021 2047 m 35 Y s 1065 2064 m 18 Y s 1109 2064 m 18 Y
 s 1153 2064 m 18 Y s 1197 2064 m 18 Y s 1241 2047 m 35 Y s 1285 2064 m 18 Y s 1329 2064 m 18 Y s 1373 2064 m 18 Y s 1417 2064 m 18 Y s 1461 2047 m 35 Y s 1504 2064 m 18 Y s 1548 2064 m 18 Y s 1592 2064 m 18 Y s 1636 2064 m 18 Y s 1680 2047 m 35 Y s
 1724 2064 m 18 Y s 1768 2064 m 18 Y s 1812 2064 m 18 Y s 1856 2064 m 18 Y s 1900 2047 m 35 Y s 1944 2064 m 18 Y s 1987 2064 m 18 Y s 2031 2064 m 18 Y s 2075 2064 m 18 Y s 2119 2047 m 35 Y s 2119 2047 m 35 Y s 363 718 m 1364 Y s 426 859 m -63 X s 395
 894 m -32 X s 395 929 m -32 X s 395 965 m -32 X s 426 1000 m -63 X s 395 1035 m -32 X s 395 1070 m -32 X s 395 1105 m -32 X s 426 1141 m -63 X s 395 1176 m -32 X s 395 1211 m -32 X s 395 1246 m -32 X s 426 1281 m -63 X s 395 1317 m -32 X s 395 1352
 m -32 X s 395 1387 m -32 X s 426 1422 m -63 X s 395 1458 m -32 X s 395 1493 m -32 X s 395 1528 m -32 X s 426 1563 m -63 X s 395 1598 m -32 X s 395 1634 m -32 X s 395 1669 m -32 X s 426 1704 m -63 X s 395 1739 m -32 X s 395 1774 m -32 X s 395 1810 m
 -32 X s 426 1845 m -63 X s 395 1880 m -32 X s 395 1915 m -32 X s 395 1950 m -32 X s 426 1986 m -63 X s 426 859 m -63 X s 395 824 m -32 X s 395 789 m -32 X s 395 753 m -32 X s 426 1986 m -63 X s 395 2021 m -32 X s 395 2056 m -32 X s 2154 718 m 1364 Y
 s 2091 859 m 63 X s 2123 894 m 31 X s 2123 929 m 31 X s 2123 965 m 31 X s 2091 1000 m 63 X s 2123 1035 m 31 X s 2123 1070 m 31 X s 2123 1105 m 31 X s 2091 1141 m 63 X s 2123 1176 m 31 X s 2123 1211 m 31 X s 2123 1246 m 31 X s 2091 1281 m 63 X s 2123
 1317 m 31 X s 2123 1352 m 31 X s 2123 1387 m 31 X s 2091 1422 m 63 X s 2123 1458 m 31 X s 2123 1493 m 31 X s 2123 1528 m 31 X s 2091 1563 m 63 X s 2123 1598 m 31 X s 2123 1634 m 31 X s 2123 1669 m 31 X s 2091 1704 m 63 X s 2123 1739 m 31 X s 2123
 1774 m 31 X s 2123 1810 m 31 X s 2091 1845 m 63 X s 2123 1880 m 31 X s 2123 1915 m 31 X s 2123 1950 m 31 X s 2091 1986 m 63 X s 2091 859 m 63 X s 2123 824 m 31 X s 2123 789 m 31 X s 2123 753 m 31 X s 2091 1986 m 63 X s 2123 2021 m 31 X s 2123 2056 m
 31 X s
 gsave  2268 1458 0 718 C 1552.4 1978.54 t 0 r /Helvetica findfont 57.1092 sf 0 0 m (Data 2015+2016+2017) show NC gr  6 lw 1468 1972 m 44 Y s 3 lw 1468 1994 m20 6 lw
 gsave  2268 1458 0 718 C 1598.06 1906.25 t 0 r /Helvetica findfont 57.1092 sf 0 0 m ( \(top\)) show NC gr 
 gsave  2268 1458 0 718 C 1575.23 1906.25 t 0 r /Helvetica-Oblique findfont 57.1092 sf 0 0 m (t) show NC gr  1575 1956 m 23 X s
 gsave  2268 1458 0 718 C 1552.4 1906.25 t 0 r /Helvetica-Oblique findfont 57.1092 sf 0 0 m (t) show NC gr  1 1 1 c 3 lw 1409 1896 m 119 X 51 Y -119 X f 6 lw black 3 lw 1409 1947 m 119 X s 1409 1896 m 119 X s 1528 1896 m 51 Y s 1409 1896 m 51 Y s
 gsave  2268 1458 0 718 C 1696.98 1833.96 t 0 r /Helvetica findfont 57.1092 sf 0 0 m (\)) show NC gr 
 gsave  2268 1458 0 718 C 1632.3 1833.96 t 0 r /Helvetica-Oblique findfont 57.1092 sf 0 0 m (W) show NC gr 
 gsave  2268 1458 0 718 C 1598.06 1833.96 t 0 r /Helvetica findfont 57.1092 sf 0 0 m ( \() show NC gr 
 gsave  2268 1458 0 718 C 1575.23 1833.96 t 0 r /Helvetica-Oblique findfont 57.1092 sf 0 0 m (t) show NC gr  6 lw 1575 1883 m 23 X s
 gsave  2268 1458 0 718 C 1552.4 1833.96 t 0 r /Helvetica-Oblique findfont 57.1092 sf 0 0 m (t) show NC gr  0.8 0.8 0.8 c 3 lw 1409 1823 m 119 X 51 Y -119 X f 6 lw black 3 lw 1409 1874 m 119 X s 1409 1823 m 119 X s 1528 1823 m 51 Y s 1409 1823 m 51 Y
 s
 gsave  2268 1458 0 718 C 1598.06 1761.67 t 0 r /Helvetica findfont 57.1092 sf 0 0 m ( \(other\)) show NC gr 
 gsave  2268 1458 0 718 C 1575.23 1761.67 t 0 r /Helvetica-Oblique findfont 57.1092 sf 0 0 m (t) show NC gr  6 lw 1575 1811 m 23 X s
 gsave  2268 1458 0 718 C 1552.4 1761.67 t 0 r /Helvetica-Oblique findfont 57.1092 sf 0 0 m (t) show NC gr  0.4 0.4 0.4 c 3 lw 1409 1750 m 119 X 51 Y -119 X f 6 lw black 3 lw 1409 1801 m 119 X s 1409 1750 m 119 X s 1528 1750 m 51 Y s 1409 1750 m 51 Y
 s
 gsave  2268 1458 0 718 C 1925.28 1689.37 t 0 r /Helvetica findfont 57.1092 sf 0 0 m (\)) show NC gr 
 gsave  2268 1458 0 718 C 1860.59 1689.37 t 0 r /Helvetica-Oblique findfont 57.1092 sf 0 0 m (W) show NC gr 
 gsave  2268 1458 0 718 C 1552.4 1689.37 t 0 r /Helvetica findfont 57.1092 sf 0 0 m (Single Top \() show NC gr  0.2 0.6 1 c 1409 1677 m 119 X 51 Y -119 X f black 1409 1728 m 119 X s 1409 1677 m 119 X s 1528 1677 m 51 Y s 1409 1677 m 51 Y s
 gsave  2268 1458 0 718 C 1552.4 1613.27 t 0 r /Helvetica findfont 57.1092 sf 0 0 m (Single Top \(other\)) show NC gr  0.4 0.4 0.8 c 1409 1604 m 119 X 51 Y -119 X f black 1409 1655 m 119 X s 1409 1604 m 119 X s 1528 1604 m 51 Y s 1409 1604 m 51 Y s
 gsave  2268 1458 0 718 C 1617.08 1540.98 t 0 r /Helvetica findfont 57.1092 sf 0 0 m ( + jets) show NC gr 
 gsave  2268 1458 0 718 C 1552.4 1540.98 t 0 r /Helvetica-Oblique findfont 57.1092 sf 0 0 m (W) show NC gr  1 0.8 0 c 1409 1531 m 119 X 51 Y -119 X f black 1409 1582 m 119 X s 1409 1531 m 119 X s 1528 1531 m 51 Y s 1409 1531 m 51 Y s
 gsave  2268 1458 0 718 C 1712.2 1468.69 t 0 r /Helvetica findfont 57.1092 sf 0 0 m ( + jets) show NC gr 
 gsave  2268 1458 0 718 C 1666.54 1468.69 t 0 r /Helvetica-Oblique findfont 57.1092 sf 0 0 m (Z) show NC gr 
 gsave  2268 1458 0 718 C 1636.1 1468.69 t 0 r /Helvetica findfont 57.1092 sf 0 0 m (, ) show NC gr 
 gsave  2268 1458 0 718 C 1552.4 1468.69 t 0 r /Helvetica-Oblique findfont 57.1092 sf 0 0 m (VV) show NC gr  0.6 0.2 0 c 1409 1458 m 119 X 51 Y -119 X f black 1409 1509 m 119 X s 1409 1458 m 119 X s 1528 1458 m 51 Y s 1409 1458 m 51 Y s
 gsave  2268 1458 0 718 C 1552.4 1396.4 t 0 r /Helvetica findfont 57.1092 sf 0 0 m (Total uncert.) show NC gr  0.6 0.8 0.6 c 1409 1385 m 119 X 51 Y -119 X f black
 gsave  2268 1458 0 718 C 1552.4 1324.1 t 0 r /Helvetica findfont 57.1092 sf 0 0 m (Stat. uncert.) show NC gr  0.4 0.6 0.4 c 3 lw 1409 1312 m 119 X 51 Y -119 X f black
 gsave  2268 1458 0 718 C 1598.06 1251.81 t 0 r /Helvetica findfont 57.1092 sf 0 0 m ( modelling uncert.) show NC gr 
 gsave  2268 1458 0 718 C 1575.23 1251.81 t 0 r /Helvetica-Oblique findfont 57.1092 sf 0 0 m (t) show NC gr  6 lw 1575 1301 m 23 X s
 gsave  2268 1458 0 718 C 1552.4 1251.81 t 0 r /Helvetica-Oblique findfont 57.1092 sf 0 0 m (t) show NC gr  1 1 1 c 3 lw 1409 1240 m 119 X 51 Y -119 X cl s 6 lw 0.8 0 0 c 1409 1265 m 119 X s black
 gsave  2268 1458 0 718 C 966.443 2001.37 t 0 r /Helvetica findfont 38.0728 sf 0 0 m (\2551) show NC gr 
 gsave  2268 1458 0 718 C 509.856 1974.74 t 0 r /Helvetica findfont 57.1092 sf 0 0 m ( = 13 TeV, 80.5 fb) show NC gr 
 gsave  2268 1458 0 718 C 483.221 1974.74 t 0 r /Helvetica findfont 57.1092 sf 0 0 m (s) show NC gr  460 2009 m 8 -38 d s 3 lw 468 1971 m 8 57 d s 476 2028 m 34 X s
 gsave  2268 1458 0 718 C 913.174 1894.84 t 0 r /Helvetica findfont 57.1092 sf 0 0 m (=1.0 jets) show NC gr 
 gsave  2268 1458 0 718 C 867.516 1894.84 t 0 r /Helvetica-Oblique findfont 57.1092 sf 0 0 m (R) show NC gr 
 gsave  2268 1458 0 718 C 848.491 1894.84 t 0 r /Helvetica findfont 57.1092 sf 0 0 m ( ) show NC gr 
 gsave  2268 1458 0 718 C 837.077 1879.62 t 0 r /Helvetica findfont 38.0728 sf 0 0 m (t) show NC gr 
 gsave  2268 1458 0 718 C 802.833 1894.84 t 0 r /Helvetica-Oblique findfont 57.1092 sf 0 0 m (k) show NC gr 
 gsave  2268 1458 0 718 C 452.782 1894.84 t 0 r /Helvetica findfont 57.1092 sf 0 0 m (Trimmed anti\255) show NC gr 
 gsave  2268 1458 0 718 C 886.54 1814.93 t 0 r /Helvetica findfont 57.1092 sf 0 0 m (\255jet\) > 1.0) show NC gr 
 gsave  2268 1458 0 718 C 852.296 1814.93 t 0 r /Helvetica-Oblique findfont 57.1092 sf 0 0 m (b) show NC gr 
 gsave  2268 1458 0 718 C 745.759 1814.93 t 0 r /Helvetica findfont 57.1092 sf 0 0 m ( jet, ) show NC gr 
 gsave  2268 1458 0 718 C 700.1 1814.93 t 0 r /Helvetica-Oblique findfont 57.1092 sf 0 0 m (R) show NC gr 
 gsave  2268 1458 0 718 C 536.49 1814.93 t 0 r /Helvetica findfont 57.1092 sf 0 0 m (\(large\255) show NC gr 
 gsave  2268 1458 0 718 C 490.831 1814.93 t 0 r /Helvetica-Oblique findfont 57.1092 sf 0 0 m (R) show NC gr 
 gsave  2268 1458 0 718 C 452.782 1814.93 t 0 r /Symbol findfont 57.1092 sf 0 0 m (D) show NC gr 
 gsave  2268 1458 0 718 C 509.856 1735.03 t 0 r /Helvetica findfont 57.1092 sf 0 0 m ( > 200 GeV) show NC gr 
 gsave  2268 1458 0 718 C 487.026 1704.59 t 0 r /Helvetica findfont 38.0728 sf 0 0 m (T) show NC gr 
 gsave  2268 1458 0 718 C 452.782 1735.03 t 0 r /Helvetica-Oblique findfont 57.1092 sf 0 0 m (p) show NC gr 
 gsave  2268 1458 0 718 C 597.368 1655.13 t 0 r /Helvetica findfont 57.1092 sf 0 0 m ( > 50 GeV) show NC gr 
 gsave  2268 1458 0 718 C 502.246 1681.76 t 0 r /Helvetica findfont 38.0728 sf 0 0 m (comb) show NC gr 
 gsave  2268 1458 0 718 C 452.782 1655.13 t 0 r /Helvetica-Oblique findfont 57.1092 sf 0 0 m (m) show NC gr  1 1 1 c 2268 718 0 0 bf black 1 1 1 c 1791 496 363 215 bf black 1791 496 363 215 bl 1 1 1 c 1791 496 363 215 bf black 1791 496 363 215 bl 363
 215 m 1791 X s 363 711 m 1791 X s 363 215 m 496 Y s[ 4 8] 0 sd 2154 298 m -1791 X s 2154 463 m -1791 X s 2154 628 m -1791 X s 2154 298 m -1791 X s 2154 628 m -1791 X s[  ] 0 sd 2154 215 m 496 Y s 6 lw 1 1 1 c black 389 366 m 24 Y s 389 421 m 24 Y s
 3 lw 389 406 m20 6 lw 442 387 m 4 Y s 442 422 m 3 Y s 3 lw 442 406 m20 6 lw 3 lw 495 405 m20 6 lw 3 lw 547 419 m20 6 lw 3 lw 600 427 m20 6 lw 3 lw 653 431 m20 6 lw 3 lw 705 441 m20 6 lw 3 lw 758 457 m20 6 lw 3 lw 811 471 m20 6 lw 3 lw 863 468 m20 6
 lw 3 lw 916 472 m20 6 lw 3 lw 969 478 m20 6 lw 3 lw 1021 481 m20 6 lw 3 lw 1074 484 m20 6 lw 3 lw 1127 475 m20 6 lw 3 lw 1180 485 m20 6 lw 3 lw 1232 479 m20 6 lw 3 lw 1285 476 m20 6 lw 3 lw 1338 465 m20 6 lw 3 lw 1390 478 m20 6 lw 3 lw 1443 479 m20
 6 lw 3 lw 1496 492 m20 6 lw 3 lw 1548 493 m20 6 lw 3 lw 1601 480 m20 6 lw 1654 492 m s 1654 523 m s 3 lw 1654 508 m20 6 lw 1706 457 m 5 Y s 1706 492 m 5 Y s 3 lw 1706 477 m20 6 lw 1759 422 m 10 Y s 1759 462 m 11 Y s 3 lw 1759 447 m20 6 lw 1812 459 m
 14 Y s 1812 503 m 14 Y s 3 lw 1812 488 m20 6 lw 1865 458 m 20 Y s 1865 509 m 20 Y s 3 lw 1865 493 m20 6 lw 1917 365 m 35 Y s 1917 430 m 35 Y s 3 lw 1917 415 m20 6 lw 1970 355 m 48 Y s 1970 433 m 47 Y s 3 lw 1970 418 m20 6 lw 2023 325 m 65 Y s 2023
 421 m 65 Y s 3 lw 2023 406 m20 6 lw 2075 403 m 68 Y s 2075 501 m 67 Y s 3 lw 2075 486 m20 6 lw 2128 261 m 110 Y s 2128 401 m 110 Y s 3 lw 2128 386 m20 6 lw 3 lw 363 215 m 1791 X s
 gsave  2268 718 0 0 C 2126.94 45.6587 t 0 r /Helvetica findfont 45.8433 sf 0 0 m (2) show NC gr 
 gsave  2268 718 0 0 C 2069.86 64.6832 t 0 r /Helvetica-Oblique findfont 72.5852 sf 0 0 m (D) show NC gr 
 gsave  2268 718 0 0 C 1951.91 64.6832 t 0 r /Helvetica findfont 72.5852 sf 0 0 m ( jet ) show NC gr 
 gsave  2268 718 0 0 C 1894.84 64.6832 t 0 r /Helvetica-Oblique findfont 72.5852 sf 0 0 m (R) show NC gr 
 gsave  2268 718 0 0 C 1434.44 64.6832 t 0 r /Helvetica findfont 72.5852 sf 0 0 m (Leading large\255) show NC gr  363 232 m -17 Y s 407 224 m -9 Y s 451 224 m -9 Y s 495 224 m -9 Y s 538 224 m -9 Y s 582 232 m -17 Y s 626 224 m -9 Y s 670 224 m -9 Y
 s 714 224 m -9 Y s 758 224 m -9 Y s 802 232 m -17 Y s 846 224 m -9 Y s 890 224 m -9 Y s 934 224 m -9 Y s 978 224 m -9 Y s 1021 232 m -17 Y s 1065 224 m -9 Y s 1109 224 m -9 Y s 1153 224 m -9 Y s 1197 224 m -9 Y s 1241 232 m -17 Y s 1285 224 m -9 Y s
 1329 224 m -9 Y s 1373 224 m -9 Y s 1417 224 m -9 Y s 1461 232 m -17 Y s 1504 224 m -9 Y s 1548 224 m -9 Y s 1592 224 m -9 Y s 1636 224 m -9 Y s 1680 232 m -17 Y s 1724 224 m -9 Y s 1768 224 m -9 Y s 1812 224 m -9 Y s 1856 224 m -9 Y s 1900 232 m
 -17 Y s 1944 224 m -9 Y s 1987 224 m -9 Y s 2031 224 m -9 Y s 2075 224 m -9 Y s 2119 232 m -17 Y s 2119 232 m -17 Y s
 gsave  2268 718 0 0 C 342.44 152.196 t 0 r /Helvetica findfont 72.5852 sf 0 0 m (0) show NC gr 
 gsave  2268 718 0 0 C 532.685 152.196 t 0 r /Helvetica findfont 72.5852 sf 0 0 m (0.5) show NC gr 
 gsave  2268 718 0 0 C 783.808 152.196 t 0 r /Helvetica findfont 72.5852 sf 0 0 m (1) show NC gr 
 gsave  2268 718 0 0 C 970.248 152.196 t 0 r /Helvetica findfont 72.5852 sf 0 0 m (1.5) show NC gr 
 gsave  2268 718 0 0 C 1221.37 152.196 t 0 r /Helvetica findfont 72.5852 sf 0 0 m (2) show NC gr 
 gsave  2268 718 0 0 C 1407.81 152.196 t 0 r /Helvetica findfont 72.5852 sf 0 0 m (2.5) show NC gr 
 gsave  2268 718 0 0 C 1658.93 152.196 t 0 r /Helvetica findfont 72.5852 sf 0 0 m (3) show NC gr 
 gsave  2268 718 0 0 C 1849.18 152.196 t 0 r /Helvetica findfont 72.5852 sf 0 0 m (3.5) show NC gr 
 gsave  2268 718 0 0 C 2096.5 152.196 t 0 r /Helvetica findfont 72.5852 sf 0 0 m (4) show NC gr  363 711 m 1791 X s 363 694 m 17 Y s 407 703 m 8 Y s 451 703 m 8 Y s 495 703 m 8 Y s 538 703 m 8 Y s 582 694 m 17 Y s 626 703 m 8 Y s 670 703 m 8 Y s 714
 703 m 8 Y s 758 703 m 8 Y s 802 694 m 17 Y s 846 703 m 8 Y s 890 703 m 8 Y s 934 703 m 8 Y s 978 703 m 8 Y s 1021 694 m 17 Y s 1065 703 m 8 Y s 1109 703 m 8 Y s 1153 703 m 8 Y s 1197 703 m 8 Y s 1241 694 m 17 Y s 1285 703 m 8 Y s 1329 703 m 8 Y s
 1373 703 m 8 Y s 1417 703 m 8 Y s 1461 694 m 17 Y s 1504 703 m 8 Y s 1548 703 m 8 Y s 1592 703 m 8 Y s 1636 703 m 8 Y s 1680 694 m 17 Y s 1724 703 m 8 Y s 1768 703 m 8 Y s 1812 703 m 8 Y s 1856 703 m 8 Y s 1900 694 m 17 Y s 1944 703 m 8 Y s 1987 703
 m 8 Y s 2031 703 m 8 Y s 2075 703 m 8 Y s 2119 694 m 17 Y s 2119 694 m 17 Y s 363 215 m 496 Y s
 gsave  2268 718 0 0 C 133.171 292.977 t 90 r /Helvetica findfont 72.5852 sf 0 0 m (Data/Pred.) show NC gr  410 298 m -47 X s 386 331 m -23 X s 386 364 m -23 X s 386 397 m -23 X s 386 430 m -23 X s 410 463 m -47 X s 386 496 m -23 X s 386 529 m -23 X
 s 386 562 m -23 X s 386 595 m -23 X s 410 628 m -47 X s 410 298 m -47 X s 386 265 m -23 X s 386 232 m -23 X s 410 628 m -47 X s 386 661 m -23 X s 386 695 m -23 X s
 gsave  2268 718 0 0 C 251.123 273.952 t 0 r /Helvetica findfont 72.5852 sf 0 0 m (0.5) show NC gr 
 gsave  2268 718 0 0 C 323.416 433.758 t 0 r /Helvetica findfont 72.5852 sf 0 0 m (1) show NC gr 
 gsave  2268 718 0 0 C 251.123 604.978 t 0 r /Helvetica findfont 72.5852 sf 0 0 m (1.5) show NC gr  2154 215 m 496 Y s 2107 298 m 47 X s 2131 331 m 23 X s 2131 364 m 23 X s 2131 397 m 23 X s 2131 430 m 23 X s 2107 463 m 47 X s 2131 496 m 23 X s 2131
 529 m 23 X s 2131 562 m 23 X s 2131 595 m 23 X s 2107 628 m 47 X s 2107 298 m 47 X s 2131 265 m 23 X s 2131 232 m 23 X s 2107 628 m 47 X s 2131 661 m 23 X s 2131 695 m 23 X s 0.6 0.8 0.6 c black 0.6 0.8 0.6 c 53 301 363 313 bf 52 192 416 367 bf 53
 239 468 344 bf 53 213 521 357 bf 52 193 574 367 bf 53 145 626 391 bf 53 124 679 401 bf 52 100 732 413 bf 53 98 784 414 bf 53 94 837 416 bf 52 99 890 414 bf 53 113 942 407 bf 53 126 995 400 bf 53 133 1048 397 bf 52 135 1101 396 bf 53 142 1153 392 bf
 53 163 1206 382 bf 52 168 1259 379 bf 53 175 1311 376 bf 53 146 1364 390 bf 52 165 1417 381 bf 53 175 1469 376 bf 53 212 1522 357 bf 52 222 1575 352 bf 53 225 1627 351 bf 53 218 1680 354 bf 52 276 1733 325 bf 53 300 1785 313 bf 53 264 1838 331 bf 53
 213 1891 357 bf 52 224 1944 351 bf 53 398 1996 264 bf 53 452 2049 237 bf 52 419 2102 254 bf black 0.4 0.6 0.4 c black 0.4 0.6 0.4 c 53 33 363 447 bf 52 16 416 455 bf 53 9 468 459 bf 53 6 521 460 bf 52 4 574 461 bf 53 4 626 461 bf 53 4 679 461 bf 52
 3 732 462 bf 53 3 784 462 bf 53 3 837 462 bf 52 4 890 461 bf 53 4 942 461 bf 53 4 995 461 bf 53 5 1048 461 bf 52 6 1101 460 bf 53 6 1153 460 bf 53 9 1206 459 bf 52 8 1259 459 bf 53 10 1311 458 bf 53 10 1364 458 bf 52 11 1417 458 bf 53 12 1469 457 bf
 53 14 1522 456 bf 52 17 1575 455 bf 53 17 1627 455 bf 53 19 1680 454 bf 52 24 1733 451 bf 53 29 1785 449 bf 53 36 1838 445 bf 53 47 1891 440 bf 52 49 1944 439 bf 53 65 1996 431 bf 53 79 2049 424 bf 52 116 2102 405 bf 0.8 0 0 c 6 lw 1 1 1 c black 0.8
 0 0 c 363 611 m 53 X -54 Y 52 X 24 Y 53 X -14 Y 53 X -10 Y 52 X -24 Y 53 X -12 Y 53 X -13 Y 52 X -1 Y 53 X -3 Y 53 X 2 Y 52 X 8 Y 53 X 6 Y 53 X 4 Y 53 X 1 Y 52 X 3 Y 53 X 11 Y 53 X 2 Y 52 X 3 Y 53 X -16 Y 53 X 10 Y 52 X 7 Y 53 X 19 Y 53 X 4 Y 52 X 1
 Y 53 X -3 Y 53 X 29 Y 52 X 12 Y 53 X -19 Y 53 X -28 Y 53 X 3 Y 52 X 90 Y 53 X 19 Y 53 X -12 Y 52 X 51 Y s 1 1 1 c black 0.8 0 0 c 363 315 m 53 X 55 Y 52 X -24 Y 53 X 13 Y 53 X 10 Y 52 X 25 Y 53 X 11 Y 53 X 13 Y 52 X 2 Y 53 X 3 Y 53 X -3 Y 52 X -7 Y
 53 X -7 Y 53 X -3 Y 53 X -1 Y 52 X -3 Y 53 X -11 Y 53 X -3 Y 52 X -3 Y 53 X 16 Y 53 X -10 Y 52 X -6 Y 53 X -19 Y 53 X -4 Y 52 X -2 Y 53 X 3 Y 53 X -29 Y 52 X -12 Y 53 X 20 Y 53 X 28 Y 53 X -3 Y 52 X -91 Y 53 X -19 Y 53 X 12 Y 52 X -51 Y s black 3 lw
 363 215 m 1791 X s 363 232 m -17 Y s 407 224 m -9 Y s 451 224 m -9 Y s 495 224 m -9 Y s 538 224 m -9 Y s 582 232 m -17 Y s 626 224 m -9 Y s 670 224 m -9 Y s 714 224 m -9 Y s 758 224 m -9 Y s 802 232 m -17 Y s 846 224 m -9 Y s 890 224 m -9 Y s 934
 224 m -9 Y s 978 224 m -9 Y s 1021 232 m -17 Y s 1065 224 m -9 Y s 1109 224 m -9 Y s 1153 224 m -9 Y s 1197 224 m -9 Y s 1241 232 m -17 Y s 1285 224 m -9 Y s 1329 224 m -9 Y s 1373 224 m -9 Y s 1417 224 m -9 Y s 1461 232 m -17 Y s 1504 224 m -9 Y s
 1548 224 m -9 Y s 1592 224 m -9 Y s 1636 224 m -9 Y s 1680 232 m -17 Y s 1724 224 m -9 Y s 1768 224 m -9 Y s 1812 224 m -9 Y s 1856 224 m -9 Y s 1900 232 m -17 Y s 1944 224 m -9 Y s 1987 224 m -9 Y s 2031 224 m -9 Y s 2075 224 m -9 Y s 2119 232 m
 -17 Y s 2119 232 m -17 Y s 363 711 m 1791 X s 363 694 m 17 Y s 407 703 m 8 Y s 451 703 m 8 Y s 495 703 m 8 Y s 538 703 m 8 Y s 582 694 m 17 Y s 626 703 m 8 Y s 670 703 m 8 Y s 714 703 m 8 Y s 758 703 m 8 Y s 802 694 m 17 Y s 846 703 m 8 Y s 890 703
 m 8 Y s 934 703 m 8 Y s 978 703 m 8 Y s 1021 694 m 17 Y s 1065 703 m 8 Y s 1109 703 m 8 Y s 1153 703 m 8 Y s 1197 703 m 8 Y s 1241 694 m 17 Y s 1285 703 m 8 Y s 1329 703 m 8 Y s 1373 703 m 8 Y s 1417 703 m 8 Y s 1461 694 m 17 Y s 1504 703 m 8 Y s
 1548 703 m 8 Y s 1592 703 m 8 Y s 1636 703 m 8 Y s 1680 694 m 17 Y s 1724 703 m 8 Y s 1768 703 m 8 Y s 1812 703 m 8 Y s 1856 703 m 8 Y s 1900 694 m 17 Y s 1944 703 m 8 Y s 1987 703 m 8 Y s 2031 703 m 8 Y s 2075 703 m 8 Y s 2119 694 m 17 Y s 2119 694
 m 17 Y s 363 215 m 496 Y s 410 298 m -47 X s 386 331 m -23 X s 386 364 m -23 X s 386 397 m -23 X s 386 430 m -23 X s 410 463 m -47 X s 386 496 m -23 X s 386 529 m -23 X s 386 562 m -23 X s 386 595 m -23 X s 410 628 m -47 X s 410 298 m -47 X s 386
 265 m -23 X s 386 232 m -23 X s 410 628 m -47 X s 386 661 m -23 X s 386 695 m -23 X s 2154 215 m 496 Y s 2107 298 m 47 X s 2131 331 m 23 X s 2131 364 m 23 X s 2131 397 m 23 X s 2131 430 m 23 X s 2107 463 m 47 X s 2131 496 m 23 X s 2131 529 m 23 X s
 2131 562 m 23 X s 2131 595 m 23 X s 2107 628 m 47 X s 2107 298 m 47 X s 2131 265 m 23 X s 2131 232 m 23 X s 2107 628 m 47 X s 2131 661 m 23 X s 2131 695 m 23 X s 363 215 m 1791 X s 363 711 m 1791 X s 363 215 m 496 Y s[ 4 8] 0 sd 2154 298 m -1791 X s
 2154 463 m -1791 X s 2154 628 m -1791 X s 2154 298 m -1791 X s 2154 628 m -1791 X s[  ] 0 sd 2154 215 m 496 Y s 6 lw 1 1 1 c black 389 366 m 24 Y s 389 421 m 24 Y s 3 lw 389 406 m20 6 lw 442 387 m 4 Y s 442 422 m 3 Y s 3 lw 442 406 m20 6 lw 3 lw 495
 405 m20 6 lw 3 lw 547 419 m20 6 lw 3 lw 600 427 m20 6 lw 3 lw 653 431 m20 6 lw 3 lw 705 441 m20 6 lw 3 lw 758 457 m20 6 lw 3 lw 811 471 m20 6 lw 3 lw 863 468 m20 6 lw 3 lw 916 472 m20 6 lw 3 lw 969 478 m20 6 lw 3 lw 1021 481 m20 6 lw 3 lw 1074 484
 m20 6 lw 3 lw 1127 475 m20 6 lw 3 lw 1180 485 m20 6 lw 3 lw 1232 479 m20 6 lw 3 lw 1285 476 m20 6 lw 3 lw 1338 465 m20 6 lw 3 lw 1390 478 m20 6 lw 3 lw 1443 479 m20 6 lw 3 lw 1496 492 m20 6 lw 3 lw 1548 493 m20 6 lw 3 lw 1601 480 m20 6 lw 1654 492 m
 s 1654 523 m s 3 lw 1654 508 m20 6 lw 1706 457 m 5 Y s 1706 492 m 5 Y s 3 lw 1706 477 m20 6 lw 1759 422 m 10 Y s 1759 462 m 11 Y s 3 lw 1759 447 m20 6 lw 1812 459 m 14 Y s 1812 503 m 14 Y s 3 lw 1812 488 m20 6 lw 1865 458 m 20 Y s 1865 509 m 20 Y s
 3 lw 1865 493 m20 6 lw 1917 365 m 35 Y s 1917 430 m 35 Y s 3 lw 1917 415 m20 6 lw 1970 355 m 48 Y s 1970 433 m 47 Y s 3 lw 1970 418 m20 6 lw 2023 325 m 65 Y s 2023 421 m 65 Y s 3 lw 2023 406 m20 6 lw 2075 403 m 68 Y s 2075 501 m 67 Y s 3 lw 2075 486
 m20 6 lw 2128 261 m 110 Y s 2128 401 m 110 Y s 3 lw 2128 386 m20 6 lw
 gr  gr showpage
end
%%EOF
