%!PS-Adobe-2.0 EPSF-2.0
%%BoundingBox:  0 0 567 544
%%Title: : c
%%Creator: ROOT Version 6.04/14
%%CreationDate: Wed May 12 03:52:28 2021
%%DocumentNeededResources: ProcSet (FontSetInit)
%%EndComments
%%BeginProlog
80 dict begin
/s {stroke} def /l {lineto} def /m {moveto} def /t {translate} def
/r {rotate} def /rl {roll}  def /R {repeat} def
/d {rlineto} def /rm {rmoveto} def /gr {grestore} def /f {eofill} def
/c {setrgbcolor} def /black {0 setgray} def /sd {setdash} def
/cl {closepath} def /sf {scalefont setfont} def /lw {setlinewidth} def
/box {m dup 0 exch d exch 0 d 0 exch neg d cl} def
/NC{systemdict begin initclip end}def/C{NC box clip newpath}def
/bl {box s} def /bf {gsave box gsave f grestore 1 lw [] 0 sd s grestore} def /Y { 0 exch d} def /X { 0 d} def 
/K {{pop pop 0 moveto} exch kshow} bind def
/ita {/ang 15 def gsave [1 0 ang dup sin exch cos div 1 0 0] concat} def 
/mp {newpath /y exch def /x exch def} def
/side {[w .77 mul w .23 mul] .385 w mul sd w 0 l currentpoint t -144 r} def
/mr {mp x y w2 0 360 arc} def /m24 {mr s} def /m20 {mr f} def
/mb {mp x y w2 add m w2 neg 0 d 0 w neg d w 0 d 0 w d cl} def
/mt {mp x y w2 add m w2 neg w neg d w 0 d cl} def
/m21 {mb f} def /m25 {mb s} def /m22 {mt f} def /m26{mt s} def
/m23 {mp x y w2 sub m w2 w d w neg 0 d cl f} def
/m27 {mp x y w2 add m w3 neg w2 neg d w3 w2 neg d w3 w2 d cl s} def
/m28 {mp x w2 sub y w2 sub w3 add m w3 0 d  0 w3 neg d w3 0 d 0 w3 d w3 0 d  0 w3 d w3 neg 0 d 0 w3 d w3 neg 0 d 0 w3 neg d w3 neg 0 d cl s } def
/m29 {mp gsave x w2 sub y w2 add w3 sub m currentpoint t 4 {side} repeat cl fill gr} def
/m30 {mp gsave x w2 sub y w2 add w3 sub m currentpoint t 4 {side} repeat cl s gr} def
/m31 {mp x y w2 sub m 0 w d x w2 sub y m w 0 d x w2 sub y w2 add m w w neg d x w2 sub y w2 sub m w w d s} def
/m32 {mp x y w2 sub m w2 w d w neg 0 d cl s} def
/m33 {mp x y w2 add m w3 neg w2 neg d w3 w2 neg d w3 w2 d cl f} def
/m34 {mp x w2 sub y w2 sub w3 add m w3 0 d  0 w3 neg d w3 0 d 0 w3 d w3 0 d  0 w3 d w3 neg 0 d 0 w3 d w3 neg 0 d 0 w3 neg d w3 neg 0 d cl f } def
/m2 {mp x y w2 sub m 0 w d x w2 sub y m w 0 d s} def
/m5 {mp x w2 sub y w2 sub m w w d x w2 sub y w2 add m w w neg d s} def
%%IncludeResource: ProcSet (FontSetInit)
%%IncludeResource: font Times-Roman
%%IncludeResource: font Times-Italic
%%IncludeResource: font Times-Bold
%%IncludeResource: font Times-BoldItalic
%%IncludeResource: font Helvetica
%%IncludeResource: font Helvetica-Oblique
%%IncludeResource: font Helvetica-Bold
%%IncludeResource: font Helvetica-BoldOblique
%%IncludeResource: font Courier
%%IncludeResource: font Courier-Oblique
%%IncludeResource: font Courier-Bold
%%IncludeResource: font Courier-BoldOblique
%%IncludeResource: font Symbol
%%IncludeResource: font ZapfDingbats
/reEncode {exch findfont dup length dict begin {1 index /FID eq  {pop pop} {def} ifelse } forall /Encoding exch def currentdict end dup /FontName get exch definefont pop } def [/Times-Bold /Times-Italic /Times-BoldItalic /Helvetica /Helvetica-Oblique
 /Helvetica-Bold /Helvetica-BoldOblique /Courier /Courier-Oblique /Courier-Bold /Courier-BoldOblique /Times-Roman /AvantGarde-Book /AvantGarde-BookOblique /AvantGarde-Demi /AvantGarde-DemiOblique /Bookman-Demi /Bookman-DemiItalic /Bookman-Light
 /Bookman-LightItalic /Helvetica-Narrow /Helvetica-Narrow-Bold /Helvetica-Narrow-BoldOblique /Helvetica-Narrow-Oblique /NewCenturySchlbk-Roman /NewCenturySchlbk-Bold /NewCenturySchlbk-BoldItalic /NewCenturySchlbk-Italic /Palatino-Bold
 /Palatino-BoldItalic /Palatino-Italic /Palatino-Roman ] {ISOLatin1Encoding reEncode } forall
%%EndProlog
%%BeginSetup
%%EndSetup
newpath  gsave  .25 .25 scale  gsave  0 0 t black[  ] 0 sd 3 lw 1 1 1 c 2268 2176 0 0 bf black 1 1 1 c 2268 1458 0 718 bf black 1 1 1 c 1791 1364 363 718 bf black 1791 1364 363 718 bl 1 1 1 c 1791 1364 363 718 bf black 1791 1364 363 718 bl 6 lw 1 1 1
 c black 363 718 m 1791 X s 3 lw 363 718 m 1791 X s 363 753 m -35 Y s 434 735 m -17 Y s 506 735 m -17 Y s 578 735 m -17 Y s 649 735 m -17 Y s 721 753 m -35 Y s 793 735 m -17 Y s 864 735 m -17 Y s 936 735 m -17 Y s 1008 735 m -17 Y s 1079 753 m -35 Y
 s 1151 735 m -17 Y s 1223 735 m -17 Y s 1294 735 m -17 Y s 1366 735 m -17 Y s 1438 753 m -35 Y s 1509 735 m -17 Y s 1581 735 m -17 Y s 1653 735 m -17 Y s 1724 735 m -17 Y s 1796 753 m -35 Y s 1868 735 m -17 Y s 1939 735 m -17 Y s 2011 735 m -17 Y s
 2083 735 m -17 Y s 2154 753 m -35 Y s
 gsave  2268 1458 0 718 C 342.44 650.637 t 0 r /Helvetica findfont 72.3383 sf 0 0 m (0) show NC gr 
 gsave  2268 1458 0 718 C 677.271 650.637 t 0 r /Helvetica findfont 72.3383 sf 0 0 m (50) show NC gr 
 gsave  2268 1458 0 718 C 1015.91 650.637 t 0 r /Helvetica findfont 72.3383 sf 0 0 m (100) show NC gr 
 gsave  2268 1458 0 718 C 1373.57 650.637 t 0 r /Helvetica findfont 72.3383 sf 0 0 m (150) show NC gr 
 gsave  2268 1458 0 718 C 1735.03 650.637 t 0 r /Helvetica findfont 72.3383 sf 0 0 m (200) show NC gr 
 gsave  2268 1458 0 718 C 2092.69 650.637 t 0 r /Helvetica findfont 72.3383 sf 0 0 m (250) show NC gr  363 2082 m 1791 X s 363 2047 m 35 Y s 434 2064 m 18 Y s 506 2064 m 18 Y s 578 2064 m 18 Y s 649 2064 m 18 Y s 721 2047 m 35 Y s 793 2064 m 18 Y s
 864 2064 m 18 Y s 936 2064 m 18 Y s 1008 2064 m 18 Y s 1079 2047 m 35 Y s 1151 2064 m 18 Y s 1223 2064 m 18 Y s 1294 2064 m 18 Y s 1366 2064 m 18 Y s 1438 2047 m 35 Y s 1509 2064 m 18 Y s 1581 2064 m 18 Y s 1653 2064 m 18 Y s 1724 2064 m 18 Y s 1796
 2047 m 35 Y s 1868 2064 m 18 Y s 1939 2064 m 18 Y s 2011 2064 m 18 Y s 2083 2064 m 18 Y s 2154 2047 m 35 Y s 363 718 m 1364 Y s
 gsave  2268 1458 0 718 C 133.171 1598.06 t 90 r /Helvetica findfont 72.3383 sf 0 0 m (Events / 5 GeV) show NC gr  426 977 m -63 X s 395 1029 m -32 X s 395 1081 m -32 X s 395 1133 m -32 X s 395 1185 m -32 X s 426 1237 m -63 X s 395 1289 m -32 X s 395
 1340 m -32 X s 395 1392 m -32 X s 395 1444 m -32 X s 426 1496 m -63 X s 395 1548 m -32 X s 395 1600 m -32 X s 395 1652 m -32 X s 395 1703 m -32 X s 426 1755 m -63 X s 395 1807 m -32 X s 395 1859 m -32 X s 395 1911 m -32 X s 395 1963 m -32 X s 426
 2014 m -63 X s 426 977 m -63 X s 395 926 m -32 X s 395 874 m -32 X s 395 822 m -32 X s 395 770 m -32 X s 426 2014 m -63 X s 395 2066 m -32 X s
 gsave  2268 1458 0 718 C 190.245 951.223 t 0 r /Helvetica findfont 72.3383 sf 0 0 m (5000) show NC gr 
 gsave  2268 1458 0 718 C 152.196 1213.76 t 0 r /Helvetica findfont 72.3383 sf 0 0 m (10000) show NC gr 
 gsave  2268 1458 0 718 C 152.196 1472.49 t 0 r /Helvetica findfont 72.3383 sf 0 0 m (15000) show NC gr 
 gsave  2268 1458 0 718 C 152.196 1731.23 t 0 r /Helvetica findfont 72.3383 sf 0 0 m (20000) show NC gr 
 gsave  2268 1458 0 718 C 152.196 1989.96 t 0 r /Helvetica findfont 72.3383 sf 0 0 m (25000) show NC gr  2154 718 m 1364 Y s 2091 977 m 63 X s 2123 1029 m 31 X s 2123 1081 m 31 X s 2123 1133 m 31 X s 2123 1185 m 31 X s 2091 1237 m 63 X s 2123 1289 m
 31 X s 2123 1340 m 31 X s 2123 1392 m 31 X s 2123 1444 m 31 X s 2091 1496 m 63 X s 2123 1548 m 31 X s 2123 1600 m 31 X s 2123 1652 m 31 X s 2123 1703 m 31 X s 2091 1755 m 63 X s 2123 1807 m 31 X s 2123 1859 m 31 X s 2123 1911 m 31 X s 2123 1963 m 31
 X s 2091 2014 m 63 X s 2091 977 m 63 X s 2123 926 m 31 X s 2123 874 m 31 X s 2123 822 m 31 X s 2123 770 m 31 X s 2091 2014 m 63 X s 2123 2066 m 31 X s 1 1 1 c black 363 830 m 36 X 402 Y 35 X 255 Y 36 X -50 Y 36 X -140 Y 36 X -115 Y 36 X -77 Y 36 X
 -53 Y 35 X -22 Y 36 X -15 Y 36 X -1 Y 36 X 23 Y 36 X 47 Y 36 X 73 Y 35 X 97 Y 36 X 62 Y 36 X -45 Y 36 X -128 Y 36 X -112 Y 36 X -66 Y 35 X -46 Y 36 X -23 Y 36 X -26 Y 36 X -15 Y 36 X -18 Y 36 X -11 Y 35 X -17 Y 36 X -8 Y 36 X -7 Y 36 X -7 Y 36 X -5
 Y 36 X -8 Y 35 X -3 Y 36 X -7 Y 36 X -7 Y 36 X -7 Y 36 X -7 Y 36 X -6 Y 35 X -4 Y 36 X -3 Y 36 X -2 Y 36 X -1 Y 36 X -1 Y 36 X -1 Y 35 X -1 Y 72 X -1 Y 36 X -1 Y 36 X -1 Y 71 X s 0.999 0.999 0.999 c black 0.999 0.999 0.999 c 2154 718 m -1791 X 112 Y
 36 X 402 Y 35 X 255 Y 36 X -50 Y 36 X -140 Y 36 X -115 Y 36 X -77 Y 36 X -53 Y 35 X -22 Y 36 X -15 Y 36 X -1 Y 36 X 23 Y 36 X 47 Y 36 X 73 Y 35 X 97 Y 36 X 62 Y 36 X -45 Y 36 X -128 Y 36 X -112 Y 36 X -66 Y 35 X -46 Y 36 X -23 Y 36 X -26 Y 36 X -15
 Y 36 X -18 Y 36 X -11 Y 35 X -17 Y 36 X -8 Y 36 X -7 Y 36 X -7 Y 36 X -5 Y 36 X -8 Y 35 X -3 Y 36 X -7 Y 36 X -7 Y 36 X -7 Y 36 X -7 Y 36 X -6 Y 35 X -4 Y 36 X -3 Y 36 X -2 Y 36 X -1 Y 36 X -1 Y 36 X -1 Y 35 X -1 Y 72 X -1 Y 36 X -1 Y 36 X -1 Y 71 X
 f black 0.999 0.999 0.999 c black 363 830 m 36 X 402 Y 35 X 255 Y 36 X -50 Y 36 X -140 Y 36 X -115 Y 36 X -77 Y 36 X -53 Y 35 X -22 Y 36 X -15 Y 36 X -1 Y 36 X 23 Y 36 X 47 Y 36 X 73 Y 35 X 97 Y 36 X 62 Y 36 X -45 Y 36 X -128 Y 36 X -112 Y 36 X -66
 Y 35 X -46 Y 36 X -23 Y 36 X -26 Y 36 X -15 Y 36 X -18 Y 36 X -11 Y 35 X -17 Y 36 X -8 Y 36 X -7 Y 36 X -7 Y 36 X -5 Y 36 X -8 Y 35 X -3 Y 36 X -7 Y 36 X -7 Y 36 X -7 Y 36 X -7 Y 36 X -6 Y 35 X -4 Y 36 X -3 Y 36 X -2 Y 36 X -1 Y 36 X -1 Y 36 X -1 Y
 35 X -1 Y 72 X -1 Y 36 X -1 Y 36 X -1 Y 71 X s 1 1 1 c black 1 1 1 c 2154 718 m -1791 X 112 Y 36 X 402 Y 35 X 255 Y 36 X -50 Y 36 X -140 Y 36 X -115 Y 36 X -77 Y 36 X -53 Y 35 X -22 Y 36 X -15 Y 36 X -1 Y 36 X 23 Y 36 X 47 Y 36 X 73 Y 35 X 97 Y 36 X
 62 Y 36 X -45 Y 36 X -128 Y 36 X -112 Y 36 X -66 Y 35 X -46 Y 36 X -23 Y 36 X -26 Y 36 X -15 Y 36 X -18 Y 36 X -11 Y 35 X -17 Y 36 X -8 Y 36 X -7 Y 36 X -7 Y 36 X -5 Y 36 X -8 Y 35 X -3 Y 36 X -7 Y 36 X -7 Y 36 X -7 Y 36 X -7 Y 36 X -6 Y 35 X -4 Y
 36 X -3 Y 36 X -2 Y 36 X -1 Y 36 X -1 Y 36 X -1 Y 35 X -1 Y 72 X -1 Y 36 X -1 Y 36 X -1 Y 71 X f black 1 1 1 c black 363 830 m 36 X 402 Y 35 X 255 Y 36 X -50 Y 36 X -140 Y 36 X -115 Y 36 X -77 Y 36 X -53 Y 35 X -22 Y 36 X -15 Y 36 X -1 Y 36 X 23 Y
 36 X 47 Y 36 X 73 Y 35 X 97 Y 36 X 62 Y 36 X -45 Y 36 X -128 Y 36 X -112 Y 36 X -66 Y 35 X -46 Y 36 X -23 Y 36 X -26 Y 36 X -15 Y 36 X -18 Y 36 X -11 Y 35 X -17 Y 36 X -8 Y 36 X -7 Y 36 X -7 Y 36 X -5 Y 36 X -8 Y 35 X -3 Y 36 X -7 Y 36 X -7 Y 36 X
 -7 Y 36 X -7 Y 36 X -6 Y 35 X -4 Y 36 X -3 Y 36 X -2 Y 36 X -1 Y 36 X -1 Y 36 X -1 Y 35 X -1 Y 72 X -1 Y 36 X -1 Y 36 X -1 Y 71 X s 0.8 0.8 0.8 c black 0.8 0.8 0.8 c 2154 718 m -1791 X 112 Y 36 X 402 Y 35 X 255 Y 36 X -50 Y 36 X -140 Y 36 X -115 Y
 36 X -77 Y 36 X -53 Y 35 X -22 Y 36 X -15 Y 36 X -1 Y 36 X 23 Y 36 X 47 Y 36 X 73 Y 35 X 97 Y 36 X 62 Y 36 X -45 Y 36 X -128 Y 36 X -112 Y 36 X -66 Y 35 X -46 Y 36 X -23 Y 36 X -26 Y 36 X -15 Y 36 X -18 Y 36 X -11 Y 35 X -17 Y 36 X -8 Y 36 X -7 Y 36
 X -7 Y 36 X -5 Y 36 X -8 Y 35 X -3 Y 36 X -7 Y 36 X -7 Y 36 X -7 Y 36 X -7 Y 36 X -6 Y 35 X -4 Y 36 X -3 Y 36 X -2 Y 36 X -1 Y 36 X -1 Y 36 X -1 Y 35 X -1 Y 72 X -1 Y 36 X -1 Y 36 X -1 Y 71 X f black 0.8 0.8 0.8 c black 363 830 m 36 X 402 Y 35 X 255
 Y 36 X -50 Y 36 X -140 Y 36 X -115 Y 36 X -77 Y 36 X -53 Y 35 X -22 Y 36 X -15 Y 36 X -1 Y 36 X 23 Y 36 X 47 Y 36 X 73 Y 35 X 97 Y 36 X 62 Y 36 X -45 Y 36 X -128 Y 36 X -112 Y 36 X -66 Y 35 X -46 Y 36 X -23 Y 36 X -26 Y 36 X -15 Y 36 X -18 Y 36 X
 -11 Y 35 X -17 Y 36 X -8 Y 36 X -7 Y 36 X -7 Y 36 X -5 Y 36 X -8 Y 35 X -3 Y 36 X -7 Y 36 X -7 Y 36 X -7 Y 36 X -7 Y 36 X -6 Y 35 X -4 Y 36 X -3 Y 36 X -2 Y 36 X -1 Y 36 X -1 Y 36 X -1 Y 35 X -1 Y 72 X -1 Y 36 X -1 Y 36 X -1 Y 71 X s 0.999 0.999
 0.999 c black 0.999 0.999 0.999 c 2154 718 m -1791 X 110 Y 36 X 397 Y 35 X 253 Y 36 X -48 Y 36 X -138 Y 36 X -115 Y 36 X -78 Y 36 X -56 Y 35 X -29 Y 36 X -29 Y 36 X -25 Y 36 X -15 Y 36 X -7 Y 36 X 1 Y 35 X 6 Y 36 X 5 Y 36 X -8 Y 36 X -20 Y 36 X -19
 Y 36 X -14 Y 35 X -11 Y 36 X -7 Y 36 X -15 Y 36 X -11 Y 36 X -14 Y 36 X -10 Y 35 X -15 Y 36 X -8 Y 36 X -6 Y 36 X -7 Y 36 X -4 Y 36 X -8 Y 35 X -3 Y 36 X -7 Y 36 X -6 Y 36 X -8 Y 36 X -6 Y 36 X -7 Y 35 X -3 Y 36 X -3 Y 36 X -2 Y 36 X -1 Y 36 X -1 Y
 36 X -1 Y 35 X -1 Y 72 X -1 Y 36 X -1 Y 36 X -1 Y 71 X f black 0.999 0.999 0.999 c black 363 828 m 36 X 397 Y 35 X 253 Y 36 X -48 Y 36 X -138 Y 36 X -115 Y 36 X -78 Y 36 X -56 Y 35 X -29 Y 36 X -29 Y 36 X -25 Y 36 X -15 Y 36 X -7 Y 36 X 1 Y 35 X 6 Y
 36 X 5 Y 36 X -8 Y 36 X -20 Y 36 X -19 Y 36 X -14 Y 35 X -11 Y 36 X -7 Y 36 X -15 Y 36 X -11 Y 36 X -14 Y 36 X -10 Y 35 X -15 Y 36 X -8 Y 36 X -6 Y 36 X -7 Y 36 X -4 Y 36 X -8 Y 35 X -3 Y 36 X -7 Y 36 X -6 Y 36 X -8 Y 36 X -6 Y 36 X -7 Y 35 X -3 Y
 36 X -3 Y 36 X -2 Y 36 X -1 Y 36 X -1 Y 36 X -1 Y 35 X -1 Y 72 X -1 Y 36 X -1 Y 36 X -1 Y 71 X s 1 1 1 c black 1 1 1 c 2154 718 m -1791 X 110 Y 36 X 397 Y 35 X 253 Y 36 X -48 Y 36 X -138 Y 36 X -115 Y 36 X -78 Y 36 X -56 Y 35 X -29 Y 36 X -29 Y 36 X
 -25 Y 36 X -15 Y 36 X -7 Y 36 X 1 Y 35 X 6 Y 36 X 5 Y 36 X -8 Y 36 X -20 Y 36 X -19 Y 36 X -14 Y 35 X -11 Y 36 X -7 Y 36 X -15 Y 36 X -11 Y 36 X -14 Y 36 X -10 Y 35 X -15 Y 36 X -8 Y 36 X -6 Y 36 X -7 Y 36 X -4 Y 36 X -8 Y 35 X -3 Y 36 X -7 Y 36 X
 -6 Y 36 X -8 Y 36 X -6 Y 36 X -7 Y 35 X -3 Y 36 X -3 Y 36 X -2 Y 36 X -1 Y 36 X -1 Y 36 X -1 Y 35 X -1 Y 72 X -1 Y 36 X -1 Y 36 X -1 Y 71 X f black 1 1 1 c black 363 828 m 36 X 397 Y 35 X 253 Y 36 X -48 Y 36 X -138 Y 36 X -115 Y 36 X -78 Y 36 X -56
 Y 35 X -29 Y 36 X -29 Y 36 X -25 Y 36 X -15 Y 36 X -7 Y 36 X 1 Y 35 X 6 Y 36 X 5 Y 36 X -8 Y 36 X -20 Y 36 X -19 Y 36 X -14 Y 35 X -11 Y 36 X -7 Y 36 X -15 Y 36 X -11 Y 36 X -14 Y 36 X -10 Y 35 X -15 Y 36 X -8 Y 36 X -6 Y 36 X -7 Y 36 X -4 Y 36 X -8
 Y 35 X -3 Y 36 X -7 Y 36 X -6 Y 36 X -8 Y 36 X -6 Y 36 X -7 Y 35 X -3 Y 36 X -3 Y 36 X -2 Y 36 X -1 Y 36 X -1 Y 36 X -1 Y 35 X -1 Y 72 X -1 Y 36 X -1 Y 36 X -1 Y 71 X s 0.4 0.4 0.4 c black 0.4 0.4 0.4 c 2154 718 m -1791 X 110 Y 36 X 397 Y 35 X 253 Y
 36 X -48 Y 36 X -138 Y 36 X -115 Y 36 X -78 Y 36 X -56 Y 35 X -29 Y 36 X -29 Y 36 X -25 Y 36 X -15 Y 36 X -7 Y 36 X 1 Y 35 X 6 Y 36 X 5 Y 36 X -8 Y 36 X -20 Y 36 X -19 Y 36 X -14 Y 35 X -11 Y 36 X -7 Y 36 X -15 Y 36 X -11 Y 36 X -14 Y 36 X -10 Y 35
 X -15 Y 36 X -8 Y 36 X -6 Y 36 X -7 Y 36 X -4 Y 36 X -8 Y 35 X -3 Y 36 X -7 Y 36 X -6 Y 36 X -8 Y 36 X -6 Y 36 X -7 Y 35 X -3 Y 36 X -3 Y 36 X -2 Y 36 X -1 Y 36 X -1 Y 36 X -1 Y 35 X -1 Y 72 X -1 Y 36 X -1 Y 36 X -1 Y 71 X f black 0.4 0.4 0.4 c
 black 363 828 m 36 X 397 Y 35 X 253 Y 36 X -48 Y 36 X -138 Y 36 X -115 Y 36 X -78 Y 36 X -56 Y 35 X -29 Y 36 X -29 Y 36 X -25 Y 36 X -15 Y 36 X -7 Y 36 X 1 Y 35 X 6 Y 36 X 5 Y 36 X -8 Y 36 X -20 Y 36 X -19 Y 36 X -14 Y 35 X -11 Y 36 X -7 Y 36 X -15
 Y 36 X -11 Y 36 X -14 Y 36 X -10 Y 35 X -15 Y 36 X -8 Y 36 X -6 Y 36 X -7 Y 36 X -4 Y 36 X -8 Y 35 X -3 Y 36 X -7 Y 36 X -6 Y 36 X -8 Y 36 X -6 Y 36 X -7 Y 35 X -3 Y 36 X -3 Y 36 X -2 Y 36 X -1 Y 36 X -1 Y 36 X -1 Y 35 X -1 Y 72 X -1 Y 36 X -1 Y 36
 X -1 Y 71 X s 0.999 0.999 0.999 c black 0.999 0.999 0.999 c 2154 718 m -1791 X 48 Y 36 X 168 Y 35 X 93 Y 36 X -35 Y 36 X -61 Y 36 X -48 Y 36 X -31 Y 36 X -26 Y 35 X -9 Y 36 X -11 Y 36 X -10 Y 36 X -4 Y 36 X -1 Y 36 X 4 Y 35 X 7 Y 36 X 3 Y 36 X -7 Y
 36 X -17 Y 36 X -16 Y 36 X -11 Y 35 X -5 Y 36 X -4 Y 36 X -5 Y 36 X -1 Y 36 X -4 Y 36 X -1 Y 35 X -2 Y 36 X -3 Y 36 X -1 Y 36 X -2 Y 72 X -1 Y 71 X -1 Y 36 X -1 Y 36 X -1 Y 72 X -1 Y 71 X -1 Y 287 X -1 Y 107 X f black 0.999 0.999 0.999 c black 363
 766 m 36 X 168 Y 35 X 93 Y 36 X -35 Y 36 X -61 Y 36 X -48 Y 36 X -31 Y 36 X -26 Y 35 X -9 Y 36 X -11 Y 36 X -10 Y 36 X -4 Y 36 X -1 Y 36 X 4 Y 35 X 7 Y 36 X 3 Y 36 X -7 Y 36 X -17 Y 36 X -16 Y 36 X -11 Y 35 X -5 Y 36 X -4 Y 36 X -5 Y 36 X -1 Y 36 X
 -4 Y 36 X -1 Y 35 X -2 Y 36 X -3 Y 36 X -1 Y 36 X -2 Y 72 X -1 Y 71 X -1 Y 36 X -1 Y 36 X -1 Y 72 X -1 Y 71 X -1 Y 287 X -1 Y 107 X s 1 1 1 c black 1 1 1 c 2154 718 m -1791 X 48 Y 36 X 168 Y 35 X 93 Y 36 X -35 Y 36 X -61 Y 36 X -48 Y 36 X -31 Y 36 X
 -26 Y 35 X -9 Y 36 X -11 Y 36 X -10 Y 36 X -4 Y 36 X -1 Y 36 X 4 Y 35 X 7 Y 36 X 3 Y 36 X -7 Y 36 X -17 Y 36 X -16 Y 36 X -11 Y 35 X -5 Y 36 X -4 Y 36 X -5 Y 36 X -1 Y 36 X -4 Y 36 X -1 Y 35 X -2 Y 36 X -3 Y 36 X -1 Y 36 X -2 Y 72 X -1 Y 71 X -1 Y
 36 X -1 Y 36 X -1 Y 72 X -1 Y 71 X -1 Y 287 X -1 Y 107 X f black 1 1 1 c black 363 766 m 36 X 168 Y 35 X 93 Y 36 X -35 Y 36 X -61 Y 36 X -48 Y 36 X -31 Y 36 X -26 Y 35 X -9 Y 36 X -11 Y 36 X -10 Y 36 X -4 Y 36 X -1 Y 36 X 4 Y 35 X 7 Y 36 X 3 Y 36 X
 -7 Y 36 X -17 Y 36 X -16 Y 36 X -11 Y 35 X -5 Y 36 X -4 Y 36 X -5 Y 36 X -1 Y 36 X -4 Y 36 X -1 Y 35 X -2 Y 36 X -3 Y 36 X -1 Y 36 X -2 Y 72 X -1 Y 71 X -1 Y 36 X -1 Y 36 X -1 Y 72 X -1 Y 71 X -1 Y 287 X -1 Y 107 X s 0.2 0.6 1 c black 0.2 0.6 1 c
 2154 718 m -1791 X 48 Y 36 X 168 Y 35 X 93 Y 36 X -35 Y 36 X -61 Y 36 X -48 Y 36 X -31 Y 36 X -26 Y 35 X -9 Y 36 X -11 Y 36 X -10 Y 36 X -4 Y 36 X -1 Y 36 X 4 Y 35 X 7 Y 36 X 3 Y 36 X -7 Y 36 X -17 Y 36 X -16 Y 36 X -11 Y 35 X -5 Y 36 X -4 Y 36 X -5
 Y 36 X -1 Y 36 X -4 Y 36 X -1 Y 35 X -2 Y 36 X -3 Y 36 X -1 Y 36 X -2 Y 72 X -1 Y 71 X -1 Y 36 X -1 Y 36 X -1 Y 72 X -1 Y 71 X -1 Y 287 X -1 Y 107 X f black 0.2 0.6 1 c black 363 766 m 36 X 168 Y 35 X 93 Y 36 X -35 Y 36 X -61 Y 36 X -48 Y 36 X -31 Y
 36 X -26 Y 35 X -9 Y 36 X -11 Y 36 X -10 Y 36 X -4 Y 36 X -1 Y 36 X 4 Y 35 X 7 Y 36 X 3 Y 36 X -7 Y 36 X -17 Y 36 X -16 Y 36 X -11 Y 35 X -5 Y 36 X -4 Y 36 X -5 Y 36 X -1 Y 36 X -4 Y 36 X -1 Y 35 X -2 Y 36 X -3 Y 36 X -1 Y 36 X -2 Y 72 X -1 Y 71 X
 -1 Y 36 X -1 Y 36 X -1 Y 72 X -1 Y 71 X -1 Y 287 X -1 Y 107 X s 0.999 0.999 0.999 c black 0.999 0.999 0.999 c 2154 718 m -1791 X 48 Y 36 X 167 Y 35 X 93 Y 36 X -35 Y 36 X -60 Y 36 X -49 Y 36 X -31 Y 36 X -25 Y 35 X -11 Y 36 X -11 Y 36 X -13 Y 36 X
 -7 Y 36 X -7 Y 36 X -5 Y 35 X -3 Y 36 X -6 Y 36 X -4 Y 36 X -3 Y 36 X -3 Y 36 X -4 Y 35 X -3 Y 36 X -3 Y 36 X -4 Y 72 X -4 Y 36 X -1 Y 35 X -3 Y 36 X -2 Y 36 X -1 Y 36 X -2 Y 72 X -1 Y 71 X -1 Y 36 X -1 Y 36 X -1 Y 72 X -1 Y 71 X -1 Y 287 X -1 Y 107
 X f black 0.999 0.999 0.999 c black 363 766 m 36 X 167 Y 35 X 93 Y 36 X -35 Y 36 X -60 Y 36 X -49 Y 36 X -31 Y 36 X -25 Y 35 X -11 Y 36 X -11 Y 36 X -13 Y 36 X -7 Y 36 X -7 Y 36 X -5 Y 35 X -3 Y 36 X -6 Y 36 X -4 Y 36 X -3 Y 36 X -3 Y 36 X -4 Y 35 X
 -3 Y 36 X -3 Y 36 X -4 Y 72 X -4 Y 36 X -1 Y 35 X -3 Y 36 X -2 Y 36 X -1 Y 36 X -2 Y 72 X -1 Y 71 X -1 Y 36 X -1 Y 36 X -1 Y 72 X -1 Y 71 X -1 Y 287 X -1 Y 107 X s 1 1 1 c black 1 1 1 c 2154 718 m -1791 X 48 Y 36 X 167 Y 35 X 93 Y 36 X -35 Y 36 X
 -60 Y 36 X -49 Y 36 X -31 Y 36 X -25 Y 35 X -11 Y 36 X -11 Y 36 X -13 Y 36 X -7 Y 36 X -7 Y 36 X -5 Y 35 X -3 Y 36 X -6 Y 36 X -4 Y 36 X -3 Y 36 X -3 Y 36 X -4 Y 35 X -3 Y 36 X -3 Y 36 X -4 Y 72 X -4 Y 36 X -1 Y 35 X -3 Y 36 X -2 Y 36 X -1 Y 36 X -2
 Y 72 X -1 Y 71 X -1 Y 36 X -1 Y 36 X -1 Y 72 X -1 Y 71 X -1 Y 287 X -1 Y 107 X f black 1 1 1 c black 363 766 m 36 X 167 Y 35 X 93 Y 36 X -35 Y 36 X -60 Y 36 X -49 Y 36 X -31 Y 36 X -25 Y 35 X -11 Y 36 X -11 Y 36 X -13 Y 36 X -7 Y 36 X -7 Y 36 X -5 Y
 35 X -3 Y 36 X -6 Y 36 X -4 Y 36 X -3 Y 36 X -3 Y 36 X -4 Y 35 X -3 Y 36 X -3 Y 36 X -4 Y 72 X -4 Y 36 X -1 Y 35 X -3 Y 36 X -2 Y 36 X -1 Y 36 X -2 Y 72 X -1 Y 71 X -1 Y 36 X -1 Y 36 X -1 Y 72 X -1 Y 71 X -1 Y 287 X -1 Y 107 X s 0.4 0.4 0.8 c black
 0.4 0.4 0.8 c 2154 718 m -1791 X 48 Y 36 X 167 Y 35 X 93 Y 36 X -35 Y 36 X -60 Y 36 X -49 Y 36 X -31 Y 36 X -25 Y 35 X -11 Y 36 X -11 Y 36 X -13 Y 36 X -7 Y 36 X -7 Y 36 X -5 Y 35 X -3 Y 36 X -6 Y 36 X -4 Y 36 X -3 Y 36 X -3 Y 36 X -4 Y 35 X -3 Y 36
 X -3 Y 36 X -4 Y 72 X -4 Y 36 X -1 Y 35 X -3 Y 36 X -2 Y 36 X -1 Y 36 X -2 Y 72 X -1 Y 71 X -1 Y 36 X -1 Y 36 X -1 Y 72 X -1 Y 71 X -1 Y 287 X -1 Y 107 X f black 0.4 0.4 0.8 c black 363 766 m 36 X 167 Y 35 X 93 Y 36 X -35 Y 36 X -60 Y 36 X -49 Y 36
 X -31 Y 36 X -25 Y 35 X -11 Y 36 X -11 Y 36 X -13 Y 36 X -7 Y 36 X -7 Y 36 X -5 Y 35 X -3 Y 36 X -6 Y 36 X -4 Y 36 X -3 Y 36 X -3 Y 36 X -4 Y 35 X -3 Y 36 X -3 Y 36 X -4 Y 72 X -4 Y 36 X -1 Y 35 X -3 Y 36 X -2 Y 36 X -1 Y 36 X -2 Y 72 X -1 Y 71 X -1
 Y 36 X -1 Y 36 X -1 Y 72 X -1 Y 71 X -1 Y 287 X -1 Y 107 X s 0.999 0.999 0.999 c black 0.999 0.999 0.999 c 2154 718 m -1791 X 33 Y 36 X 121 Y 35 X 74 Y 36 X -21 Y 36 X -45 Y 36 X -35 Y 36 X -25 Y 36 X -19 Y 35 X -7 Y 36 X -8 Y 36 X -11 Y 36 X -4 Y
 36 X -6 Y 36 X -4 Y 35 X -3 Y 36 X -4 Y 36 X -4 Y 36 X -2 Y 36 X -2 Y 36 X -4 Y 35 X -3 Y 36 X -2 Y 36 X -3 Y 72 X -3 Y 36 X -1 Y 35 X -2 Y 36 X -1 Y 36 X -1 Y 36 X -2 Y 72 X -1 Y 71 X -1 Y 72 X -1 Y 143 X -1 Y 144 X -1 Y 250 X f black 0.999 0.999
 0.999 c black 363 751 m 36 X 121 Y 35 X 74 Y 36 X -21 Y 36 X -45 Y 36 X -35 Y 36 X -25 Y 36 X -19 Y 35 X -7 Y 36 X -8 Y 36 X -11 Y 36 X -4 Y 36 X -6 Y 36 X -4 Y 35 X -3 Y 36 X -4 Y 36 X -4 Y 36 X -2 Y 36 X -2 Y 36 X -4 Y 35 X -3 Y 36 X -2 Y 36 X -3
 Y 72 X -3 Y 36 X -1 Y 35 X -2 Y 36 X -1 Y 36 X -1 Y 36 X -2 Y 72 X -1 Y 71 X -1 Y 72 X -1 Y 143 X -1 Y 144 X -1 Y 250 X s 1 1 1 c black 1 1 1 c 2154 718 m -1791 X 33 Y 36 X 121 Y 35 X 74 Y 36 X -21 Y 36 X -45 Y 36 X -35 Y 36 X -25 Y 36 X -19 Y 35 X
 -7 Y 36 X -8 Y 36 X -11 Y 36 X -4 Y 36 X -6 Y 36 X -4 Y 35 X -3 Y 36 X -4 Y 36 X -4 Y 36 X -2 Y 36 X -2 Y 36 X -4 Y 35 X -3 Y 36 X -2 Y 36 X -3 Y 72 X -3 Y 36 X -1 Y 35 X -2 Y 36 X -1 Y 36 X -1 Y 36 X -2 Y 72 X -1 Y 71 X -1 Y 72 X -1 Y 143 X -1 Y
 144 X -1 Y 250 X f black 1 1 1 c black 363 751 m 36 X 121 Y 35 X 74 Y 36 X -21 Y 36 X -45 Y 36 X -35 Y 36 X -25 Y 36 X -19 Y 35 X -7 Y 36 X -8 Y 36 X -11 Y 36 X -4 Y 36 X -6 Y 36 X -4 Y 35 X -3 Y 36 X -4 Y 36 X -4 Y 36 X -2 Y 36 X -2 Y 36 X -4 Y 35
 X -3 Y 36 X -2 Y 36 X -3 Y 72 X -3 Y 36 X -1 Y 35 X -2 Y 36 X -1 Y 36 X -1 Y 36 X -2 Y 72 X -1 Y 71 X -1 Y 72 X -1 Y 143 X -1 Y 144 X -1 Y 250 X s 1 0.8 0 c black 1 0.8 0 c 2154 718 m -1791 X 33 Y 36 X 121 Y 35 X 74 Y 36 X -21 Y 36 X -45 Y 36 X -35
 Y 36 X -25 Y 36 X -19 Y 35 X -7 Y 36 X -8 Y 36 X -11 Y 36 X -4 Y 36 X -6 Y 36 X -4 Y 35 X -3 Y 36 X -4 Y 36 X -4 Y 36 X -2 Y 36 X -2 Y 36 X -4 Y 35 X -3 Y 36 X -2 Y 36 X -3 Y 72 X -3 Y 36 X -1 Y 35 X -2 Y 36 X -1 Y 36 X -1 Y 36 X -2 Y 72 X -1 Y 71 X
 -1 Y 72 X -1 Y 143 X -1 Y 144 X -1 Y 250 X f black 1 0.8 0 c black 363 751 m 36 X 121 Y 35 X 74 Y 36 X -21 Y 36 X -45 Y 36 X -35 Y 36 X -25 Y 36 X -19 Y 35 X -7 Y 36 X -8 Y 36 X -11 Y 36 X -4 Y 36 X -6 Y 36 X -4 Y 35 X -3 Y 36 X -4 Y 36 X -4 Y 36 X
 -2 Y 36 X -2 Y 36 X -4 Y 35 X -3 Y 36 X -2 Y 36 X -3 Y 72 X -3 Y 36 X -1 Y 35 X -2 Y 36 X -1 Y 36 X -1 Y 36 X -2 Y 72 X -1 Y 71 X -1 Y 72 X -1 Y 143 X -1 Y 144 X -1 Y 250 X s 0.999 0.999 0.999 c black 0.999 0.999 0.999 c 2154 718 m -1791 X 4 Y 36 X
 18 Y 35 X 10 Y 36 X -4 Y 36 X -6 Y 36 X -5 Y 36 X -3 Y 36 X -3 Y 35 X -1 Y 36 X -1 Y 36 X -1 Y 36 X -1 Y 72 X -1 Y 143 X -1 Y 36 X -1 Y 71 X -1 Y 108 X -1 Y 179 X -1 Y 394 X -1 Y 36 X 1 Y 36 X -1 Y 322 X f black 0.999 0.999 0.999 c black 363 722 m
 36 X 18 Y 35 X 10 Y 36 X -4 Y 36 X -6 Y 36 X -5 Y 36 X -3 Y 36 X -3 Y 35 X -1 Y 36 X -1 Y 36 X -1 Y 36 X -1 Y 72 X -1 Y 143 X -1 Y 36 X -1 Y 71 X -1 Y 108 X -1 Y 179 X -1 Y 394 X -1 Y 36 X 1 Y 36 X -1 Y 322 X s 1 1 1 c black 1 1 1 c 2154 718 m -1791
 X 4 Y 36 X 18 Y 35 X 10 Y 36 X -4 Y 36 X -6 Y 36 X -5 Y 36 X -3 Y 36 X -3 Y 35 X -1 Y 36 X -1 Y 36 X -1 Y 36 X -1 Y 72 X -1 Y 143 X -1 Y 36 X -1 Y 71 X -1 Y 108 X -1 Y 179 X -1 Y 394 X -1 Y 36 X 1 Y 36 X -1 Y 322 X f black 1 1 1 c black 363 722 m 36
 X 18 Y 35 X 10 Y 36 X -4 Y 36 X -6 Y 36 X -5 Y 36 X -3 Y 36 X -3 Y 35 X -1 Y 36 X -1 Y 36 X -1 Y 36 X -1 Y 72 X -1 Y 143 X -1 Y 36 X -1 Y 71 X -1 Y 108 X -1 Y 179 X -1 Y 394 X -1 Y 36 X 1 Y 36 X -1 Y 322 X s 0.6 0.2 0 c black 0.6 0.2 0 c 2154 718 m
 -1791 X 4 Y 36 X 18 Y 35 X 10 Y 36 X -4 Y 36 X -6 Y 36 X -5 Y 36 X -3 Y 36 X -3 Y 35 X -1 Y 36 X -1 Y 36 X -1 Y 36 X -1 Y 72 X -1 Y 143 X -1 Y 36 X -1 Y 71 X -1 Y 108 X -1 Y 179 X -1 Y 394 X -1 Y 36 X 1 Y 36 X -1 Y 322 X f black 0.6 0.2 0 c black
 363 722 m 36 X 18 Y 35 X 10 Y 36 X -4 Y 36 X -6 Y 36 X -5 Y 36 X -3 Y 36 X -3 Y 35 X -1 Y 36 X -1 Y 36 X -1 Y 36 X -1 Y 72 X -1 Y 143 X -1 Y 36 X -1 Y 71 X -1 Y 108 X -1 Y 179 X -1 Y 394 X -1 Y 36 X 1 Y 36 X -1 Y 322 X s 363 718 m 1791 X s 363 753 m
 -35 Y s 434 735 m -17 Y s 506 735 m -17 Y s 578 735 m -17 Y s 649 735 m -17 Y s 721 753 m -35 Y s 793 735 m -17 Y s 864 735 m -17 Y s 936 735 m -17 Y s 1008 735 m -17 Y s 1079 753 m -35 Y s 1151 735 m -17 Y s 1223 735 m -17 Y s 1294 735 m -17 Y s
 1366 735 m -17 Y s 1438 753 m -35 Y s 1509 735 m -17 Y s 1581 735 m -17 Y s 1653 735 m -17 Y s 1724 735 m -17 Y s 1796 753 m -35 Y s 1868 735 m -17 Y s 1939 735 m -17 Y s 2011 735 m -17 Y s 2083 735 m -17 Y s 2154 753 m -35 Y s 363 2082 m 1791 X s
 363 2047 m 35 Y s 434 2064 m 18 Y s 506 2064 m 18 Y s 578 2064 m 18 Y s 649 2064 m 18 Y s 721 2047 m 35 Y s 793 2064 m 18 Y s 864 2064 m 18 Y s 936 2064 m 18 Y s 1008 2064 m 18 Y s 1079 2047 m 35 Y s 1151 2064 m 18 Y s 1223 2064 m 18 Y s 1294 2064 m
 18 Y s 1366 2064 m 18 Y s 1438 2047 m 35 Y s 1509 2064 m 18 Y s 1581 2064 m 18 Y s 1653 2064 m 18 Y s 1724 2064 m 18 Y s 1796 2047 m 35 Y s 1868 2064 m 18 Y s 1939 2064 m 18 Y s 2011 2064 m 18 Y s 2083 2064 m 18 Y s 2154 2047 m 35 Y s 363 718 m 1364
 Y s 426 977 m -63 X s 395 1029 m -32 X s 395 1081 m -32 X s 395 1133 m -32 X s 395 1185 m -32 X s 426 1237 m -63 X s 395 1289 m -32 X s 395 1340 m -32 X s 395 1392 m -32 X s 395 1444 m -32 X s 426 1496 m -63 X s 395 1548 m -32 X s 395 1600 m -32 X s
 395 1652 m -32 X s 395 1703 m -32 X s 426 1755 m -63 X s 395 1807 m -32 X s 395 1859 m -32 X s 395 1911 m -32 X s 395 1963 m -32 X s 426 2014 m -63 X s 426 977 m -63 X s 395 926 m -32 X s 395 874 m -32 X s 395 822 m -32 X s 395 770 m -32 X s 426
 2014 m -63 X s 395 2066 m -32 X s 2154 718 m 1364 Y s 2091 977 m 63 X s 2123 1029 m 31 X s 2123 1081 m 31 X s 2123 1133 m 31 X s 2123 1185 m 31 X s 2091 1237 m 63 X s 2123 1289 m 31 X s 2123 1340 m 31 X s 2123 1392 m 31 X s 2123 1444 m 31 X s 2091
 1496 m 63 X s 2123 1548 m 31 X s 2123 1600 m 31 X s 2123 1652 m 31 X s 2123 1703 m 31 X s 2091 1755 m 63 X s 2123 1807 m 31 X s 2123 1859 m 31 X s 2123 1911 m 31 X s 2123 1963 m 31 X s 2091 2014 m 63 X s 2091 977 m 63 X s 2123 926 m 31 X s 2123 874
 m 31 X s 2123 822 m 31 X s 2123 770 m 31 X s 2091 2014 m 63 X s 2123 2066 m 31 X s 6 lw 1 1 1 c black 363 830 m 36 X 402 Y 35 X 255 Y 36 X -50 Y 36 X -140 Y 36 X -115 Y 36 X -77 Y 36 X -53 Y 35 X -22 Y 36 X -15 Y 36 X -1 Y 36 X 23 Y 36 X 47 Y 36 X
 73 Y 35 X 97 Y 36 X 62 Y 36 X -45 Y 36 X -128 Y 36 X -112 Y 36 X -66 Y 35 X -46 Y 36 X -23 Y 36 X -26 Y 36 X -15 Y 36 X -18 Y 36 X -11 Y 35 X -17 Y 36 X -8 Y 36 X -7 Y 36 X -7 Y 36 X -5 Y 36 X -8 Y 35 X -3 Y 36 X -7 Y 36 X -7 Y 36 X -7 Y 36 X -7 Y
 36 X -6 Y 35 X -4 Y 36 X -3 Y 36 X -2 Y 36 X -1 Y 36 X -1 Y 36 X -1 Y 35 X -1 Y 72 X -1 Y 36 X -1 Y 36 X -1 Y 71 X s 1 1 1 c black 3 lw /w 30 def /w2 {w 2 div} def /w3 {w 3 div} def 381 835 m20 6 lw 3 lw 417 1278 m20 6 lw 3 lw 452 1530 m20 6 lw 3 lw
 488 1464 m20 6 lw 3 lw 524 1325 m20 6 lw 3 lw 560 1203 m20 6 lw 3 lw 596 1129 m20 6 lw 3 lw 632 1075 m20 6 lw 3 lw 667 1040 m20 6 lw 3 lw 703 1029 m20 6 lw 3 lw 739 1023 m20 6 lw 3 lw 775 1041 m20 6 lw 3 lw 811 1082 m20 6 lw 3 lw 847 1154 m20 6 lw 3
 lw 882 1230 m20 6 lw 3 lw 918 1274 m20 6 lw 3 lw 954 1239 m20 6 lw 3 lw 990 1106 m20 6 lw 3 lw 1026 1022 m20 6 lw 3 lw 1062 952 m20 6 lw 3 lw 1097 914 m20 6 lw 3 lw 1133 894 m20 6 lw 3 lw 1169 866 m20 6 lw 3 lw 1205 845 m20 6 lw 3 lw 1241 831 m20 6
 lw 3 lw 1276 818 m20 6 lw 3 lw 1312 807 m20 6 lw 3 lw 1348 799 m20 6 lw 3 lw 1384 790 m20 6 lw 3 lw 1420 784 m20 6 lw 3 lw 1456 776 m20 6 lw 3 lw 1491 769 m20 6 lw 3 lw 1527 767 m20 6 lw 3 lw 1563 757 m20 6 lw 3 lw 1599 750 m20 6 lw 3 lw 1635 746
 m20 6 lw 3 lw 1671 741 m20 6 lw 3 lw 1706 735 m20 6 lw 3 lw 1742 733 m20 6 lw 3 lw 1778 731 m20 6 lw 3 lw 1814 729 m20 6 lw 3 lw 1850 726 m20 6 lw 3 lw 1886 724 m20 6 lw 3 lw 1921 725 m20 6 lw 3 lw 1957 723 m20 6 lw 3 lw 1993 723 m20 6 lw 3 lw 2029
 722 m20 6 lw 3 lw 2065 722 m20 6 lw 3 lw 2101 722 m20 6 lw 3 lw 2136 721 m20 6 lw 3 lw 363 718 m 1791 X s 363 753 m -35 Y s 434 735 m -17 Y s 506 735 m -17 Y s 578 735 m -17 Y s 649 735 m -17 Y s 721 753 m -35 Y s 793 735 m -17 Y s 864 735 m -17 Y s
 936 735 m -17 Y s 1008 735 m -17 Y s 1079 753 m -35 Y s 1151 735 m -17 Y s 1223 735 m -17 Y s 1294 735 m -17 Y s 1366 735 m -17 Y s 1438 753 m -35 Y s 1509 735 m -17 Y s 1581 735 m -17 Y s 1653 735 m -17 Y s 1724 735 m -17 Y s 1796 753 m -35 Y s
 1868 735 m -17 Y s 1939 735 m -17 Y s 2011 735 m -17 Y s 2083 735 m -17 Y s 2154 753 m -35 Y s 363 2082 m 1791 X s 363 2047 m 35 Y s 434 2064 m 18 Y s 506 2064 m 18 Y s 578 2064 m 18 Y s 649 2064 m 18 Y s 721 2047 m 35 Y s 793 2064 m 18 Y s 864 2064
 m 18 Y s 936 2064 m 18 Y s 1008 2064 m 18 Y s 1079 2047 m 35 Y s 1151 2064 m 18 Y s 1223 2064 m 18 Y s 1294 2064 m 18 Y s 1366 2064 m 18 Y s 1438 2047 m 35 Y s 1509 2064 m 18 Y s 1581 2064 m 18 Y s 1653 2064 m 18 Y s 1724 2064 m 18 Y s 1796 2047 m
 35 Y s 1868 2064 m 18 Y s 1939 2064 m 18 Y s 2011 2064 m 18 Y s 2083 2064 m 18 Y s 2154 2047 m 35 Y s 363 718 m 1364 Y s 426 977 m -63 X s 395 1029 m -32 X s 395 1081 m -32 X s 395 1133 m -32 X s 395 1185 m -32 X s 426 1237 m -63 X s 395 1289 m -32
 X s 395 1340 m -32 X s 395 1392 m -32 X s 395 1444 m -32 X s 426 1496 m -63 X s 395 1548 m -32 X s 395 1600 m -32 X s 395 1652 m -32 X s 395 1703 m -32 X s 426 1755 m -63 X s 395 1807 m -32 X s 395 1859 m -32 X s 395 1911 m -32 X s 395 1963 m -32 X
 s 426 2014 m -63 X s 426 977 m -63 X s 395 926 m -32 X s 395 874 m -32 X s 395 822 m -32 X s 395 770 m -32 X s 426 2014 m -63 X s 395 2066 m -32 X s 2154 718 m 1364 Y s 2091 977 m 63 X s 2123 1029 m 31 X s 2123 1081 m 31 X s 2123 1133 m 31 X s 2123
 1185 m 31 X s 2091 1237 m 63 X s 2123 1289 m 31 X s 2123 1340 m 31 X s 2123 1392 m 31 X s 2123 1444 m 31 X s 2091 1496 m 63 X s 2123 1548 m 31 X s 2123 1600 m 31 X s 2123 1652 m 31 X s 2123 1703 m 31 X s 2091 1755 m 63 X s 2123 1807 m 31 X s 2123
 1859 m 31 X s 2123 1911 m 31 X s 2123 1963 m 31 X s 2091 2014 m 63 X s 2091 977 m 63 X s 2123 926 m 31 X s 2123 874 m 31 X s 2123 822 m 31 X s 2123 770 m 31 X s 2091 2014 m 63 X s 2123 2066 m 31 X s
 gsave  2268 1458 0 718 C 1552.4 1978.54 t 0 r /Helvetica findfont 57.1092 sf 0 0 m (Data 2015+2016+2017) show NC gr  6 lw 1468 1972 m 44 Y s 3 lw 1468 1994 m20 6 lw
 gsave  2268 1458 0 718 C 1598.06 1906.25 t 0 r /Helvetica findfont 57.1092 sf 0 0 m ( \(top\)) show NC gr 
 gsave  2268 1458 0 718 C 1575.23 1906.25 t 0 r /Helvetica-Oblique findfont 57.1092 sf 0 0 m (t) show NC gr  1575 1956 m 23 X s
 gsave  2268 1458 0 718 C 1552.4 1906.25 t 0 r /Helvetica-Oblique findfont 57.1092 sf 0 0 m (t) show NC gr  1 1 1 c 3 lw 1409 1896 m 119 X 51 Y -119 X f 6 lw black 3 lw 1409 1947 m 119 X s 1409 1896 m 119 X s 1528 1896 m 51 Y s 1409 1896 m 51 Y s
 gsave  2268 1458 0 718 C 1696.98 1833.96 t 0 r /Helvetica findfont 57.1092 sf 0 0 m (\)) show NC gr 
 gsave  2268 1458 0 718 C 1632.3 1833.96 t 0 r /Helvetica-Oblique findfont 57.1092 sf 0 0 m (W) show NC gr 
 gsave  2268 1458 0 718 C 1598.06 1833.96 t 0 r /Helvetica findfont 57.1092 sf 0 0 m ( \() show NC gr 
 gsave  2268 1458 0 718 C 1575.23 1833.96 t 0 r /Helvetica-Oblique findfont 57.1092 sf 0 0 m (t) show NC gr  6 lw 1575 1883 m 23 X s
 gsave  2268 1458 0 718 C 1552.4 1833.96 t 0 r /Helvetica-Oblique findfont 57.1092 sf 0 0 m (t) show NC gr  0.8 0.8 0.8 c 3 lw 1409 1823 m 119 X 51 Y -119 X f 6 lw black 3 lw 1409 1874 m 119 X s 1409 1823 m 119 X s 1528 1823 m 51 Y s 1409 1823 m 51 Y
 s
 gsave  2268 1458 0 718 C 1598.06 1761.67 t 0 r /Helvetica findfont 57.1092 sf 0 0 m ( \(other\)) show NC gr 
 gsave  2268 1458 0 718 C 1575.23 1761.67 t 0 r /Helvetica-Oblique findfont 57.1092 sf 0 0 m (t) show NC gr  6 lw 1575 1811 m 23 X s
 gsave  2268 1458 0 718 C 1552.4 1761.67 t 0 r /Helvetica-Oblique findfont 57.1092 sf 0 0 m (t) show NC gr  0.4 0.4 0.4 c 3 lw 1409 1750 m 119 X 51 Y -119 X f 6 lw black 3 lw 1409 1801 m 119 X s 1409 1750 m 119 X s 1528 1750 m 51 Y s 1409 1750 m 51 Y
 s
 gsave  2268 1458 0 718 C 1925.28 1689.37 t 0 r /Helvetica findfont 57.1092 sf 0 0 m (\)) show NC gr 
 gsave  2268 1458 0 718 C 1860.59 1689.37 t 0 r /Helvetica-Oblique findfont 57.1092 sf 0 0 m (W) show NC gr 
 gsave  2268 1458 0 718 C 1552.4 1689.37 t 0 r /Helvetica findfont 57.1092 sf 0 0 m (Single Top \() show NC gr  0.2 0.6 1 c 1409 1677 m 119 X 51 Y -119 X f black 1409 1728 m 119 X s 1409 1677 m 119 X s 1528 1677 m 51 Y s 1409 1677 m 51 Y s
 gsave  2268 1458 0 718 C 1552.4 1613.27 t 0 r /Helvetica findfont 57.1092 sf 0 0 m (Single Top \(other\)) show NC gr  0.4 0.4 0.8 c 1409 1604 m 119 X 51 Y -119 X f black 1409 1655 m 119 X s 1409 1604 m 119 X s 1528 1604 m 51 Y s 1409 1604 m 51 Y s
 gsave  2268 1458 0 718 C 1617.08 1540.98 t 0 r /Helvetica findfont 57.1092 sf 0 0 m ( + jets) show NC gr 
 gsave  2268 1458 0 718 C 1552.4 1540.98 t 0 r /Helvetica-Oblique findfont 57.1092 sf 0 0 m (W) show NC gr  1 0.8 0 c 1409 1531 m 119 X 51 Y -119 X f black 1409 1582 m 119 X s 1409 1531 m 119 X s 1528 1531 m 51 Y s 1409 1531 m 51 Y s
 gsave  2268 1458 0 718 C 1712.2 1468.69 t 0 r /Helvetica findfont 57.1092 sf 0 0 m ( + jets) show NC gr 
 gsave  2268 1458 0 718 C 1666.54 1468.69 t 0 r /Helvetica-Oblique findfont 57.1092 sf 0 0 m (Z) show NC gr 
 gsave  2268 1458 0 718 C 1636.1 1468.69 t 0 r /Helvetica findfont 57.1092 sf 0 0 m (, ) show NC gr 
 gsave  2268 1458 0 718 C 1552.4 1468.69 t 0 r /Helvetica-Oblique findfont 57.1092 sf 0 0 m (VV) show NC gr  0.6 0.2 0 c 1409 1458 m 119 X 51 Y -119 X f black 1409 1509 m 119 X s 1409 1458 m 119 X s 1528 1458 m 51 Y s 1409 1458 m 51 Y s
 gsave  2268 1458 0 718 C 1552.4 1396.4 t 0 r /Helvetica findfont 57.1092 sf 0 0 m (Total uncert.) show NC gr  0.6 0.8 0.6 c 1409 1385 m 119 X 51 Y -119 X f black
 gsave  2268 1458 0 718 C 1552.4 1324.1 t 0 r /Helvetica findfont 57.1092 sf 0 0 m (Stat. uncert.) show NC gr  0.4 0.6 0.4 c 3 lw 1409 1312 m 119 X 51 Y -119 X f black
 gsave  2268 1458 0 718 C 1598.06 1251.81 t 0 r /Helvetica findfont 57.1092 sf 0 0 m ( modelling uncert.) show NC gr 
 gsave  2268 1458 0 718 C 1575.23 1251.81 t 0 r /Helvetica-Oblique findfont 57.1092 sf 0 0 m (t) show NC gr  6 lw 1575 1301 m 23 X s
 gsave  2268 1458 0 718 C 1552.4 1251.81 t 0 r /Helvetica-Oblique findfont 57.1092 sf 0 0 m (t) show NC gr  1 1 1 c 3 lw 1409 1240 m 119 X 51 Y -119 X cl s 6 lw 0.8 0 0 c 1409 1265 m 119 X s black
 gsave  2268 1458 0 718 C 966.443 2001.37 t 0 r /Helvetica findfont 38.0728 sf 0 0 m (\2551) show NC gr 
 gsave  2268 1458 0 718 C 509.856 1974.74 t 0 r /Helvetica findfont 57.1092 sf 0 0 m ( = 13 TeV, 80.5 fb) show NC gr 
 gsave  2268 1458 0 718 C 483.221 1974.74 t 0 r /Helvetica findfont 57.1092 sf 0 0 m (s) show NC gr  460 2009 m 8 -38 d s 3 lw 468 1971 m 8 57 d s 476 2028 m 34 X s
 gsave  2268 1458 0 718 C 913.174 1894.84 t 0 r /Helvetica findfont 57.1092 sf 0 0 m (=1.0 jets) show NC gr 
 gsave  2268 1458 0 718 C 867.516 1894.84 t 0 r /Helvetica-Oblique findfont 57.1092 sf 0 0 m (R) show NC gr 
 gsave  2268 1458 0 718 C 848.491 1894.84 t 0 r /Helvetica findfont 57.1092 sf 0 0 m ( ) show NC gr 
 gsave  2268 1458 0 718 C 837.077 1879.62 t 0 r /Helvetica findfont 38.0728 sf 0 0 m (t) show NC gr 
 gsave  2268 1458 0 718 C 802.833 1894.84 t 0 r /Helvetica-Oblique findfont 57.1092 sf 0 0 m (k) show NC gr 
 gsave  2268 1458 0 718 C 452.782 1894.84 t 0 r /Helvetica findfont 57.1092 sf 0 0 m (Trimmed anti\255) show NC gr 
 gsave  2268 1458 0 718 C 886.54 1814.93 t 0 r /Helvetica findfont 57.1092 sf 0 0 m (\255jet\) > 1.0) show NC gr 
 gsave  2268 1458 0 718 C 852.296 1814.93 t 0 r /Helvetica-Oblique findfont 57.1092 sf 0 0 m (b) show NC gr 
 gsave  2268 1458 0 718 C 745.759 1814.93 t 0 r /Helvetica findfont 57.1092 sf 0 0 m ( jet, ) show NC gr 
 gsave  2268 1458 0 718 C 700.1 1814.93 t 0 r /Helvetica-Oblique findfont 57.1092 sf 0 0 m (R) show NC gr 
 gsave  2268 1458 0 718 C 536.49 1814.93 t 0 r /Helvetica findfont 57.1092 sf 0 0 m (\(large\255) show NC gr 
 gsave  2268 1458 0 718 C 490.831 1814.93 t 0 r /Helvetica-Oblique findfont 57.1092 sf 0 0 m (R) show NC gr 
 gsave  2268 1458 0 718 C 452.782 1814.93 t 0 r /Symbol findfont 57.1092 sf 0 0 m (D) show NC gr 
 gsave  2268 1458 0 718 C 509.856 1735.03 t 0 r /Helvetica findfont 57.1092 sf 0 0 m ( > 200 GeV) show NC gr 
 gsave  2268 1458 0 718 C 487.026 1704.59 t 0 r /Helvetica findfont 38.0728 sf 0 0 m (T) show NC gr 
 gsave  2268 1458 0 718 C 452.782 1735.03 t 0 r /Helvetica-Oblique findfont 57.1092 sf 0 0 m (p) show NC gr  1 1 1 c 2268 718 0 0 bf black 1 1 1 c 1791 496 363 215 bf black 1791 496 363 215 bl 1 1 1 c 1791 496 363 215 bf black 1791 496 363 215 bl 363
 215 m 1791 X s 363 711 m 1791 X s 363 215 m 496 Y s[ 4 8] 0 sd 2154 298 m -1791 X s 2154 463 m -1791 X s 2154 628 m -1791 X s 2154 298 m -1791 X s 2154 628 m -1791 X s[  ] 0 sd 2154 215 m 496 Y s 6 lw 1 1 1 c black 3 lw 381 476 m20 6 lw 3 lw 417 493
 m20 6 lw 3 lw 452 481 m20 6 lw 3 lw 488 476 m20 6 lw 3 lw 524 479 m20 6 lw 3 lw 560 478 m20 6 lw 3 lw 596 484 m20 6 lw 3 lw 632 486 m20 6 lw 3 lw 667 473 m20 6 lw 3 lw 703 479 m20 6 lw 3 lw 739 473 m20 6 lw 3 lw 775 467 m20 6 lw 3 lw 811 461 m20 6
 lw 3 lw 847 461 m20 6 lw 3 lw 882 449 m20 6 lw 3 lw 918 440 m20 6 lw 3 lw 954 444 m20 6 lw 3 lw 990 434 m20 6 lw 3 lw 1026 454 m20 6 lw 3 lw 1062 446 m20 6 lw 3 lw 1097 455 m20 6 lw 3 lw 1133 459 m20 6 lw 3 lw 1169 454 m20 6 lw 3 lw 1205 439 m20 6
 lw 3 lw 1241 446 m20 6 lw 3 lw 1276 438 m20 6 lw 3 lw 1312 455 m20 6 lw 3 lw 1348 455 m20 6 lw 3 lw 1384 448 m20 6 lw 3 lw 1420 447 m20 6 lw 3 lw 1456 432 m20 6 lw 3 lw 1491 431 m20 6 lw 3 lw 1527 435 m20 6 lw 3 lw 1563 412 m20 6 lw 3 lw 1599 406
 m20 6 lw 3 lw 1635 424 m20 6 lw 1671 424 m s 1671 455 m s 3 lw 1671 439 m20 6 lw 1706 413 m 3 Y s 1706 446 m 3 Y s 3 lw 1706 431 m20 6 lw 1742 434 m 4 Y s 1742 469 m 4 Y s 3 lw 1742 453 m20 6 lw 1778 458 m 6 Y s 1778 495 m 6 Y s 3 lw 1778 479 m20 6
 lw 1814 456 m 8 Y s 1814 495 m 7 Y s 3 lw 1814 479 m20 6 lw 1850 398 m 12 Y s 1850 440 m 12 Y s 3 lw 1850 425 m20 6 lw 1886 360 m 15 Y s 1886 406 m 15 Y s 3 lw 1886 390 m20 6 lw 1921 458 m 13 Y s 1921 501 m 14 Y s 3 lw 1921 486 m20 6 lw 1957 390 m
 18 Y s 1957 439 m 18 Y s 3 lw 1957 424 m20 6 lw 1993 400 m 19 Y s 1993 449 m 19 Y s 3 lw 1993 434 m20 6 lw 2029 364 m 22 Y s 2029 417 m 22 Y s 3 lw 2029 402 m20 6 lw 2065 411 m 25 Y s 2065 467 m 25 Y s 3 lw 2065 451 m20 6 lw 2101 459 m 24 Y s 2101
 514 m 24 Y s 3 lw 2101 498 m20 6 lw 2136 361 m 31 Y s 2136 422 m 31 Y s 3 lw 2136 407 m20 6 lw 3 lw 363 215 m 1791 X s
 gsave  2268 718 0 0 C 1662.74 60.8783 t 0 r /Helvetica findfont 72.5852 sf 0 0 m ( jet mass [GeV]) show NC gr 
 gsave  2268 718 0 0 C 1605.67 60.8783 t 0 r /Helvetica-Oblique findfont 72.5852 sf 0 0 m (R) show NC gr 
 gsave  2268 718 0 0 C 1145.27 60.8783 t 0 r /Helvetica findfont 72.5852 sf 0 0 m (Leading large\255) show NC gr  363 232 m -17 Y s 434 224 m -9 Y s 506 224 m -9 Y s 578 224 m -9 Y s 649 224 m -9 Y s 721 232 m -17 Y s 793 224 m -9 Y s 864 224 m -9 Y
 s 936 224 m -9 Y s 1008 224 m -9 Y s 1079 232 m -17 Y s 1151 224 m -9 Y s 1223 224 m -9 Y s 1294 224 m -9 Y s 1366 224 m -9 Y s 1438 232 m -17 Y s 1509 224 m -9 Y s 1581 224 m -9 Y s 1653 224 m -9 Y s 1724 224 m -9 Y s 1796 232 m -17 Y s 1868 224 m
 -9 Y s 1939 224 m -9 Y s 2011 224 m -9 Y s 2083 224 m -9 Y s 2154 232 m -17 Y s
 gsave  2268 718 0 0 C 342.44 152.196 t 0 r /Helvetica findfont 72.5852 sf 0 0 m (0) show NC gr 
 gsave  2268 718 0 0 C 677.271 152.196 t 0 r /Helvetica findfont 72.5852 sf 0 0 m (50) show NC gr 
 gsave  2268 718 0 0 C 1015.91 152.196 t 0 r /Helvetica findfont 72.5852 sf 0 0 m (100) show NC gr 
 gsave  2268 718 0 0 C 1373.57 152.196 t 0 r /Helvetica findfont 72.5852 sf 0 0 m (150) show NC gr 
 gsave  2268 718 0 0 C 1735.03 152.196 t 0 r /Helvetica findfont 72.5852 sf 0 0 m (200) show NC gr 
 gsave  2268 718 0 0 C 2092.69 152.196 t 0 r /Helvetica findfont 72.5852 sf 0 0 m (250) show NC gr  363 711 m 1791 X s 363 694 m 17 Y s 434 703 m 8 Y s 506 703 m 8 Y s 578 703 m 8 Y s 649 703 m 8 Y s 721 694 m 17 Y s 793 703 m 8 Y s 864 703 m 8 Y s
 936 703 m 8 Y s 1008 703 m 8 Y s 1079 694 m 17 Y s 1151 703 m 8 Y s 1223 703 m 8 Y s 1294 703 m 8 Y s 1366 703 m 8 Y s 1438 694 m 17 Y s 1509 703 m 8 Y s 1581 703 m 8 Y s 1653 703 m 8 Y s 1724 703 m 8 Y s 1796 694 m 17 Y s 1868 703 m 8 Y s 1939 703
 m 8 Y s 2011 703 m 8 Y s 2083 703 m 8 Y s 2154 694 m 17 Y s 363 215 m 496 Y s
 gsave  2268 718 0 0 C 133.171 292.977 t 90 r /Helvetica findfont 72.5852 sf 0 0 m (Data/Pred.) show NC gr  410 298 m -47 X s 386 331 m -23 X s 386 364 m -23 X s 386 397 m -23 X s 386 430 m -23 X s 410 463 m -47 X s 386 496 m -23 X s 386 529 m -23 X
 s 386 562 m -23 X s 386 595 m -23 X s 410 628 m -47 X s 410 298 m -47 X s 386 265 m -23 X s 386 232 m -23 X s 410 628 m -47 X s 386 661 m -23 X s 386 695 m -23 X s
 gsave  2268 718 0 0 C 251.123 273.952 t 0 r /Helvetica findfont 72.5852 sf 0 0 m (0.5) show NC gr 
 gsave  2268 718 0 0 C 323.416 433.758 t 0 r /Helvetica findfont 72.5852 sf 0 0 m (1) show NC gr 
 gsave  2268 718 0 0 C 251.123 604.978 t 0 r /Helvetica findfont 72.5852 sf 0 0 m (1.5) show NC gr  2154 215 m 496 Y s 2107 298 m 47 X s 2131 331 m 23 X s 2131 364 m 23 X s 2131 397 m 23 X s 2131 430 m 23 X s 2107 463 m 47 X s 2131 496 m 23 X s 2131
 529 m 23 X s 2131 562 m 23 X s 2131 595 m 23 X s 2107 628 m 47 X s 2107 298 m 47 X s 2131 265 m 23 X s 2131 232 m 23 X s 2107 628 m 47 X s 2131 661 m 23 X s 2131 695 m 23 X s 0.6 0.8 0.6 c black 0.6 0.8 0.6 c 36 163 363 382 bf 35 198 399 364 bf 36
 244 434 341 bf 36 254 470 336 bf 36 225 506 351 bf 36 187 542 370 bf 36 174 578 376 bf 35 169 614 379 bf 36 154 649 386 bf 36 156 685 385 bf 36 138 721 394 bf 36 135 757 396 bf 36 118 793 404 bf 35 110 829 408 bf 36 110 864 408 bf 36 117 900 405 bf
 36 111 936 408 bf 36 107 972 410 bf 36 103 1008 412 bf 35 113 1044 407 bf 36 126 1079 400 bf 36 109 1115 409 bf 36 125 1151 401 bf 36 125 1187 401 bf 36 115 1223 406 bf 35 114 1259 406 bf 36 121 1294 403 bf 36 108 1330 409 bf 36 109 1366 409 bf 36
 111 1402 408 bf 36 127 1438 400 bf 35 140 1474 393 bf 36 145 1509 391 bf 36 148 1545 389 bf 36 134 1581 396 bf 36 147 1617 390 bf 36 149 1653 389 bf 35 160 1689 383 bf 36 167 1724 380 bf 36 188 1760 369 bf 36 174 1796 376 bf 36 264 1832 331 bf 36
 259 1868 334 bf 35 150 1904 388 bf 36 235 1939 346 bf 36 247 1975 340 bf 36 224 2011 351 bf 36 327 2047 300 bf 36 375 2083 276 bf 35 275 2119 326 bf black 0.4 0.6 0.4 c black 0.4 0.6 0.4 c 36 13 363 457 bf 35 5 399 461 bf 36 5 434 461 bf 36 4 470
 461 bf 36 4 506 461 bf 36 4 542 461 bf 36 5 578 461 bf 35 5 614 461 bf 36 6 649 460 bf 36 6 685 460 bf 36 5 721 461 bf 36 5 757 461 bf 36 4 793 461 bf 35 4 829 461 bf 36 3 864 462 bf 36 3 900 462 bf 36 3 936 462 bf 36 4 972 461 bf 36 4 1008 461 bf
 35 5 1044 461 bf 36 6 1079 460 bf 36 6 1115 460 bf 36 6 1151 460 bf 36 7 1187 460 bf 36 7 1223 460 bf 35 8 1259 459 bf 36 9 1294 459 bf 36 8 1330 459 bf 36 10 1366 458 bf 36 9 1402 459 bf 36 9 1438 459 bf 35 10 1474 458 bf 36 11 1509 458 bf 36 11
 1545 458 bf 36 13 1581 457 bf 36 13 1617 457 bf 36 15 1653 456 bf 35 17 1689 455 bf 36 19 1724 454 bf 36 22 1760 452 bf 36 24 1796 451 bf 36 25 1832 451 bf 36 26 1868 450 bf 35 29 1904 449 bf 36 30 1939 448 bf 36 30 1975 448 bf 36 34 2011 446 bf 36
 35 2047 446 bf 36 41 2083 443 bf 35 42 2119 442 bf 0.8 0 0 c 6 lw 1 1 1 c black 0.8 0 0 c 363 535 m 36 X 19 Y 35 X 27 Y 36 X 4 Y 36 X -16 Y 36 X -19 Y 36 X -8 Y 36 X -2 Y 35 X -9 Y 36 X 2 Y 36 X -8 Y 36 X -1 Y 36 X -8 Y 36 X -3 Y 71 X 5 Y 36 X -4 Y
 36 X -5 Y 36 X -2 Y 36 X 6 Y 35 X 8 Y 36 X -11 Y 36 X 9 Y 72 X -6 Y 36 X -1 Y 35 X 3 Y 36 X -6 Y 72 X 1 Y 36 X 9 Y 36 X 7 Y 35 X 2 Y 36 X 1 Y 36 X -11 Y 36 X 9 Y 36 X -2 Y 36 X 4 Y 35 X 7 Y 36 X 11 Y 36 X -7 Y 36 X 46 Y 36 X -2 Y 36 X -57 Y 35 X 43
 Y 36 X 4 Y 36 X -25 Y 36 X 71 Y 36 X 21 Y 36 X -56 Y 35 X -37 Y s 1 1 1 c black 0.8 0 0 c 363 392 m 36 X -20 Y 35 X -26 Y 36 X -4 Y 36 X 15 Y 36 X 20 Y 36 X 7 Y 36 X 2 Y 35 X 9 Y 36 X -1 Y 36 X 8 Y 36 X 1 Y 36 X 7 Y 36 X 4 Y 35 X -1 Y 36 X -4 Y 36 X
 4 Y 36 X 4 Y 36 X 3 Y 36 X -6 Y 35 X -8 Y 36 X 10 Y 36 X -9 Y 36 X 1 Y 36 X 6 Y 36 X 1 Y 35 X -3 Y 36 X 6 Y 72 X -1 Y 36 X -9 Y 36 X -7 Y 35 X -2 Y 36 X -1 Y 36 X 10 Y 36 X -9 Y 36 X 2 Y 36 X -3 Y 35 X -7 Y 36 X -12 Y 36 X 8 Y 36 X -46 Y 36 X 1 Y 36
 X 58 Y 35 X -43 Y 36 X -4 Y 36 X 24 Y 36 X -71 Y 36 X -20 Y 36 X 55 Y 35 X 38 Y s black 3 lw 363 215 m 1791 X s 363 232 m -17 Y s 434 224 m -9 Y s 506 224 m -9 Y s 578 224 m -9 Y s 649 224 m -9 Y s 721 232 m -17 Y s 793 224 m -9 Y s 864 224 m -9 Y s
 936 224 m -9 Y s 1008 224 m -9 Y s 1079 232 m -17 Y s 1151 224 m -9 Y s 1223 224 m -9 Y s 1294 224 m -9 Y s 1366 224 m -9 Y s 1438 232 m -17 Y s 1509 224 m -9 Y s 1581 224 m -9 Y s 1653 224 m -9 Y s 1724 224 m -9 Y s 1796 232 m -17 Y s 1868 224 m -9
 Y s 1939 224 m -9 Y s 2011 224 m -9 Y s 2083 224 m -9 Y s 2154 232 m -17 Y s 363 711 m 1791 X s 363 694 m 17 Y s 434 703 m 8 Y s 506 703 m 8 Y s 578 703 m 8 Y s 649 703 m 8 Y s 721 694 m 17 Y s 793 703 m 8 Y s 864 703 m 8 Y s 936 703 m 8 Y s 1008
 703 m 8 Y s 1079 694 m 17 Y s 1151 703 m 8 Y s 1223 703 m 8 Y s 1294 703 m 8 Y s 1366 703 m 8 Y s 1438 694 m 17 Y s 1509 703 m 8 Y s 1581 703 m 8 Y s 1653 703 m 8 Y s 1724 703 m 8 Y s 1796 694 m 17 Y s 1868 703 m 8 Y s 1939 703 m 8 Y s 2011 703 m 8
 Y s 2083 703 m 8 Y s 2154 694 m 17 Y s 363 215 m 496 Y s 410 298 m -47 X s 386 331 m -23 X s 386 364 m -23 X s 386 397 m -23 X s 386 430 m -23 X s 410 463 m -47 X s 386 496 m -23 X s 386 529 m -23 X s 386 562 m -23 X s 386 595 m -23 X s 410 628 m
 -47 X s 410 298 m -47 X s 386 265 m -23 X s 386 232 m -23 X s 410 628 m -47 X s 386 661 m -23 X s 386 695 m -23 X s 2154 215 m 496 Y s 2107 298 m 47 X s 2131 331 m 23 X s 2131 364 m 23 X s 2131 397 m 23 X s 2131 430 m 23 X s 2107 463 m 47 X s 2131
 496 m 23 X s 2131 529 m 23 X s 2131 562 m 23 X s 2131 595 m 23 X s 2107 628 m 47 X s 2107 298 m 47 X s 2131 265 m 23 X s 2131 232 m 23 X s 2107 628 m 47 X s 2131 661 m 23 X s 2131 695 m 23 X s 363 215 m 1791 X s 363 711 m 1791 X s 363 215 m 496 Y s[
 4 8] 0 sd 2154 298 m -1791 X s 2154 463 m -1791 X s 2154 628 m -1791 X s 2154 298 m -1791 X s 2154 628 m -1791 X s[  ] 0 sd 2154 215 m 496 Y s 6 lw 1 1 1 c black 3 lw 381 476 m20 6 lw 3 lw 417 493 m20 6 lw 3 lw 452 481 m20 6 lw 3 lw 488 476 m20 6 lw
 3 lw 524 479 m20 6 lw 3 lw 560 478 m20 6 lw 3 lw 596 484 m20 6 lw 3 lw 632 486 m20 6 lw 3 lw 667 473 m20 6 lw 3 lw 703 479 m20 6 lw 3 lw 739 473 m20 6 lw 3 lw 775 467 m20 6 lw 3 lw 811 461 m20 6 lw 3 lw 847 461 m20 6 lw 3 lw 882 449 m20 6 lw 3 lw
 918 440 m20 6 lw 3 lw 954 444 m20 6 lw 3 lw 990 434 m20 6 lw 3 lw 1026 454 m20 6 lw 3 lw 1062 446 m20 6 lw 3 lw 1097 455 m20 6 lw 3 lw 1133 459 m20 6 lw 3 lw 1169 454 m20 6 lw 3 lw 1205 439 m20 6 lw 3 lw 1241 446 m20 6 lw 3 lw 1276 438 m20 6 lw 3 lw
 1312 455 m20 6 lw 3 lw 1348 455 m20 6 lw 3 lw 1384 448 m20 6 lw 3 lw 1420 447 m20 6 lw 3 lw 1456 432 m20 6 lw 3 lw 1491 431 m20 6 lw 3 lw 1527 435 m20 6 lw 3 lw 1563 412 m20 6 lw 3 lw 1599 406 m20 6 lw 3 lw 1635 424 m20 6 lw 1671 424 m s 1671 455 m
 s 3 lw 1671 439 m20 6 lw 1706 413 m 3 Y s 1706 446 m 3 Y s 3 lw 1706 431 m20 6 lw 1742 434 m 4 Y s 1742 469 m 4 Y s 3 lw 1742 453 m20 6 lw 1778 458 m 6 Y s 1778 495 m 6 Y s 3 lw 1778 479 m20 6 lw 1814 456 m 8 Y s 1814 495 m 7 Y s 3 lw 1814 479 m20 6
 lw 1850 398 m 12 Y s 1850 440 m 12 Y s 3 lw 1850 425 m20 6 lw 1886 360 m 15 Y s 1886 406 m 15 Y s 3 lw 1886 390 m20 6 lw 1921 458 m 13 Y s 1921 501 m 14 Y s 3 lw 1921 486 m20 6 lw 1957 390 m 18 Y s 1957 439 m 18 Y s 3 lw 1957 424 m20 6 lw 1993 400 m
 19 Y s 1993 449 m 19 Y s 3 lw 1993 434 m20 6 lw 2029 364 m 22 Y s 2029 417 m 22 Y s 3 lw 2029 402 m20 6 lw 2065 411 m 25 Y s 2065 467 m 25 Y s 3 lw 2065 451 m20 6 lw 2101 459 m 24 Y s 2101 514 m 24 Y s 3 lw 2101 498 m20 6 lw 2136 361 m 31 Y s 2136
 422 m 31 Y s 3 lw 2136 407 m20 6 lw
 gr  gr showpage
end
%%EOF
