%!PS-Adobe-2.0 EPSF-2.0
%%BoundingBox:  0 0 567 544
%%Title: : c
%%Creator: ROOT Version 6.04/14
%%CreationDate: Wed May 12 04:02:43 2021
%%DocumentNeededResources: ProcSet (FontSetInit)
%%EndComments
%%BeginProlog
80 dict begin
/s {stroke} def /l {lineto} def /m {moveto} def /t {translate} def
/r {rotate} def /rl {roll}  def /R {repeat} def
/d {rlineto} def /rm {rmoveto} def /gr {grestore} def /f {eofill} def
/c {setrgbcolor} def /black {0 setgray} def /sd {setdash} def
/cl {closepath} def /sf {scalefont setfont} def /lw {setlinewidth} def
/box {m dup 0 exch d exch 0 d 0 exch neg d cl} def
/NC{systemdict begin initclip end}def/C{NC box clip newpath}def
/bl {box s} def /bf {gsave box gsave f grestore 1 lw [] 0 sd s grestore} def /Y { 0 exch d} def /X { 0 d} def 
/K {{pop pop 0 moveto} exch kshow} bind def
/ita {/ang 15 def gsave [1 0 ang dup sin exch cos div 1 0 0] concat} def 
/mp {newpath /y exch def /x exch def} def
/side {[w .77 mul w .23 mul] .385 w mul sd w 0 l currentpoint t -144 r} def
/mr {mp x y w2 0 360 arc} def /m24 {mr s} def /m20 {mr f} def
/mb {mp x y w2 add m w2 neg 0 d 0 w neg d w 0 d 0 w d cl} def
/mt {mp x y w2 add m w2 neg w neg d w 0 d cl} def
/m21 {mb f} def /m25 {mb s} def /m22 {mt f} def /m26{mt s} def
/m23 {mp x y w2 sub m w2 w d w neg 0 d cl f} def
/m27 {mp x y w2 add m w3 neg w2 neg d w3 w2 neg d w3 w2 d cl s} def
/m28 {mp x w2 sub y w2 sub w3 add m w3 0 d  0 w3 neg d w3 0 d 0 w3 d w3 0 d  0 w3 d w3 neg 0 d 0 w3 d w3 neg 0 d 0 w3 neg d w3 neg 0 d cl s } def
/m29 {mp gsave x w2 sub y w2 add w3 sub m currentpoint t 4 {side} repeat cl fill gr} def
/m30 {mp gsave x w2 sub y w2 add w3 sub m currentpoint t 4 {side} repeat cl s gr} def
/m31 {mp x y w2 sub m 0 w d x w2 sub y m w 0 d x w2 sub y w2 add m w w neg d x w2 sub y w2 sub m w w d s} def
/m32 {mp x y w2 sub m w2 w d w neg 0 d cl s} def
/m33 {mp x y w2 add m w3 neg w2 neg d w3 w2 neg d w3 w2 d cl f} def
/m34 {mp x w2 sub y w2 sub w3 add m w3 0 d  0 w3 neg d w3 0 d 0 w3 d w3 0 d  0 w3 d w3 neg 0 d 0 w3 d w3 neg 0 d 0 w3 neg d w3 neg 0 d cl f } def
/m2 {mp x y w2 sub m 0 w d x w2 sub y m w 0 d s} def
/m5 {mp x w2 sub y w2 sub m w w d x w2 sub y w2 add m w w neg d s} def
%%IncludeResource: ProcSet (FontSetInit)
%%IncludeResource: font Times-Roman
%%IncludeResource: font Times-Italic
%%IncludeResource: font Times-Bold
%%IncludeResource: font Times-BoldItalic
%%IncludeResource: font Helvetica
%%IncludeResource: font Helvetica-Oblique
%%IncludeResource: font Helvetica-Bold
%%IncludeResource: font Helvetica-BoldOblique
%%IncludeResource: font Courier
%%IncludeResource: font Courier-Oblique
%%IncludeResource: font Courier-Bold
%%IncludeResource: font Courier-BoldOblique
%%IncludeResource: font Symbol
%%IncludeResource: font ZapfDingbats
/reEncode {exch findfont dup length dict begin {1 index /FID eq  {pop pop} {def} ifelse } forall /Encoding exch def currentdict end dup /FontName get exch definefont pop } def [/Times-Bold /Times-Italic /Times-BoldItalic /Helvetica /Helvetica-Oblique
 /Helvetica-Bold /Helvetica-BoldOblique /Courier /Courier-Oblique /Courier-Bold /Courier-BoldOblique /Times-Roman /AvantGarde-Book /AvantGarde-BookOblique /AvantGarde-Demi /AvantGarde-DemiOblique /Bookman-Demi /Bookman-DemiItalic /Bookman-Light
 /Bookman-LightItalic /Helvetica-Narrow /Helvetica-Narrow-Bold /Helvetica-Narrow-BoldOblique /Helvetica-Narrow-Oblique /NewCenturySchlbk-Roman /NewCenturySchlbk-Bold /NewCenturySchlbk-BoldItalic /NewCenturySchlbk-Italic /Palatino-Bold
 /Palatino-BoldItalic /Palatino-Italic /Palatino-Roman ] {ISOLatin1Encoding reEncode } forall
%%EndProlog
%%BeginSetup
%%EndSetup
newpath  gsave  .25 .25 scale  gsave  0 0 t black[  ] 0 sd 3 lw 1 1 1 c 2268 2176 0 0 bf black 1 1 1 c 2268 1458 0 718 bf black 1 1 1 c 1791 1364 363 718 bf black 1791 1364 363 718 bl 1 1 1 c 1791 1364 363 718 bf black 1791 1364 363 718 bl 6 lw 1 1 1
 c black 363 718 m 1791 X s 3 lw 363 718 m 1791 X s 363 753 m -35 Y s 399 735 m -17 Y s 434 735 m -17 Y s 470 735 m -17 Y s 506 735 m -17 Y s 542 753 m -35 Y s 578 735 m -17 Y s 614 735 m -17 Y s 649 735 m -17 Y s 685 735 m -17 Y s 721 753 m -35 Y s
 757 735 m -17 Y s 793 735 m -17 Y s 829 735 m -17 Y s 864 735 m -17 Y s 900 753 m -35 Y s 936 735 m -17 Y s 972 735 m -17 Y s 1008 735 m -17 Y s 1044 735 m -17 Y s 1079 753 m -35 Y s 1115 735 m -17 Y s 1151 735 m -17 Y s 1187 735 m -17 Y s 1223 735
 m -17 Y s 1259 753 m -35 Y s 1294 735 m -17 Y s 1330 735 m -17 Y s 1366 735 m -17 Y s 1402 735 m -17 Y s 1438 753 m -35 Y s 1474 735 m -17 Y s 1509 735 m -17 Y s 1545 735 m -17 Y s 1581 735 m -17 Y s 1617 753 m -35 Y s 1653 735 m -17 Y s 1689 735 m
 -17 Y s 1724 735 m -17 Y s 1760 735 m -17 Y s 1796 753 m -35 Y s 1832 735 m -17 Y s 1868 735 m -17 Y s 1904 735 m -17 Y s 1939 735 m -17 Y s 1975 753 m -35 Y s 2011 735 m -17 Y s 2047 735 m -17 Y s 2083 735 m -17 Y s 2119 735 m -17 Y s 2154 753 m
 -35 Y s
 gsave  2268 1458 0 718 C 342.44 650.637 t 0 r /Helvetica findfont 72.3383 sf 0 0 m (0) show NC gr 
 gsave  2268 1458 0 718 C 521.27 650.637 t 0 r /Helvetica findfont 72.3383 sf 0 0 m (5) show NC gr 
 gsave  2268 1458 0 718 C 677.271 650.637 t 0 r /Helvetica findfont 72.3383 sf 0 0 m (10) show NC gr 
 gsave  2268 1458 0 718 C 856.101 650.637 t 0 r /Helvetica findfont 72.3383 sf 0 0 m (15) show NC gr 
 gsave  2268 1458 0 718 C 1034.93 650.637 t 0 r /Helvetica findfont 72.3383 sf 0 0 m (20) show NC gr 
 gsave  2268 1458 0 718 C 1213.76 650.637 t 0 r /Helvetica findfont 72.3383 sf 0 0 m (25) show NC gr 
 gsave  2268 1458 0 718 C 1392.59 650.637 t 0 r /Helvetica findfont 72.3383 sf 0 0 m (30) show NC gr 
 gsave  2268 1458 0 718 C 1571.42 650.637 t 0 r /Helvetica findfont 72.3383 sf 0 0 m (35) show NC gr 
 gsave  2268 1458 0 718 C 1754.06 650.637 t 0 r /Helvetica findfont 72.3383 sf 0 0 m (40) show NC gr 
 gsave  2268 1458 0 718 C 1932.89 650.637 t 0 r /Helvetica findfont 72.3383 sf 0 0 m (45) show NC gr 
 gsave  2268 1458 0 718 C 2111.72 650.637 t 0 r /Helvetica findfont 72.3383 sf 0 0 m (50) show NC gr  363 2082 m 1791 X s 363 2047 m 35 Y s 399 2064 m 18 Y s 434 2064 m 18 Y s 470 2064 m 18 Y s 506 2064 m 18 Y s 542 2047 m 35 Y s 578 2064 m 18 Y s
 614 2064 m 18 Y s 649 2064 m 18 Y s 685 2064 m 18 Y s 721 2047 m 35 Y s 757 2064 m 18 Y s 793 2064 m 18 Y s 829 2064 m 18 Y s 864 2064 m 18 Y s 900 2047 m 35 Y s 936 2064 m 18 Y s 972 2064 m 18 Y s 1008 2064 m 18 Y s 1044 2064 m 18 Y s 1079 2047 m
 35 Y s 1115 2064 m 18 Y s 1151 2064 m 18 Y s 1187 2064 m 18 Y s 1223 2064 m 18 Y s 1259 2047 m 35 Y s 1294 2064 m 18 Y s 1330 2064 m 18 Y s 1366 2064 m 18 Y s 1402 2064 m 18 Y s 1438 2047 m 35 Y s 1474 2064 m 18 Y s 1509 2064 m 18 Y s 1545 2064 m 18
 Y s 1581 2064 m 18 Y s 1617 2047 m 35 Y s 1653 2064 m 18 Y s 1689 2064 m 18 Y s 1724 2064 m 18 Y s 1760 2064 m 18 Y s 1796 2047 m 35 Y s 1832 2064 m 18 Y s 1868 2064 m 18 Y s 1904 2064 m 18 Y s 1939 2064 m 18 Y s 1975 2047 m 35 Y s 2011 2064 m 18 Y
 s 2047 2064 m 18 Y s 2083 2064 m 18 Y s 2119 2064 m 18 Y s 2154 2047 m 35 Y s 363 718 m 1364 Y s
 gsave  2268 1458 0 718 C 133.171 1776.89 t 90 r /Helvetica findfont 72.3383 sf 0 0 m (Events / 1) show NC gr  426 944 m -63 X s 395 1001 m -32 X s 395 1057 m -32 X s 395 1114 m -32 X s 426 1171 m -63 X s 395 1227 m -32 X s 395 1284 m -32 X s 395
 1340 m -32 X s 426 1397 m -63 X s 395 1453 m -32 X s 395 1510 m -32 X s 395 1566 m -32 X s 426 1623 m -63 X s 395 1679 m -32 X s 395 1736 m -32 X s 395 1793 m -32 X s 426 1849 m -63 X s 395 1906 m -32 X s 395 1962 m -32 X s 395 2019 m -32 X s 426
 2075 m -63 X s 426 944 m -63 X s 395 888 m -32 X s 395 831 m -32 X s 395 775 m -32 X s 426 2075 m -63 X s
 gsave  2268 1458 0 718 C 190.245 920.784 t 0 r /Helvetica findfont 72.3383 sf 0 0 m (2000) show NC gr 
 gsave  2268 1458 0 718 C 190.245 1145.27 t 0 r /Helvetica findfont 72.3383 sf 0 0 m (4000) show NC gr 
 gsave  2268 1458 0 718 C 190.245 1373.57 t 0 r /Helvetica findfont 72.3383 sf 0 0 m (6000) show NC gr 
 gsave  2268 1458 0 718 C 190.245 1598.06 t 0 r /Helvetica findfont 72.3383 sf 0 0 m (8000) show NC gr 
 gsave  2268 1458 0 718 C 152.196 1822.54 t 0 r /Helvetica findfont 72.3383 sf 0 0 m (10000) show NC gr 
 gsave  2268 1458 0 718 C 152.196 2050.84 t 0 r /Helvetica findfont 72.3383 sf 0 0 m (12000) show NC gr  2154 718 m 1364 Y s 2091 944 m 63 X s 2123 1001 m 31 X s 2123 1057 m 31 X s 2123 1114 m 31 X s 2091 1171 m 63 X s 2123 1227 m 31 X s 2123 1284 m
 31 X s 2123 1340 m 31 X s 2091 1397 m 63 X s 2123 1453 m 31 X s 2123 1510 m 31 X s 2123 1566 m 31 X s 2091 1623 m 63 X s 2123 1679 m 31 X s 2123 1736 m 31 X s 2123 1793 m 31 X s 2091 1849 m 63 X s 2123 1906 m 31 X s 2123 1962 m 31 X s 2123 2019 m 31
 X s 2091 2075 m 63 X s 2091 944 m 63 X s 2123 888 m 31 X s 2123 831 m 31 X s 2123 775 m 31 X s 2091 2075 m 63 X s 1 1 1 c black 363 718 m 107 X 1 Y 36 X 1 Y 36 X 2 Y 36 X 4 Y 36 X 8 Y 35 X 13 Y 36 X 17 Y 36 X 27 Y 36 X 38 Y 36 X 38 Y 36 X 50 Y 35 X
 51 Y 36 X 55 Y 36 X 53 Y 36 X 46 Y 36 X 36 Y 36 X 38 Y 35 X 25 Y 36 X 17 Y 36 X 9 Y 36 X -2 Y 36 X 2 Y 36 X -13 Y 35 X -13 Y 36 X -24 Y 36 X -14 Y 36 X -31 Y 36 X -22 Y 36 X -24 Y 35 X -30 Y 36 X -23 Y 36 X -32 Y 36 X -24 Y 36 X -32 Y 36 X -21 Y 35
 X -27 Y 36 X -17 Y 36 X -20 Y 36 X -18 Y 36 X -16 Y 36 X -19 Y 35 X -14 Y 36 X -13 Y 36 X -7 Y 36 X -12 Y 36 X -8 Y 36 X -8 Y 35 X -9 Y s 0.999 0.999 0.999 c black 0.999 0.999 0.999 c 2154 718 m -1791 X 107 X 1 Y 36 X 1 Y 36 X 2 Y 36 X 4 Y 36 X 8 Y
 35 X 13 Y 36 X 17 Y 36 X 27 Y 36 X 38 Y 36 X 38 Y 36 X 50 Y 35 X 51 Y 36 X 55 Y 36 X 53 Y 36 X 46 Y 36 X 36 Y 36 X 38 Y 35 X 25 Y 36 X 17 Y 36 X 9 Y 36 X -2 Y 36 X 2 Y 36 X -13 Y 35 X -13 Y 36 X -24 Y 36 X -14 Y 36 X -31 Y 36 X -22 Y 36 X -24 Y 35 X
 -30 Y 36 X -23 Y 36 X -32 Y 36 X -24 Y 36 X -32 Y 36 X -21 Y 35 X -27 Y 36 X -17 Y 36 X -20 Y 36 X -18 Y 36 X -16 Y 36 X -19 Y 35 X -14 Y 36 X -13 Y 36 X -7 Y 36 X -12 Y 36 X -8 Y 36 X -8 Y 35 X -9 Y f black 0.999 0.999 0.999 c black 363 718 m 107 X
 1 Y 36 X 1 Y 36 X 2 Y 36 X 4 Y 36 X 8 Y 35 X 13 Y 36 X 17 Y 36 X 27 Y 36 X 38 Y 36 X 38 Y 36 X 50 Y 35 X 51 Y 36 X 55 Y 36 X 53 Y 36 X 46 Y 36 X 36 Y 36 X 38 Y 35 X 25 Y 36 X 17 Y 36 X 9 Y 36 X -2 Y 36 X 2 Y 36 X -13 Y 35 X -13 Y 36 X -24 Y 36 X -14
 Y 36 X -31 Y 36 X -22 Y 36 X -24 Y 35 X -30 Y 36 X -23 Y 36 X -32 Y 36 X -24 Y 36 X -32 Y 36 X -21 Y 35 X -27 Y 36 X -17 Y 36 X -20 Y 36 X -18 Y 36 X -16 Y 36 X -19 Y 35 X -14 Y 36 X -13 Y 36 X -7 Y 36 X -12 Y 36 X -8 Y 36 X -8 Y 35 X -9 Y s 1 1 1 c
 black 1 1 1 c 2154 718 m -1791 X 107 X 1 Y 36 X 1 Y 36 X 2 Y 36 X 4 Y 36 X 8 Y 35 X 13 Y 36 X 17 Y 36 X 27 Y 36 X 38 Y 36 X 38 Y 36 X 50 Y 35 X 51 Y 36 X 55 Y 36 X 53 Y 36 X 46 Y 36 X 36 Y 36 X 38 Y 35 X 25 Y 36 X 17 Y 36 X 9 Y 36 X -2 Y 36 X 2 Y 36
 X -13 Y 35 X -13 Y 36 X -24 Y 36 X -14 Y 36 X -31 Y 36 X -22 Y 36 X -24 Y 35 X -30 Y 36 X -23 Y 36 X -32 Y 36 X -24 Y 36 X -32 Y 36 X -21 Y 35 X -27 Y 36 X -17 Y 36 X -20 Y 36 X -18 Y 36 X -16 Y 36 X -19 Y 35 X -14 Y 36 X -13 Y 36 X -7 Y 36 X -12 Y
 36 X -8 Y 36 X -8 Y 35 X -9 Y f black 1 1 1 c black 363 718 m 107 X 1 Y 36 X 1 Y 36 X 2 Y 36 X 4 Y 36 X 8 Y 35 X 13 Y 36 X 17 Y 36 X 27 Y 36 X 38 Y 36 X 38 Y 36 X 50 Y 35 X 51 Y 36 X 55 Y 36 X 53 Y 36 X 46 Y 36 X 36 Y 36 X 38 Y 35 X 25 Y 36 X 17 Y
 36 X 9 Y 36 X -2 Y 36 X 2 Y 36 X -13 Y 35 X -13 Y 36 X -24 Y 36 X -14 Y 36 X -31 Y 36 X -22 Y 36 X -24 Y 35 X -30 Y 36 X -23 Y 36 X -32 Y 36 X -24 Y 36 X -32 Y 36 X -21 Y 35 X -27 Y 36 X -17 Y 36 X -20 Y 36 X -18 Y 36 X -16 Y 36 X -19 Y 35 X -14 Y
 36 X -13 Y 36 X -7 Y 36 X -12 Y 36 X -8 Y 36 X -8 Y 35 X -9 Y s 0.8 0.8 0.8 c black 0.8 0.8 0.8 c 2154 718 m -1791 X 107 X 1 Y 36 X 1 Y 36 X 2 Y 36 X 4 Y 36 X 8 Y 35 X 13 Y 36 X 17 Y 36 X 27 Y 36 X 38 Y 36 X 38 Y 36 X 50 Y 35 X 51 Y 36 X 55 Y 36 X
 53 Y 36 X 46 Y 36 X 36 Y 36 X 38 Y 35 X 25 Y 36 X 17 Y 36 X 9 Y 36 X -2 Y 36 X 2 Y 36 X -13 Y 35 X -13 Y 36 X -24 Y 36 X -14 Y 36 X -31 Y 36 X -22 Y 36 X -24 Y 35 X -30 Y 36 X -23 Y 36 X -32 Y 36 X -24 Y 36 X -32 Y 36 X -21 Y 35 X -27 Y 36 X -17 Y
 36 X -20 Y 36 X -18 Y 36 X -16 Y 36 X -19 Y 35 X -14 Y 36 X -13 Y 36 X -7 Y 36 X -12 Y 36 X -8 Y 36 X -8 Y 35 X -9 Y f black 0.8 0.8 0.8 c black 363 718 m 107 X 1 Y 36 X 1 Y 36 X 2 Y 36 X 4 Y 36 X 8 Y 35 X 13 Y 36 X 17 Y 36 X 27 Y 36 X 38 Y 36 X 38
 Y 36 X 50 Y 35 X 51 Y 36 X 55 Y 36 X 53 Y 36 X 46 Y 36 X 36 Y 36 X 38 Y 35 X 25 Y 36 X 17 Y 36 X 9 Y 36 X -2 Y 36 X 2 Y 36 X -13 Y 35 X -13 Y 36 X -24 Y 36 X -14 Y 36 X -31 Y 36 X -22 Y 36 X -24 Y 35 X -30 Y 36 X -23 Y 36 X -32 Y 36 X -24 Y 36 X -32
 Y 36 X -21 Y 35 X -27 Y 36 X -17 Y 36 X -20 Y 36 X -18 Y 36 X -16 Y 36 X -19 Y 35 X -14 Y 36 X -13 Y 36 X -7 Y 36 X -12 Y 36 X -8 Y 36 X -8 Y 35 X -9 Y s 0.999 0.999 0.999 c black 0.999 0.999 0.999 c 2154 718 m -1791 X 107 X 1 Y 72 X 1 Y 36 X 2 Y 36
 X 5 Y 35 X 5 Y 36 X 6 Y 36 X 11 Y 36 X 15 Y 36 X 14 Y 36 X 19 Y 35 X 24 Y 36 X 25 Y 36 X 24 Y 36 X 22 Y 36 X 25 Y 36 X 29 Y 35 X 21 Y 36 X 19 Y 36 X 18 Y 36 X 11 Y 36 X 15 Y 36 X 3 Y 35 X 4 Y 36 X -4 Y 36 X 4 Y 36 X -12 Y 36 X -5 Y 36 X -9 Y 35 X
 -15 Y 36 X -12 Y 36 X -19 Y 36 X -15 Y 36 X -25 Y 36 X -12 Y 35 X -21 Y 36 X -13 Y 36 X -16 Y 36 X -15 Y 36 X -14 Y 36 X -16 Y 35 X -13 Y 36 X -11 Y 36 X -6 Y 36 X -11 Y 36 X -6 Y 36 X -9 Y 35 X -7 Y f black 0.999 0.999 0.999 c black 363 718 m 107 X
 1 Y 72 X 1 Y 36 X 2 Y 36 X 5 Y 35 X 5 Y 36 X 6 Y 36 X 11 Y 36 X 15 Y 36 X 14 Y 36 X 19 Y 35 X 24 Y 36 X 25 Y 36 X 24 Y 36 X 22 Y 36 X 25 Y 36 X 29 Y 35 X 21 Y 36 X 19 Y 36 X 18 Y 36 X 11 Y 36 X 15 Y 36 X 3 Y 35 X 4 Y 36 X -4 Y 36 X 4 Y 36 X -12 Y 36
 X -5 Y 36 X -9 Y 35 X -15 Y 36 X -12 Y 36 X -19 Y 36 X -15 Y 36 X -25 Y 36 X -12 Y 35 X -21 Y 36 X -13 Y 36 X -16 Y 36 X -15 Y 36 X -14 Y 36 X -16 Y 35 X -13 Y 36 X -11 Y 36 X -6 Y 36 X -11 Y 36 X -6 Y 36 X -9 Y 35 X -7 Y s 1 1 1 c black 1 1 1 c
 2154 718 m -1791 X 107 X 1 Y 72 X 1 Y 36 X 2 Y 36 X 5 Y 35 X 5 Y 36 X 6 Y 36 X 11 Y 36 X 15 Y 36 X 14 Y 36 X 19 Y 35 X 24 Y 36 X 25 Y 36 X 24 Y 36 X 22 Y 36 X 25 Y 36 X 29 Y 35 X 21 Y 36 X 19 Y 36 X 18 Y 36 X 11 Y 36 X 15 Y 36 X 3 Y 35 X 4 Y 36 X -4
 Y 36 X 4 Y 36 X -12 Y 36 X -5 Y 36 X -9 Y 35 X -15 Y 36 X -12 Y 36 X -19 Y 36 X -15 Y 36 X -25 Y 36 X -12 Y 35 X -21 Y 36 X -13 Y 36 X -16 Y 36 X -15 Y 36 X -14 Y 36 X -16 Y 35 X -13 Y 36 X -11 Y 36 X -6 Y 36 X -11 Y 36 X -6 Y 36 X -9 Y 35 X -7 Y f
 black 1 1 1 c black 363 718 m 107 X 1 Y 72 X 1 Y 36 X 2 Y 36 X 5 Y 35 X 5 Y 36 X 6 Y 36 X 11 Y 36 X 15 Y 36 X 14 Y 36 X 19 Y 35 X 24 Y 36 X 25 Y 36 X 24 Y 36 X 22 Y 36 X 25 Y 36 X 29 Y 35 X 21 Y 36 X 19 Y 36 X 18 Y 36 X 11 Y 36 X 15 Y 36 X 3 Y 35 X
 4 Y 36 X -4 Y 36 X 4 Y 36 X -12 Y 36 X -5 Y 36 X -9 Y 35 X -15 Y 36 X -12 Y 36 X -19 Y 36 X -15 Y 36 X -25 Y 36 X -12 Y 35 X -21 Y 36 X -13 Y 36 X -16 Y 36 X -15 Y 36 X -14 Y 36 X -16 Y 35 X -13 Y 36 X -11 Y 36 X -6 Y 36 X -11 Y 36 X -6 Y 36 X -9 Y
 35 X -7 Y s 0.4 0.4 0.4 c black 0.4 0.4 0.4 c 2154 718 m -1791 X 107 X 1 Y 72 X 1 Y 36 X 2 Y 36 X 5 Y 35 X 5 Y 36 X 6 Y 36 X 11 Y 36 X 15 Y 36 X 14 Y 36 X 19 Y 35 X 24 Y 36 X 25 Y 36 X 24 Y 36 X 22 Y 36 X 25 Y 36 X 29 Y 35 X 21 Y 36 X 19 Y 36 X 18 Y
 36 X 11 Y 36 X 15 Y 36 X 3 Y 35 X 4 Y 36 X -4 Y 36 X 4 Y 36 X -12 Y 36 X -5 Y 36 X -9 Y 35 X -15 Y 36 X -12 Y 36 X -19 Y 36 X -15 Y 36 X -25 Y 36 X -12 Y 35 X -21 Y 36 X -13 Y 36 X -16 Y 36 X -15 Y 36 X -14 Y 36 X -16 Y 35 X -13 Y 36 X -11 Y 36 X -6
 Y 36 X -11 Y 36 X -6 Y 36 X -9 Y 35 X -7 Y f black 0.4 0.4 0.4 c black 363 718 m 107 X 1 Y 72 X 1 Y 36 X 2 Y 36 X 5 Y 35 X 5 Y 36 X 6 Y 36 X 11 Y 36 X 15 Y 36 X 14 Y 36 X 19 Y 35 X 24 Y 36 X 25 Y 36 X 24 Y 36 X 22 Y 36 X 25 Y 36 X 29 Y 35 X 21 Y 36
 X 19 Y 36 X 18 Y 36 X 11 Y 36 X 15 Y 36 X 3 Y 35 X 4 Y 36 X -4 Y 36 X 4 Y 36 X -12 Y 36 X -5 Y 36 X -9 Y 35 X -15 Y 36 X -12 Y 36 X -19 Y 36 X -15 Y 36 X -25 Y 36 X -12 Y 35 X -21 Y 36 X -13 Y 36 X -16 Y 36 X -15 Y 36 X -14 Y 36 X -16 Y 35 X -13 Y
 36 X -11 Y 36 X -6 Y 36 X -11 Y 36 X -6 Y 36 X -9 Y 35 X -7 Y s 0.999 0.999 0.999 c black 0.999 0.999 0.999 c 2154 718 m -1791 X 143 X 1 Y 108 X 2 Y 35 X 1 Y 36 X 3 Y 36 X 5 Y 36 X 6 Y 36 X 4 Y 36 X 7 Y 35 X 9 Y 36 X 7 Y 36 X 6 Y 36 X 9 Y 36 X 5 Y
 36 X 5 Y 35 X 6 Y 36 X 1 Y 36 X 3 Y 36 X 2 Y 36 X -1 Y 71 X -4 Y 36 X 1 Y 36 X -1 Y 36 X -7 Y 36 X 1 Y 36 X -2 Y 35 X -7 Y 36 X -3 Y 36 X -4 Y 36 X -3 Y 36 X -8 Y 36 X -3 Y 35 X -4 Y 36 X -1 Y 36 X -5 Y 36 X -1 Y 36 X -4 Y 36 X -6 Y 35 X -3 Y 72 X
 -1 Y 36 X -3 Y 36 X -1 Y 36 X -3 Y 35 X -1 Y f black 0.999 0.999 0.999 c black 363 718 m 143 X 1 Y 108 X 2 Y 35 X 1 Y 36 X 3 Y 36 X 5 Y 36 X 6 Y 36 X 4 Y 36 X 7 Y 35 X 9 Y 36 X 7 Y 36 X 6 Y 36 X 9 Y 36 X 5 Y 36 X 5 Y 35 X 6 Y 36 X 1 Y 36 X 3 Y 36 X
 2 Y 36 X -1 Y 71 X -4 Y 36 X 1 Y 36 X -1 Y 36 X -7 Y 36 X 1 Y 36 X -2 Y 35 X -7 Y 36 X -3 Y 36 X -4 Y 36 X -3 Y 36 X -8 Y 36 X -3 Y 35 X -4 Y 36 X -1 Y 36 X -5 Y 36 X -1 Y 36 X -4 Y 36 X -6 Y 35 X -3 Y 72 X -1 Y 36 X -3 Y 36 X -1 Y 36 X -3 Y 35 X -1
 Y s 1 1 1 c black 1 1 1 c 2154 718 m -1791 X 143 X 1 Y 108 X 2 Y 35 X 1 Y 36 X 3 Y 36 X 5 Y 36 X 6 Y 36 X 4 Y 36 X 7 Y 35 X 9 Y 36 X 7 Y 36 X 6 Y 36 X 9 Y 36 X 5 Y 36 X 5 Y 35 X 6 Y 36 X 1 Y 36 X 3 Y 36 X 2 Y 36 X -1 Y 71 X -4 Y 36 X 1 Y 36 X -1 Y
 36 X -7 Y 36 X 1 Y 36 X -2 Y 35 X -7 Y 36 X -3 Y 36 X -4 Y 36 X -3 Y 36 X -8 Y 36 X -3 Y 35 X -4 Y 36 X -1 Y 36 X -5 Y 36 X -1 Y 36 X -4 Y 36 X -6 Y 35 X -3 Y 72 X -1 Y 36 X -3 Y 36 X -1 Y 36 X -3 Y 35 X -1 Y f black 1 1 1 c black 363 718 m 143 X 1
 Y 108 X 2 Y 35 X 1 Y 36 X 3 Y 36 X 5 Y 36 X 6 Y 36 X 4 Y 36 X 7 Y 35 X 9 Y 36 X 7 Y 36 X 6 Y 36 X 9 Y 36 X 5 Y 36 X 5 Y 35 X 6 Y 36 X 1 Y 36 X 3 Y 36 X 2 Y 36 X -1 Y 71 X -4 Y 36 X 1 Y 36 X -1 Y 36 X -7 Y 36 X 1 Y 36 X -2 Y 35 X -7 Y 36 X -3 Y 36 X
 -4 Y 36 X -3 Y 36 X -8 Y 36 X -3 Y 35 X -4 Y 36 X -1 Y 36 X -5 Y 36 X -1 Y 36 X -4 Y 36 X -6 Y 35 X -3 Y 72 X -1 Y 36 X -3 Y 36 X -1 Y 36 X -3 Y 35 X -1 Y s 0.2 0.6 1 c black 0.2 0.6 1 c 2154 718 m -1791 X 143 X 1 Y 108 X 2 Y 35 X 1 Y 36 X 3 Y 36 X
 5 Y 36 X 6 Y 36 X 4 Y 36 X 7 Y 35 X 9 Y 36 X 7 Y 36 X 6 Y 36 X 9 Y 36 X 5 Y 36 X 5 Y 35 X 6 Y 36 X 1 Y 36 X 3 Y 36 X 2 Y 36 X -1 Y 71 X -4 Y 36 X 1 Y 36 X -1 Y 36 X -7 Y 36 X 1 Y 36 X -2 Y 35 X -7 Y 36 X -3 Y 36 X -4 Y 36 X -3 Y 36 X -8 Y 36 X -3 Y
 35 X -4 Y 36 X -1 Y 36 X -5 Y 36 X -1 Y 36 X -4 Y 36 X -6 Y 35 X -3 Y 72 X -1 Y 36 X -3 Y 36 X -1 Y 36 X -3 Y 35 X -1 Y f black 0.2 0.6 1 c black 363 718 m 143 X 1 Y 108 X 2 Y 35 X 1 Y 36 X 3 Y 36 X 5 Y 36 X 6 Y 36 X 4 Y 36 X 7 Y 35 X 9 Y 36 X 7 Y
 36 X 6 Y 36 X 9 Y 36 X 5 Y 36 X 5 Y 35 X 6 Y 36 X 1 Y 36 X 3 Y 36 X 2 Y 36 X -1 Y 71 X -4 Y 36 X 1 Y 36 X -1 Y 36 X -7 Y 36 X 1 Y 36 X -2 Y 35 X -7 Y 36 X -3 Y 36 X -4 Y 36 X -3 Y 36 X -8 Y 36 X -3 Y 35 X -4 Y 36 X -1 Y 36 X -5 Y 36 X -1 Y 36 X -4 Y
 36 X -6 Y 35 X -3 Y 72 X -1 Y 36 X -3 Y 36 X -1 Y 36 X -3 Y 35 X -1 Y s 0.999 0.999 0.999 c black 0.999 0.999 0.999 c 2154 718 m -1791 X 179 X 1 Y 72 X 1 Y 71 X 1 Y 36 X 3 Y 36 X 4 Y 36 X -1 Y 36 X 4 Y 35 X 5 Y 36 X 4 Y 36 X 4 Y 36 X 7 Y 36 X 4 Y 36
 X 4 Y 35 X 5 Y 36 X 3 Y 36 X 4 Y 36 X 5 Y 36 X 2 Y 36 X 2 Y 35 X -1 Y 36 X 3 Y 36 X 1 Y 36 X -5 Y 36 X 2 Y 36 X 1 Y 35 X -7 Y 36 X -2 Y 36 X -3 Y 36 X -2 Y 36 X -8 Y 36 X -1 Y 35 X -4 Y 36 X -1 Y 36 X -5 Y 36 X -1 Y 36 X -3 Y 36 X -6 Y 35 X -3 Y 72
 X -1 Y 36 X -4 Y 72 X -3 Y 35 X -1 Y f black 0.999 0.999 0.999 c black 363 718 m 179 X 1 Y 72 X 1 Y 71 X 1 Y 36 X 3 Y 36 X 4 Y 36 X -1 Y 36 X 4 Y 35 X 5 Y 36 X 4 Y 36 X 4 Y 36 X 7 Y 36 X 4 Y 36 X 4 Y 35 X 5 Y 36 X 3 Y 36 X 4 Y 36 X 5 Y 36 X 2 Y 36 X
 2 Y 35 X -1 Y 36 X 3 Y 36 X 1 Y 36 X -5 Y 36 X 2 Y 36 X 1 Y 35 X -7 Y 36 X -2 Y 36 X -3 Y 36 X -2 Y 36 X -8 Y 36 X -1 Y 35 X -4 Y 36 X -1 Y 36 X -5 Y 36 X -1 Y 36 X -3 Y 36 X -6 Y 35 X -3 Y 72 X -1 Y 36 X -4 Y 72 X -3 Y 35 X -1 Y s 1 1 1 c black 1 1
 1 c 2154 718 m -1791 X 179 X 1 Y 72 X 1 Y 71 X 1 Y 36 X 3 Y 36 X 4 Y 36 X -1 Y 36 X 4 Y 35 X 5 Y 36 X 4 Y 36 X 4 Y 36 X 7 Y 36 X 4 Y 36 X 4 Y 35 X 5 Y 36 X 3 Y 36 X 4 Y 36 X 5 Y 36 X 2 Y 36 X 2 Y 35 X -1 Y 36 X 3 Y 36 X 1 Y 36 X -5 Y 36 X 2 Y 36 X 1
 Y 35 X -7 Y 36 X -2 Y 36 X -3 Y 36 X -2 Y 36 X -8 Y 36 X -1 Y 35 X -4 Y 36 X -1 Y 36 X -5 Y 36 X -1 Y 36 X -3 Y 36 X -6 Y 35 X -3 Y 72 X -1 Y 36 X -4 Y 72 X -3 Y 35 X -1 Y f black 1 1 1 c black 363 718 m 179 X 1 Y 72 X 1 Y 71 X 1 Y 36 X 3 Y 36 X 4 Y
 36 X -1 Y 36 X 4 Y 35 X 5 Y 36 X 4 Y 36 X 4 Y 36 X 7 Y 36 X 4 Y 36 X 4 Y 35 X 5 Y 36 X 3 Y 36 X 4 Y 36 X 5 Y 36 X 2 Y 36 X 2 Y 35 X -1 Y 36 X 3 Y 36 X 1 Y 36 X -5 Y 36 X 2 Y 36 X 1 Y 35 X -7 Y 36 X -2 Y 36 X -3 Y 36 X -2 Y 36 X -8 Y 36 X -1 Y 35 X
 -4 Y 36 X -1 Y 36 X -5 Y 36 X -1 Y 36 X -3 Y 36 X -6 Y 35 X -3 Y 72 X -1 Y 36 X -4 Y 72 X -3 Y 35 X -1 Y s 0.4 0.4 0.8 c black 0.4 0.4 0.8 c 2154 718 m -1791 X 179 X 1 Y 72 X 1 Y 71 X 1 Y 36 X 3 Y 36 X 4 Y 36 X -1 Y 36 X 4 Y 35 X 5 Y 36 X 4 Y 36 X 4
 Y 36 X 7 Y 36 X 4 Y 36 X 4 Y 35 X 5 Y 36 X 3 Y 36 X 4 Y 36 X 5 Y 36 X 2 Y 36 X 2 Y 35 X -1 Y 36 X 3 Y 36 X 1 Y 36 X -5 Y 36 X 2 Y 36 X 1 Y 35 X -7 Y 36 X -2 Y 36 X -3 Y 36 X -2 Y 36 X -8 Y 36 X -1 Y 35 X -4 Y 36 X -1 Y 36 X -5 Y 36 X -1 Y 36 X -3 Y
 36 X -6 Y 35 X -3 Y 72 X -1 Y 36 X -4 Y 72 X -3 Y 35 X -1 Y f black 0.4 0.4 0.8 c black 363 718 m 179 X 1 Y 72 X 1 Y 71 X 1 Y 36 X 3 Y 36 X 4 Y 36 X -1 Y 36 X 4 Y 35 X 5 Y 36 X 4 Y 36 X 4 Y 36 X 7 Y 36 X 4 Y 36 X 4 Y 35 X 5 Y 36 X 3 Y 36 X 4 Y 36 X
 5 Y 36 X 2 Y 36 X 2 Y 35 X -1 Y 36 X 3 Y 36 X 1 Y 36 X -5 Y 36 X 2 Y 36 X 1 Y 35 X -7 Y 36 X -2 Y 36 X -3 Y 36 X -2 Y 36 X -8 Y 36 X -1 Y 35 X -4 Y 36 X -1 Y 36 X -5 Y 36 X -1 Y 36 X -3 Y 36 X -6 Y 35 X -3 Y 72 X -1 Y 36 X -4 Y 72 X -3 Y 35 X -1 Y s
 0.999 0.999 0.999 c black 0.999 0.999 0.999 c 2154 718 m -1791 X 215 X 1 Y 36 X 1 Y 35 X -1 Y 36 X 1 Y 36 X 2 Y 36 X 3 Y 36 X -1 Y 36 X 3 Y 35 X 4 Y 36 X 4 Y 36 X 2 Y 36 X 6 Y 36 X 3 Y 36 X 3 Y 35 X 4 Y 36 X 2 Y 36 X 4 Y 36 X 4 Y 36 X 2 Y 36 X 1 Y
 71 X 2 Y 36 X 1 Y 36 X -4 Y 36 X 1 Y 36 X 1 Y 35 X -4 Y 36 X -2 Y 36 X -2 Y 36 X -2 Y 36 X -6 Y 36 X -2 Y 35 X -2 Y 72 X -5 Y 36 X -1 Y 36 X -2 Y 36 X -5 Y 35 X -3 Y 72 X -1 Y 36 X -2 Y 72 X -2 Y 35 X -1 Y f black 0.999 0.999 0.999 c black 363 718 m
 215 X 1 Y 36 X 1 Y 35 X -1 Y 36 X 1 Y 36 X 2 Y 36 X 3 Y 36 X -1 Y 36 X 3 Y 35 X 4 Y 36 X 4 Y 36 X 2 Y 36 X 6 Y 36 X 3 Y 36 X 3 Y 35 X 4 Y 36 X 2 Y 36 X 4 Y 36 X 4 Y 36 X 2 Y 36 X 1 Y 71 X 2 Y 36 X 1 Y 36 X -4 Y 36 X 1 Y 36 X 1 Y 35 X -4 Y 36 X -2 Y
 36 X -2 Y 36 X -2 Y 36 X -6 Y 36 X -2 Y 35 X -2 Y 72 X -5 Y 36 X -1 Y 36 X -2 Y 36 X -5 Y 35 X -3 Y 72 X -1 Y 36 X -2 Y 72 X -2 Y 35 X -1 Y s 1 1 1 c black 1 1 1 c 2154 718 m -1791 X 215 X 1 Y 36 X 1 Y 35 X -1 Y 36 X 1 Y 36 X 2 Y 36 X 3 Y 36 X -1 Y
 36 X 3 Y 35 X 4 Y 36 X 4 Y 36 X 2 Y 36 X 6 Y 36 X 3 Y 36 X 3 Y 35 X 4 Y 36 X 2 Y 36 X 4 Y 36 X 4 Y 36 X 2 Y 36 X 1 Y 71 X 2 Y 36 X 1 Y 36 X -4 Y 36 X 1 Y 36 X 1 Y 35 X -4 Y 36 X -2 Y 36 X -2 Y 36 X -2 Y 36 X -6 Y 36 X -2 Y 35 X -2 Y 72 X -5 Y 36 X
 -1 Y 36 X -2 Y 36 X -5 Y 35 X -3 Y 72 X -1 Y 36 X -2 Y 72 X -2 Y 35 X -1 Y f black 1 1 1 c black 363 718 m 215 X 1 Y 36 X 1 Y 35 X -1 Y 36 X 1 Y 36 X 2 Y 36 X 3 Y 36 X -1 Y 36 X 3 Y 35 X 4 Y 36 X 4 Y 36 X 2 Y 36 X 6 Y 36 X 3 Y 36 X 3 Y 35 X 4 Y 36 X
 2 Y 36 X 4 Y 36 X 4 Y 36 X 2 Y 36 X 1 Y 71 X 2 Y 36 X 1 Y 36 X -4 Y 36 X 1 Y 36 X 1 Y 35 X -4 Y 36 X -2 Y 36 X -2 Y 36 X -2 Y 36 X -6 Y 36 X -2 Y 35 X -2 Y 72 X -5 Y 36 X -1 Y 36 X -2 Y 36 X -5 Y 35 X -3 Y 72 X -1 Y 36 X -2 Y 72 X -2 Y 35 X -1 Y s 1
 0.8 0 c black 1 0.8 0 c 2154 718 m -1791 X 215 X 1 Y 36 X 1 Y 35 X -1 Y 36 X 1 Y 36 X 2 Y 36 X 3 Y 36 X -1 Y 36 X 3 Y 35 X 4 Y 36 X 4 Y 36 X 2 Y 36 X 6 Y 36 X 3 Y 36 X 3 Y 35 X 4 Y 36 X 2 Y 36 X 4 Y 36 X 4 Y 36 X 2 Y 36 X 1 Y 71 X 2 Y 36 X 1 Y 36 X
 -4 Y 36 X 1 Y 36 X 1 Y 35 X -4 Y 36 X -2 Y 36 X -2 Y 36 X -2 Y 36 X -6 Y 36 X -2 Y 35 X -2 Y 72 X -5 Y 36 X -1 Y 36 X -2 Y 36 X -5 Y 35 X -3 Y 72 X -1 Y 36 X -2 Y 72 X -2 Y 35 X -1 Y f black 1 0.8 0 c black 363 718 m 215 X 1 Y 36 X 1 Y 35 X -1 Y 36
 X 1 Y 36 X 2 Y 36 X 3 Y 36 X -1 Y 36 X 3 Y 35 X 4 Y 36 X 4 Y 36 X 2 Y 36 X 6 Y 36 X 3 Y 36 X 3 Y 35 X 4 Y 36 X 2 Y 36 X 4 Y 36 X 4 Y 36 X 2 Y 36 X 1 Y 71 X 2 Y 36 X 1 Y 36 X -4 Y 36 X 1 Y 36 X 1 Y 35 X -4 Y 36 X -2 Y 36 X -2 Y 36 X -2 Y 36 X -6 Y 36
 X -2 Y 35 X -2 Y 72 X -5 Y 36 X -1 Y 36 X -2 Y 36 X -5 Y 35 X -3 Y 72 X -1 Y 36 X -2 Y 72 X -2 Y 35 X -1 Y s 0.999 0.999 0.999 c black 0.999 0.999 0.999 c 2154 718 m -1791 X 322 X 1 Y 144 X 1 Y 71 X 2 Y 108 X 1 Y 71 X 1 Y 72 X 1 Y 72 X 1 Y 179 X -1
 Y 143 X -1 Y 108 X -1 Y 71 X -1 Y 72 X -1 Y 108 X -1 Y 179 X -1 Y 71 X f black 0.999 0.999 0.999 c black 363 718 m 322 X 1 Y 144 X 1 Y 71 X 2 Y 108 X 1 Y 71 X 1 Y 72 X 1 Y 72 X 1 Y 179 X -1 Y 143 X -1 Y 108 X -1 Y 71 X -1 Y 72 X -1 Y 108 X -1 Y 179
 X -1 Y 71 X s 1 1 1 c black 1 1 1 c 2154 718 m -1791 X 322 X 1 Y 144 X 1 Y 71 X 2 Y 108 X 1 Y 71 X 1 Y 72 X 1 Y 72 X 1 Y 179 X -1 Y 143 X -1 Y 108 X -1 Y 71 X -1 Y 72 X -1 Y 108 X -1 Y 179 X -1 Y 71 X f black 1 1 1 c black 363 718 m 322 X 1 Y 144 X
 1 Y 71 X 2 Y 108 X 1 Y 71 X 1 Y 72 X 1 Y 72 X 1 Y 179 X -1 Y 143 X -1 Y 108 X -1 Y 71 X -1 Y 72 X -1 Y 108 X -1 Y 179 X -1 Y 71 X s 0.6 0.2 0 c black 0.6 0.2 0 c 2154 718 m -1791 X 322 X 1 Y 144 X 1 Y 71 X 2 Y 108 X 1 Y 71 X 1 Y 72 X 1 Y 72 X 1 Y
 179 X -1 Y 143 X -1 Y 108 X -1 Y 71 X -1 Y 72 X -1 Y 108 X -1 Y 179 X -1 Y 71 X f black 0.6 0.2 0 c black 363 718 m 322 X 1 Y 144 X 1 Y 71 X 2 Y 108 X 1 Y 71 X 1 Y 72 X 1 Y 72 X 1 Y 179 X -1 Y 143 X -1 Y 108 X -1 Y 71 X -1 Y 72 X -1 Y 108 X -1 Y 179
 X -1 Y 71 X s 363 718 m 1791 X s 363 753 m -35 Y s 399 735 m -17 Y s 434 735 m -17 Y s 470 735 m -17 Y s 506 735 m -17 Y s 542 753 m -35 Y s 578 735 m -17 Y s 614 735 m -17 Y s 649 735 m -17 Y s 685 735 m -17 Y s 721 753 m -35 Y s 757 735 m -17 Y s
 793 735 m -17 Y s 829 735 m -17 Y s 864 735 m -17 Y s 900 753 m -35 Y s 936 735 m -17 Y s 972 735 m -17 Y s 1008 735 m -17 Y s 1044 735 m -17 Y s 1079 753 m -35 Y s 1115 735 m -17 Y s 1151 735 m -17 Y s 1187 735 m -17 Y s 1223 735 m -17 Y s 1259 753
 m -35 Y s 1294 735 m -17 Y s 1330 735 m -17 Y s 1366 735 m -17 Y s 1402 735 m -17 Y s 1438 753 m -35 Y s 1474 735 m -17 Y s 1509 735 m -17 Y s 1545 735 m -17 Y s 1581 735 m -17 Y s 1617 753 m -35 Y s 1653 735 m -17 Y s 1689 735 m -17 Y s 1724 735 m
 -17 Y s 1760 735 m -17 Y s 1796 753 m -35 Y s 1832 735 m -17 Y s 1868 735 m -17 Y s 1904 735 m -17 Y s 1939 735 m -17 Y s 1975 753 m -35 Y s 2011 735 m -17 Y s 2047 735 m -17 Y s 2083 735 m -17 Y s 2119 735 m -17 Y s 2154 753 m -35 Y s 363 2082 m
 1791 X s 363 2047 m 35 Y s 399 2064 m 18 Y s 434 2064 m 18 Y s 470 2064 m 18 Y s 506 2064 m 18 Y s 542 2047 m 35 Y s 578 2064 m 18 Y s 614 2064 m 18 Y s 649 2064 m 18 Y s 685 2064 m 18 Y s 721 2047 m 35 Y s 757 2064 m 18 Y s 793 2064 m 18 Y s 829
 2064 m 18 Y s 864 2064 m 18 Y s 900 2047 m 35 Y s 936 2064 m 18 Y s 972 2064 m 18 Y s 1008 2064 m 18 Y s 1044 2064 m 18 Y s 1079 2047 m 35 Y s 1115 2064 m 18 Y s 1151 2064 m 18 Y s 1187 2064 m 18 Y s 1223 2064 m 18 Y s 1259 2047 m 35 Y s 1294 2064 m
 18 Y s 1330 2064 m 18 Y s 1366 2064 m 18 Y s 1402 2064 m 18 Y s 1438 2047 m 35 Y s 1474 2064 m 18 Y s 1509 2064 m 18 Y s 1545 2064 m 18 Y s 1581 2064 m 18 Y s 1617 2047 m 35 Y s 1653 2064 m 18 Y s 1689 2064 m 18 Y s 1724 2064 m 18 Y s 1760 2064 m 18
 Y s 1796 2047 m 35 Y s 1832 2064 m 18 Y s 1868 2064 m 18 Y s 1904 2064 m 18 Y s 1939 2064 m 18 Y s 1975 2047 m 35 Y s 2011 2064 m 18 Y s 2047 2064 m 18 Y s 2083 2064 m 18 Y s 2119 2064 m 18 Y s 2154 2047 m 35 Y s 363 718 m 1364 Y s 426 944 m -63 X s
 395 1001 m -32 X s 395 1057 m -32 X s 395 1114 m -32 X s 426 1171 m -63 X s 395 1227 m -32 X s 395 1284 m -32 X s 395 1340 m -32 X s 426 1397 m -63 X s 395 1453 m -32 X s 395 1510 m -32 X s 395 1566 m -32 X s 426 1623 m -63 X s 395 1679 m -32 X s
 395 1736 m -32 X s 395 1793 m -32 X s 426 1849 m -63 X s 395 1906 m -32 X s 395 1962 m -32 X s 395 2019 m -32 X s 426 2075 m -63 X s 426 944 m -63 X s 395 888 m -32 X s 395 831 m -32 X s 395 775 m -32 X s 426 2075 m -63 X s 2154 718 m 1364 Y s 2091
 944 m 63 X s 2123 1001 m 31 X s 2123 1057 m 31 X s 2123 1114 m 31 X s 2091 1171 m 63 X s 2123 1227 m 31 X s 2123 1284 m 31 X s 2123 1340 m 31 X s 2091 1397 m 63 X s 2123 1453 m 31 X s 2123 1510 m 31 X s 2123 1566 m 31 X s 2091 1623 m 63 X s 2123
 1679 m 31 X s 2123 1736 m 31 X s 2123 1793 m 31 X s 2091 1849 m 63 X s 2123 1906 m 31 X s 2123 1962 m 31 X s 2123 2019 m 31 X s 2091 2075 m 63 X s 2091 944 m 63 X s 2123 888 m 31 X s 2123 831 m 31 X s 2123 775 m 31 X s 2091 2075 m 63 X s 6 lw 1 1 1
 c black 363 718 m 107 X 1 Y 36 X 1 Y 36 X 2 Y 36 X 4 Y 36 X 8 Y 35 X 13 Y 36 X 17 Y 36 X 27 Y 36 X 38 Y 36 X 38 Y 36 X 50 Y 35 X 51 Y 36 X 55 Y 36 X 53 Y 36 X 46 Y 36 X 36 Y 36 X 38 Y 35 X 25 Y 36 X 17 Y 36 X 9 Y 36 X -2 Y 36 X 2 Y 36 X -13 Y 35 X
 -13 Y 36 X -24 Y 36 X -14 Y 36 X -31 Y 36 X -22 Y 36 X -24 Y 35 X -30 Y 36 X -23 Y 36 X -32 Y 36 X -24 Y 36 X -32 Y 36 X -21 Y 35 X -27 Y 36 X -17 Y 36 X -20 Y 36 X -18 Y 36 X -16 Y 36 X -19 Y 35 X -14 Y 36 X -13 Y 36 X -7 Y 36 X -12 Y 36 X -8 Y 36
 X -8 Y 35 X -9 Y s 1 1 1 c black 3 lw /w 30 def /w2 {w 2 div} def /w3 {w 3 div} def 417 719 m20 6 lw 3 lw 452 719 m20 6 lw 3 lw 488 719 m20 6 lw 3 lw 524 719 m20 6 lw 3 lw 560 721 m20 6 lw 3 lw 596 724 m20 6 lw 3 lw 632 729 m20 6 lw 3 lw 667 737 m20
 6 lw 3 lw 703 752 m20 6 lw 3 lw 739 772 m20 6 lw 3 lw 775 804 m20 6 lw 3 lw 811 833 m20 6 lw 3 lw 847 875 m20 6 lw 3 lw 882 920 m20 6 lw 3 lw 918 979 m20 6 lw 3 lw 954 1010 m20 6 lw 3 lw 990 1069 m20 6 lw 3 lw 1026 1126 m20 6 lw 3 lw 1062 1163 m20 6
 lw 3 lw 1097 1187 m20 6 lw 3 lw 1133 1216 m20 6 lw 3 lw 1169 1234 m20 6 lw 3 lw 1205 1254 m20 6 lw 3 lw 1241 1259 m20 6 lw 3 lw 1276 1244 m20 6 lw 3 lw 1312 1245 m20 6 lw 3 lw 1348 1227 m20 6 lw 3 lw 1384 1218 m20 6 lw 3 lw 1420 1198 m20 6 lw 3 lw
 1456 1151 m20 6 lw 3 lw 1491 1146 m20 6 lw 3 lw 1527 1093 m20 6 lw 3 lw 1563 1076 m20 6 lw 3 lw 1599 1035 m20 6 lw 3 lw 1635 1010 m20 6 lw 3 lw 1671 985 m20 6 lw 3 lw 1706 966 m20 6 lw 3 lw 1742 948 m20 6 lw 3 lw 1778 915 m20 6 lw 3 lw 1814 893 m20
 6 lw 3 lw 1850 879 m20 6 lw 3 lw 1886 847 m20 6 lw 3 lw 1921 841 m20 6 lw 3 lw 1957 828 m20 6 lw 3 lw 1993 814 m20 6 lw 3 lw 2029 801 m20 6 lw 3 lw 2065 786 m20 6 lw 3 lw 2101 780 m20 6 lw 3 lw 2136 771 m20 6 lw 3 lw 363 718 m 1791 X s 363 753 m -35
 Y s 399 735 m -17 Y s 434 735 m -17 Y s 470 735 m -17 Y s 506 735 m -17 Y s 542 753 m -35 Y s 578 735 m -17 Y s 614 735 m -17 Y s 649 735 m -17 Y s 685 735 m -17 Y s 721 753 m -35 Y s 757 735 m -17 Y s 793 735 m -17 Y s 829 735 m -17 Y s 864 735 m
 -17 Y s 900 753 m -35 Y s 936 735 m -17 Y s 972 735 m -17 Y s 1008 735 m -17 Y s 1044 735 m -17 Y s 1079 753 m -35 Y s 1115 735 m -17 Y s 1151 735 m -17 Y s 1187 735 m -17 Y s 1223 735 m -17 Y s 1259 753 m -35 Y s 1294 735 m -17 Y s 1330 735 m -17 Y
 s 1366 735 m -17 Y s 1402 735 m -17 Y s 1438 753 m -35 Y s 1474 735 m -17 Y s 1509 735 m -17 Y s 1545 735 m -17 Y s 1581 735 m -17 Y s 1617 753 m -35 Y s 1653 735 m -17 Y s 1689 735 m -17 Y s 1724 735 m -17 Y s 1760 735 m -17 Y s 1796 753 m -35 Y s
 1832 735 m -17 Y s 1868 735 m -17 Y s 1904 735 m -17 Y s 1939 735 m -17 Y s 1975 753 m -35 Y s 2011 735 m -17 Y s 2047 735 m -17 Y s 2083 735 m -17 Y s 2119 735 m -17 Y s 2154 753 m -35 Y s 363 2082 m 1791 X s 363 2047 m 35 Y s 399 2064 m 18 Y s 434
 2064 m 18 Y s 470 2064 m 18 Y s 506 2064 m 18 Y s 542 2047 m 35 Y s 578 2064 m 18 Y s 614 2064 m 18 Y s 649 2064 m 18 Y s 685 2064 m 18 Y s 721 2047 m 35 Y s 757 2064 m 18 Y s 793 2064 m 18 Y s 829 2064 m 18 Y s 864 2064 m 18 Y s 900 2047 m 35 Y s
 936 2064 m 18 Y s 972 2064 m 18 Y s 1008 2064 m 18 Y s 1044 2064 m 18 Y s 1079 2047 m 35 Y s 1115 2064 m 18 Y s 1151 2064 m 18 Y s 1187 2064 m 18 Y s 1223 2064 m 18 Y s 1259 2047 m 35 Y s 1294 2064 m 18 Y s 1330 2064 m 18 Y s 1366 2064 m 18 Y s 1402
 2064 m 18 Y s 1438 2047 m 35 Y s 1474 2064 m 18 Y s 1509 2064 m 18 Y s 1545 2064 m 18 Y s 1581 2064 m 18 Y s 1617 2047 m 35 Y s 1653 2064 m 18 Y s 1689 2064 m 18 Y s 1724 2064 m 18 Y s 1760 2064 m 18 Y s 1796 2047 m 35 Y s 1832 2064 m 18 Y s 1868
 2064 m 18 Y s 1904 2064 m 18 Y s 1939 2064 m 18 Y s 1975 2047 m 35 Y s 2011 2064 m 18 Y s 2047 2064 m 18 Y s 2083 2064 m 18 Y s 2119 2064 m 18 Y s 2154 2047 m 35 Y s 363 718 m 1364 Y s 426 944 m -63 X s 395 1001 m -32 X s 395 1057 m -32 X s 395 1114
 m -32 X s 426 1171 m -63 X s 395 1227 m -32 X s 395 1284 m -32 X s 395 1340 m -32 X s 426 1397 m -63 X s 395 1453 m -32 X s 395 1510 m -32 X s 395 1566 m -32 X s 426 1623 m -63 X s 395 1679 m -32 X s 395 1736 m -32 X s 395 1793 m -32 X s 426 1849 m
 -63 X s 395 1906 m -32 X s 395 1962 m -32 X s 395 2019 m -32 X s 426 2075 m -63 X s 426 944 m -63 X s 395 888 m -32 X s 395 831 m -32 X s 395 775 m -32 X s 426 2075 m -63 X s 2154 718 m 1364 Y s 2091 944 m 63 X s 2123 1001 m 31 X s 2123 1057 m 31 X
 s 2123 1114 m 31 X s 2091 1171 m 63 X s 2123 1227 m 31 X s 2123 1284 m 31 X s 2123 1340 m 31 X s 2091 1397 m 63 X s 2123 1453 m 31 X s 2123 1510 m 31 X s 2123 1566 m 31 X s 2091 1623 m 63 X s 2123 1679 m 31 X s 2123 1736 m 31 X s 2123 1793 m 31 X s
 2091 1849 m 63 X s 2123 1906 m 31 X s 2123 1962 m 31 X s 2123 2019 m 31 X s 2091 2075 m 63 X s 2091 944 m 63 X s 2123 888 m 31 X s 2123 831 m 31 X s 2123 775 m 31 X s 2091 2075 m 63 X s
 gsave  2268 1458 0 718 C 1552.4 1978.54 t 0 r /Helvetica findfont 57.1092 sf 0 0 m (Data 2015+2016+2017) show NC gr  6 lw 1468 1972 m 44 Y s 3 lw 1468 1994 m20 6 lw
 gsave  2268 1458 0 718 C 1598.06 1906.25 t 0 r /Helvetica findfont 57.1092 sf 0 0 m ( \(top\)) show NC gr 
 gsave  2268 1458 0 718 C 1575.23 1906.25 t 0 r /Helvetica-Oblique findfont 57.1092 sf 0 0 m (t) show NC gr  1575 1956 m 23 X s
 gsave  2268 1458 0 718 C 1552.4 1906.25 t 0 r /Helvetica-Oblique findfont 57.1092 sf 0 0 m (t) show NC gr  1 1 1 c 3 lw 1409 1896 m 119 X 51 Y -119 X f 6 lw black 3 lw 1409 1947 m 119 X s 1409 1896 m 119 X s 1528 1896 m 51 Y s 1409 1896 m 51 Y s
 gsave  2268 1458 0 718 C 1696.98 1833.96 t 0 r /Helvetica findfont 57.1092 sf 0 0 m (\)) show NC gr 
 gsave  2268 1458 0 718 C 1632.3 1833.96 t 0 r /Helvetica-Oblique findfont 57.1092 sf 0 0 m (W) show NC gr 
 gsave  2268 1458 0 718 C 1598.06 1833.96 t 0 r /Helvetica findfont 57.1092 sf 0 0 m ( \() show NC gr 
 gsave  2268 1458 0 718 C 1575.23 1833.96 t 0 r /Helvetica-Oblique findfont 57.1092 sf 0 0 m (t) show NC gr  6 lw 1575 1883 m 23 X s
 gsave  2268 1458 0 718 C 1552.4 1833.96 t 0 r /Helvetica-Oblique findfont 57.1092 sf 0 0 m (t) show NC gr  0.8 0.8 0.8 c 3 lw 1409 1823 m 119 X 51 Y -119 X f 6 lw black 3 lw 1409 1874 m 119 X s 1409 1823 m 119 X s 1528 1823 m 51 Y s 1409 1823 m 51 Y
 s
 gsave  2268 1458 0 718 C 1598.06 1761.67 t 0 r /Helvetica findfont 57.1092 sf 0 0 m ( \(other\)) show NC gr 
 gsave  2268 1458 0 718 C 1575.23 1761.67 t 0 r /Helvetica-Oblique findfont 57.1092 sf 0 0 m (t) show NC gr  6 lw 1575 1811 m 23 X s
 gsave  2268 1458 0 718 C 1552.4 1761.67 t 0 r /Helvetica-Oblique findfont 57.1092 sf 0 0 m (t) show NC gr  0.4 0.4 0.4 c 3 lw 1409 1750 m 119 X 51 Y -119 X f 6 lw black 3 lw 1409 1801 m 119 X s 1409 1750 m 119 X s 1528 1750 m 51 Y s 1409 1750 m 51 Y
 s
 gsave  2268 1458 0 718 C 1925.28 1689.37 t 0 r /Helvetica findfont 57.1092 sf 0 0 m (\)) show NC gr 
 gsave  2268 1458 0 718 C 1860.59 1689.37 t 0 r /Helvetica-Oblique findfont 57.1092 sf 0 0 m (W) show NC gr 
 gsave  2268 1458 0 718 C 1552.4 1689.37 t 0 r /Helvetica findfont 57.1092 sf 0 0 m (Single Top \() show NC gr  0.2 0.6 1 c 1409 1677 m 119 X 51 Y -119 X f black 1409 1728 m 119 X s 1409 1677 m 119 X s 1528 1677 m 51 Y s 1409 1677 m 51 Y s
 gsave  2268 1458 0 718 C 1552.4 1613.27 t 0 r /Helvetica findfont 57.1092 sf 0 0 m (Single Top \(other\)) show NC gr  0.4 0.4 0.8 c 1409 1604 m 119 X 51 Y -119 X f black 1409 1655 m 119 X s 1409 1604 m 119 X s 1528 1604 m 51 Y s 1409 1604 m 51 Y s
 gsave  2268 1458 0 718 C 1617.08 1540.98 t 0 r /Helvetica findfont 57.1092 sf 0 0 m ( + jets) show NC gr 
 gsave  2268 1458 0 718 C 1552.4 1540.98 t 0 r /Helvetica-Oblique findfont 57.1092 sf 0 0 m (W) show NC gr  1 0.8 0 c 1409 1531 m 119 X 51 Y -119 X f black 1409 1582 m 119 X s 1409 1531 m 119 X s 1528 1531 m 51 Y s 1409 1531 m 51 Y s
 gsave  2268 1458 0 718 C 1712.2 1468.69 t 0 r /Helvetica findfont 57.1092 sf 0 0 m ( + jets) show NC gr 
 gsave  2268 1458 0 718 C 1666.54 1468.69 t 0 r /Helvetica-Oblique findfont 57.1092 sf 0 0 m (Z) show NC gr 
 gsave  2268 1458 0 718 C 1636.1 1468.69 t 0 r /Helvetica findfont 57.1092 sf 0 0 m (, ) show NC gr 
 gsave  2268 1458 0 718 C 1552.4 1468.69 t 0 r /Helvetica-Oblique findfont 57.1092 sf 0 0 m (VV) show NC gr  0.6 0.2 0 c 1409 1458 m 119 X 51 Y -119 X f black 1409 1509 m 119 X s 1409 1458 m 119 X s 1528 1458 m 51 Y s 1409 1458 m 51 Y s
 gsave  2268 1458 0 718 C 1552.4 1396.4 t 0 r /Helvetica findfont 57.1092 sf 0 0 m (Total uncert.) show NC gr  0.6 0.8 0.6 c 1409 1385 m 119 X 51 Y -119 X f black
 gsave  2268 1458 0 718 C 1552.4 1324.1 t 0 r /Helvetica findfont 57.1092 sf 0 0 m (Stat. uncert.) show NC gr  0.4 0.6 0.4 c 3 lw 1409 1312 m 119 X 51 Y -119 X f black
 gsave  2268 1458 0 718 C 1598.06 1251.81 t 0 r /Helvetica findfont 57.1092 sf 0 0 m ( modelling uncert.) show NC gr 
 gsave  2268 1458 0 718 C 1575.23 1251.81 t 0 r /Helvetica-Oblique findfont 57.1092 sf 0 0 m (t) show NC gr  6 lw 1575 1301 m 23 X s
 gsave  2268 1458 0 718 C 1552.4 1251.81 t 0 r /Helvetica-Oblique findfont 57.1092 sf 0 0 m (t) show NC gr  1 1 1 c 3 lw 1409 1240 m 119 X 51 Y -119 X cl s 6 lw 0.8 0 0 c 1409 1265 m 119 X s black
 gsave  2268 1458 0 718 C 966.443 2001.37 t 0 r /Helvetica findfont 38.0728 sf 0 0 m (\2551) show NC gr 
 gsave  2268 1458 0 718 C 509.856 1974.74 t 0 r /Helvetica findfont 57.1092 sf 0 0 m ( = 13 TeV, 80.5 fb) show NC gr 
 gsave  2268 1458 0 718 C 483.221 1974.74 t 0 r /Helvetica findfont 57.1092 sf 0 0 m (s) show NC gr  460 2009 m 8 -38 d s 3 lw 468 1971 m 8 57 d s 476 2028 m 34 X s
 gsave  2268 1458 0 718 C 913.174 1894.84 t 0 r /Helvetica findfont 57.1092 sf 0 0 m (=1.0 jets) show NC gr 
 gsave  2268 1458 0 718 C 867.516 1894.84 t 0 r /Helvetica-Oblique findfont 57.1092 sf 0 0 m (R) show NC gr 
 gsave  2268 1458 0 718 C 848.491 1894.84 t 0 r /Helvetica findfont 57.1092 sf 0 0 m ( ) show NC gr 
 gsave  2268 1458 0 718 C 837.077 1879.62 t 0 r /Helvetica findfont 38.0728 sf 0 0 m (t) show NC gr 
 gsave  2268 1458 0 718 C 802.833 1894.84 t 0 r /Helvetica-Oblique findfont 57.1092 sf 0 0 m (k) show NC gr 
 gsave  2268 1458 0 718 C 452.782 1894.84 t 0 r /Helvetica findfont 57.1092 sf 0 0 m (Trimmed anti\255) show NC gr 
 gsave  2268 1458 0 718 C 886.54 1814.93 t 0 r /Helvetica findfont 57.1092 sf 0 0 m (\255jet\) > 1.0) show NC gr 
 gsave  2268 1458 0 718 C 852.296 1814.93 t 0 r /Helvetica-Oblique findfont 57.1092 sf 0 0 m (b) show NC gr 
 gsave  2268 1458 0 718 C 745.759 1814.93 t 0 r /Helvetica findfont 57.1092 sf 0 0 m ( jet, ) show NC gr 
 gsave  2268 1458 0 718 C 700.1 1814.93 t 0 r /Helvetica-Oblique findfont 57.1092 sf 0 0 m (R) show NC gr 
 gsave  2268 1458 0 718 C 536.49 1814.93 t 0 r /Helvetica findfont 57.1092 sf 0 0 m (\(large\255) show NC gr 
 gsave  2268 1458 0 718 C 490.831 1814.93 t 0 r /Helvetica-Oblique findfont 57.1092 sf 0 0 m (R) show NC gr 
 gsave  2268 1458 0 718 C 452.782 1814.93 t 0 r /Symbol findfont 57.1092 sf 0 0 m (D) show NC gr 
 gsave  2268 1458 0 718 C 509.856 1735.03 t 0 r /Helvetica findfont 57.1092 sf 0 0 m ( > 200 GeV) show NC gr 
 gsave  2268 1458 0 718 C 487.026 1704.59 t 0 r /Helvetica findfont 38.0728 sf 0 0 m (T) show NC gr 
 gsave  2268 1458 0 718 C 452.782 1735.03 t 0 r /Helvetica-Oblique findfont 57.1092 sf 0 0 m (p) show NC gr 
 gsave  2268 1458 0 718 C 597.368 1655.13 t 0 r /Helvetica findfont 57.1092 sf 0 0 m ( > 50 GeV) show NC gr 
 gsave  2268 1458 0 718 C 502.246 1681.76 t 0 r /Helvetica findfont 38.0728 sf 0 0 m (comb) show NC gr 
 gsave  2268 1458 0 718 C 452.782 1655.13 t 0 r /Helvetica-Oblique findfont 57.1092 sf 0 0 m (m) show NC gr  1 1 1 c 2268 718 0 0 bf black 1 1 1 c 1791 496 363 215 bf black 1791 496 363 215 bl 1 1 1 c 1791 496 363 215 bf black 1791 496 363 215 bl 363
 215 m 1791 X s 363 711 m 1791 X s 363 215 m 496 Y s[ 4 8] 0 sd 2154 298 m -1791 X s 2154 463 m -1791 X s 2154 628 m -1791 X s 2154 298 m -1791 X s 2154 628 m -1791 X s[  ] 0 sd 2154 215 m 496 Y s 6 lw 1 1 1 c black 488 377 m 95 Y s 488 503 m 95 Y s
 3 lw 488 488 m20 6 lw 524 263 m 85 Y s 524 378 m 84 Y s 3 lw 524 363 m20 6 lw 560 318 m 52 Y s 560 401 m 52 Y s 3 lw 560 385 m20 6 lw 596 323 m 32 Y s 596 386 m 32 Y s 3 lw 596 370 m20 6 lw 632 327 m 19 Y s 632 376 m 19 Y s 3 lw 632 361 m20 6 lw 667
 319 m 11 Y s 667 360 m 11 Y s 3 lw 667 345 m20 6 lw 703 355 m 4 Y s 703 389 m 4 Y s 3 lw 703 374 m20 6 lw 3 lw 739 375 m20 6 lw 3 lw 775 389 m20 6 lw 3 lw 811 387 m20 6 lw 3 lw 847 393 m20 6 lw 3 lw 882 400 m20 6 lw 3 lw 918 415 m20 6 lw 3 lw 954
 403 m20 6 lw 3 lw 990 420 m20 6 lw 3 lw 1026 439 m20 6 lw 3 lw 1062 440 m20 6 lw 3 lw 1097 441 m20 6 lw 3 lw 1133 449 m20 6 lw 3 lw 1169 455 m20 6 lw 3 lw 1205 469 m20 6 lw 3 lw 1241 471 m20 6 lw 3 lw 1276 470 m20 6 lw 3 lw 1312 479 m20 6 lw 3 lw
 1348 484 m20 6 lw 3 lw 1384 489 m20 6 lw 3 lw 1420 498 m20 6 lw 3 lw 1456 480 m20 6 lw 3 lw 1491 498 m20 6 lw 3 lw 1527 479 m20 6 lw 3 lw 1563 485 m20 6 lw 3 lw 1599 479 m20 6 lw 3 lw 1635 478 m20 6 lw 3 lw 1671 490 m20 6 lw 3 lw 1706 495 m20 6 lw 3
 lw 1742 514 m20 6 lw 3 lw 1778 490 m20 6 lw 3 lw 1814 490 m20 6 lw 3 lw 1850 502 m20 6 lw 3 lw 1886 466 m20 6 lw 3 lw 1921 506 m20 6 lw 3 lw 1957 518 m20 6 lw 3 lw 1993 521 m20 6 lw 3 lw 2029 500 m20 6 lw 3 lw 2065 493 m20 6 lw 3 lw 2101 502 m20 6
 lw 2136 491 m s 2136 521 m s 3 lw 2136 506 m20 6 lw 3 lw 363 215 m 1791 X s
 gsave  2268 718 0 0 C 2100.3 38.0489 t 0 r /Helvetica findfont 45.8433 sf 0 0 m (trk) show NC gr 
 gsave  2268 718 0 0 C 1948.11 76.0979 t 0 r /Helvetica findfont 72.5852 sf 0 0 m ( jet n) show NC gr 
 gsave  2268 718 0 0 C 1891.03 76.0979 t 0 r /Helvetica-Oblique findfont 72.5852 sf 0 0 m (R) show NC gr 
 gsave  2268 718 0 0 C 1430.64 76.0979 t 0 r /Helvetica findfont 72.5852 sf 0 0 m (Leading large\255) show NC gr  363 232 m -17 Y s 399 224 m -9 Y s 434 224 m -9 Y s 470 224 m -9 Y s 506 224 m -9 Y s 542 232 m -17 Y s 578 224 m -9 Y s 614 224 m -9 Y
 s 649 224 m -9 Y s 685 224 m -9 Y s 721 232 m -17 Y s 757 224 m -9 Y s 793 224 m -9 Y s 829 224 m -9 Y s 864 224 m -9 Y s 900 232 m -17 Y s 936 224 m -9 Y s 972 224 m -9 Y s 1008 224 m -9 Y s 1044 224 m -9 Y s 1079 232 m -17 Y s 1115 224 m -9 Y s
 1151 224 m -9 Y s 1187 224 m -9 Y s 1223 224 m -9 Y s 1259 232 m -17 Y s 1294 224 m -9 Y s 1330 224 m -9 Y s 1366 224 m -9 Y s 1402 224 m -9 Y s 1438 232 m -17 Y s 1474 224 m -9 Y s 1509 224 m -9 Y s 1545 224 m -9 Y s 1581 224 m -9 Y s 1617 232 m
 -17 Y s 1653 224 m -9 Y s 1689 224 m -9 Y s 1724 224 m -9 Y s 1760 224 m -9 Y s 1796 232 m -17 Y s 1832 224 m -9 Y s 1868 224 m -9 Y s 1904 224 m -9 Y s 1939 224 m -9 Y s 1975 232 m -17 Y s 2011 224 m -9 Y s 2047 224 m -9 Y s 2083 224 m -9 Y s 2119
 224 m -9 Y s 2154 232 m -17 Y s
 gsave  2268 718 0 0 C 342.44 152.196 t 0 r /Helvetica findfont 72.5852 sf 0 0 m (0) show NC gr 
 gsave  2268 718 0 0 C 521.27 152.196 t 0 r /Helvetica findfont 72.5852 sf 0 0 m (5) show NC gr 
 gsave  2268 718 0 0 C 677.271 152.196 t 0 r /Helvetica findfont 72.5852 sf 0 0 m (10) show NC gr 
 gsave  2268 718 0 0 C 856.101 152.196 t 0 r /Helvetica findfont 72.5852 sf 0 0 m (15) show NC gr 
 gsave  2268 718 0 0 C 1034.93 152.196 t 0 r /Helvetica findfont 72.5852 sf 0 0 m (20) show NC gr 
 gsave  2268 718 0 0 C 1213.76 152.196 t 0 r /Helvetica findfont 72.5852 sf 0 0 m (25) show NC gr 
 gsave  2268 718 0 0 C 1392.59 152.196 t 0 r /Helvetica findfont 72.5852 sf 0 0 m (30) show NC gr 
 gsave  2268 718 0 0 C 1571.42 152.196 t 0 r /Helvetica findfont 72.5852 sf 0 0 m (35) show NC gr 
 gsave  2268 718 0 0 C 1754.06 152.196 t 0 r /Helvetica findfont 72.5852 sf 0 0 m (40) show NC gr 
 gsave  2268 718 0 0 C 1932.89 152.196 t 0 r /Helvetica findfont 72.5852 sf 0 0 m (45) show NC gr 
 gsave  2268 718 0 0 C 2111.72 152.196 t 0 r /Helvetica findfont 72.5852 sf 0 0 m (50) show NC gr  363 711 m 1791 X s 363 694 m 17 Y s 399 703 m 8 Y s 434 703 m 8 Y s 470 703 m 8 Y s 506 703 m 8 Y s 542 694 m 17 Y s 578 703 m 8 Y s 614 703 m 8 Y s
 649 703 m 8 Y s 685 703 m 8 Y s 721 694 m 17 Y s 757 703 m 8 Y s 793 703 m 8 Y s 829 703 m 8 Y s 864 703 m 8 Y s 900 694 m 17 Y s 936 703 m 8 Y s 972 703 m 8 Y s 1008 703 m 8 Y s 1044 703 m 8 Y s 1079 694 m 17 Y s 1115 703 m 8 Y s 1151 703 m 8 Y s
 1187 703 m 8 Y s 1223 703 m 8 Y s 1259 694 m 17 Y s 1294 703 m 8 Y s 1330 703 m 8 Y s 1366 703 m 8 Y s 1402 703 m 8 Y s 1438 694 m 17 Y s 1474 703 m 8 Y s 1509 703 m 8 Y s 1545 703 m 8 Y s 1581 703 m 8 Y s 1617 694 m 17 Y s 1653 703 m 8 Y s 1689 703
 m 8 Y s 1724 703 m 8 Y s 1760 703 m 8 Y s 1796 694 m 17 Y s 1832 703 m 8 Y s 1868 703 m 8 Y s 1904 703 m 8 Y s 1939 703 m 8 Y s 1975 694 m 17 Y s 2011 703 m 8 Y s 2047 703 m 8 Y s 2083 703 m 8 Y s 2119 703 m 8 Y s 2154 694 m 17 Y s 363 215 m 496 Y s
 gsave  2268 718 0 0 C 133.171 292.977 t 90 r /Helvetica findfont 72.5852 sf 0 0 m (Data/Pred.) show NC gr  410 298 m -47 X s 386 331 m -23 X s 386 364 m -23 X s 386 397 m -23 X s 386 430 m -23 X s 410 463 m -47 X s 386 496 m -23 X s 386 529 m -23 X
 s 386 562 m -23 X s 386 595 m -23 X s 410 628 m -47 X s 410 298 m -47 X s 386 265 m -23 X s 386 232 m -23 X s 410 628 m -47 X s 386 661 m -23 X s 386 695 m -23 X s
 gsave  2268 718 0 0 C 251.123 273.952 t 0 r /Helvetica findfont 72.5852 sf 0 0 m (0.5) show NC gr 
 gsave  2268 718 0 0 C 323.416 433.758 t 0 r /Helvetica findfont 72.5852 sf 0 0 m (1) show NC gr 
 gsave  2268 718 0 0 C 251.123 604.978 t 0 r /Helvetica findfont 72.5852 sf 0 0 m (1.5) show NC gr  2154 215 m 496 Y s 2107 298 m 47 X s 2131 331 m 23 X s 2131 364 m 23 X s 2131 397 m 23 X s 2131 430 m 23 X s 2107 463 m 47 X s 2131 496 m 23 X s 2131
 529 m 23 X s 2131 562 m 23 X s 2131 595 m 23 X s 2107 628 m 47 X s 2107 298 m 47 X s 2131 265 m 23 X s 2131 232 m 23 X s 2107 628 m 47 X s 2131 661 m 23 X s 2131 695 m 23 X s 0.6 0.8 0.6 c black 0.6 0.8 0.6 c 36 496 363 215 bf 35 496 399 215 bf 36
 405 434 261 bf 36 356 470 285 bf 36 440 506 243 bf 36 250 542 338 bf 36 288 578 319 bf 35 195 614 366 bf 36 236 649 345 bf 36 215 685 356 bf 36 220 721 353 bf 36 217 757 355 bf 36 223 793 352 bf 35 195 829 366 bf 36 207 864 360 bf 36 186 900 370 bf
 36 199 936 364 bf 36 149 972 389 bf 36 146 1008 390 bf 35 143 1044 392 bf 36 125 1079 401 bf 36 118 1115 404 bf 36 110 1151 408 bf 36 97 1187 415 bf 36 98 1223 414 bf 35 96 1259 415 bf 36 96 1294 415 bf 36 119 1330 404 bf 36 99 1366 414 bf 36 110
 1402 408 bf 36 122 1438 402 bf 35 140 1474 393 bf 36 126 1509 400 bf 36 134 1545 396 bf 36 141 1581 393 bf 36 123 1617 402 bf 36 152 1653 387 bf 35 145 1689 391 bf 36 165 1724 381 bf 36 149 1760 389 bf 36 148 1796 389 bf 36 169 1832 379 bf 36 124
 1868 401 bf 35 175 1904 376 bf 36 162 1939 382 bf 36 211 1975 358 bf 36 209 2011 359 bf 36 209 2047 359 bf 36 192 2083 367 bf 35 185 2119 371 bf black 0.4 0.6 0.4 c black 0.4 0.6 0.4 c 36 496 363 215 bf 35 392 399 267 bf 36 199 434 364 bf 36 125 470
 401 bf 36 79 506 424 bf 36 54 542 436 bf 36 67 578 430 bf 35 30 614 448 bf 36 20 649 453 bf 36 16 685 455 bf 36 22 721 452 bf 36 11 757 458 bf 36 9 793 459 bf 35 8 829 459 bf 36 7 864 460 bf 36 6 900 460 bf 36 6 936 460 bf 36 6 972 460 bf 36 5 1008
 461 bf 35 5 1044 461 bf 36 5 1079 461 bf 36 5 1115 461 bf 36 5 1151 461 bf 36 5 1187 461 bf 36 5 1223 461 bf 35 5 1259 461 bf 36 5 1294 461 bf 36 5 1330 461 bf 36 5 1366 461 bf 36 5 1402 461 bf 36 6 1438 460 bf 35 6 1474 460 bf 36 6 1509 460 bf 36 6
 1545 460 bf 36 7 1581 460 bf 36 7 1617 460 bf 36 7 1653 460 bf 35 7 1689 460 bf 36 9 1724 459 bf 36 9 1760 459 bf 36 9 1796 459 bf 36 11 1832 458 bf 36 10 1868 458 bf 35 11 1904 458 bf 36 12 1939 457 bf 36 13 1975 457 bf 36 13 2011 457 bf 36 14 2047
 456 bf 36 17 2083 455 bf 35 16 2119 455 bf 0.8 0 0 c 6 lw 1 1 1 c black 0.8 0 0 c 434 711 m -79 Y s 434 632 m 36 X -14 Y 36 X 59 Y 36 X -95 Y 36 X 8 Y 36 X -35 Y 35 X 23 Y 36 X -10 Y 36 X 1 Y 72 X 3 Y 36 X -14 Y 35 X 6 Y 36 X -11 Y 36 X 8 Y 36 X -26
 Y 36 X -2 Y 36 X -2 Y 35 X -9 Y 36 X -4 Y 36 X -5 Y 36 X -7 Y 72 X -1 Y 71 X 12 Y 36 X -11 Y 36 X 6 Y 36 X 6 Y 36 X 9 Y 35 X -7 Y 36 X 4 Y 36 X 4 Y 36 X -11 Y 36 X 17 Y 36 X -4 Y 35 X 10 Y 36 X -10 Y 36 X 1 Y 36 X 10 Y 36 X -25 Y 36 X 30 Y 35 X -7 Y
 36 X 25 Y 36 X -2 Y 36 X 1 Y 36 X -10 Y 36 X -3 Y 35 X 14 Y s 1 1 1 c black 0.8 0 0 c 363 215 m 71 X 80 Y 36 X 14 Y 36 X -59 Y 36 X 94 Y 36 X -8 Y 36 X 35 Y 35 X -23 Y 36 X 10 Y 36 X -1 Y 36 X 1 Y 36 X -4 Y 36 X 14 Y 35 X -6 Y 36 X 11 Y 36 X -7 Y 36
 X 26 Y 36 X 2 Y 36 X 1 Y 35 X 10 Y 36 X 4 Y 36 X 4 Y 36 X 8 Y 36 X -1 Y 36 X 2 Y 71 X -13 Y 36 X 12 Y 36 X -7 Y 36 X -6 Y 36 X -9 Y 35 X 7 Y 36 X -4 Y 36 X -3 Y 36 X 10 Y 36 X -16 Y 36 X 3 Y 35 X -9 Y 36 X 9 Y 72 X -11 Y 36 X 26 Y 36 X -30 Y 35 X 6
 Y 36 X -24 Y 36 X 1 Y 72 X 10 Y 36 X 3 Y 35 X -14 Y s black 3 lw 363 215 m 1791 X s 363 232 m -17 Y s 399 224 m -9 Y s 434 224 m -9 Y s 470 224 m -9 Y s 506 224 m -9 Y s 542 232 m -17 Y s 578 224 m -9 Y s 614 224 m -9 Y s 649 224 m -9 Y s 685 224 m
 -9 Y s 721 232 m -17 Y s 757 224 m -9 Y s 793 224 m -9 Y s 829 224 m -9 Y s 864 224 m -9 Y s 900 232 m -17 Y s 936 224 m -9 Y s 972 224 m -9 Y s 1008 224 m -9 Y s 1044 224 m -9 Y s 1079 232 m -17 Y s 1115 224 m -9 Y s 1151 224 m -9 Y s 1187 224 m -9
 Y s 1223 224 m -9 Y s 1259 232 m -17 Y s 1294 224 m -9 Y s 1330 224 m -9 Y s 1366 224 m -9 Y s 1402 224 m -9 Y s 1438 232 m -17 Y s 1474 224 m -9 Y s 1509 224 m -9 Y s 1545 224 m -9 Y s 1581 224 m -9 Y s 1617 232 m -17 Y s 1653 224 m -9 Y s 1689 224
 m -9 Y s 1724 224 m -9 Y s 1760 224 m -9 Y s 1796 232 m -17 Y s 1832 224 m -9 Y s 1868 224 m -9 Y s 1904 224 m -9 Y s 1939 224 m -9 Y s 1975 232 m -17 Y s 2011 224 m -9 Y s 2047 224 m -9 Y s 2083 224 m -9 Y s 2119 224 m -9 Y s 2154 232 m -17 Y s 363
 711 m 1791 X s 363 694 m 17 Y s 399 703 m 8 Y s 434 703 m 8 Y s 470 703 m 8 Y s 506 703 m 8 Y s 542 694 m 17 Y s 578 703 m 8 Y s 614 703 m 8 Y s 649 703 m 8 Y s 685 703 m 8 Y s 721 694 m 17 Y s 757 703 m 8 Y s 793 703 m 8 Y s 829 703 m 8 Y s 864 703
 m 8 Y s 900 694 m 17 Y s 936 703 m 8 Y s 972 703 m 8 Y s 1008 703 m 8 Y s 1044 703 m 8 Y s 1079 694 m 17 Y s 1115 703 m 8 Y s 1151 703 m 8 Y s 1187 703 m 8 Y s 1223 703 m 8 Y s 1259 694 m 17 Y s 1294 703 m 8 Y s 1330 703 m 8 Y s 1366 703 m 8 Y s
 1402 703 m 8 Y s 1438 694 m 17 Y s 1474 703 m 8 Y s 1509 703 m 8 Y s 1545 703 m 8 Y s 1581 703 m 8 Y s 1617 694 m 17 Y s 1653 703 m 8 Y s 1689 703 m 8 Y s 1724 703 m 8 Y s 1760 703 m 8 Y s 1796 694 m 17 Y s 1832 703 m 8 Y s 1868 703 m 8 Y s 1904 703
 m 8 Y s 1939 703 m 8 Y s 1975 694 m 17 Y s 2011 703 m 8 Y s 2047 703 m 8 Y s 2083 703 m 8 Y s 2119 703 m 8 Y s 2154 694 m 17 Y s 363 215 m 496 Y s 410 298 m -47 X s 386 331 m -23 X s 386 364 m -23 X s 386 397 m -23 X s 386 430 m -23 X s 410 463 m
 -47 X s 386 496 m -23 X s 386 529 m -23 X s 386 562 m -23 X s 386 595 m -23 X s 410 628 m -47 X s 410 298 m -47 X s 386 265 m -23 X s 386 232 m -23 X s 410 628 m -47 X s 386 661 m -23 X s 386 695 m -23 X s 2154 215 m 496 Y s 2107 298 m 47 X s 2131
 331 m 23 X s 2131 364 m 23 X s 2131 397 m 23 X s 2131 430 m 23 X s 2107 463 m 47 X s 2131 496 m 23 X s 2131 529 m 23 X s 2131 562 m 23 X s 2131 595 m 23 X s 2107 628 m 47 X s 2107 298 m 47 X s 2131 265 m 23 X s 2131 232 m 23 X s 2107 628 m 47 X s
 2131 661 m 23 X s 2131 695 m 23 X s 363 215 m 1791 X s 363 711 m 1791 X s 363 215 m 496 Y s[ 4 8] 0 sd 2154 298 m -1791 X s 2154 463 m -1791 X s 2154 628 m -1791 X s 2154 298 m -1791 X s 2154 628 m -1791 X s[  ] 0 sd 2154 215 m 496 Y s 6 lw 1 1 1 c
 black 488 377 m 95 Y s 488 503 m 95 Y s 3 lw 488 488 m20 6 lw 524 263 m 85 Y s 524 378 m 84 Y s 3 lw 524 363 m20 6 lw 560 318 m 52 Y s 560 401 m 52 Y s 3 lw 560 385 m20 6 lw 596 323 m 32 Y s 596 386 m 32 Y s 3 lw 596 370 m20 6 lw 632 327 m 19 Y s
 632 376 m 19 Y s 3 lw 632 361 m20 6 lw 667 319 m 11 Y s 667 360 m 11 Y s 3 lw 667 345 m20 6 lw 703 355 m 4 Y s 703 389 m 4 Y s 3 lw 703 374 m20 6 lw 3 lw 739 375 m20 6 lw 3 lw 775 389 m20 6 lw 3 lw 811 387 m20 6 lw 3 lw 847 393 m20 6 lw 3 lw 882 400
 m20 6 lw 3 lw 918 415 m20 6 lw 3 lw 954 403 m20 6 lw 3 lw 990 420 m20 6 lw 3 lw 1026 439 m20 6 lw 3 lw 1062 440 m20 6 lw 3 lw 1097 441 m20 6 lw 3 lw 1133 449 m20 6 lw 3 lw 1169 455 m20 6 lw 3 lw 1205 469 m20 6 lw 3 lw 1241 471 m20 6 lw 3 lw 1276 470
 m20 6 lw 3 lw 1312 479 m20 6 lw 3 lw 1348 484 m20 6 lw 3 lw 1384 489 m20 6 lw 3 lw 1420 498 m20 6 lw 3 lw 1456 480 m20 6 lw 3 lw 1491 498 m20 6 lw 3 lw 1527 479 m20 6 lw 3 lw 1563 485 m20 6 lw 3 lw 1599 479 m20 6 lw 3 lw 1635 478 m20 6 lw 3 lw 1671
 490 m20 6 lw 3 lw 1706 495 m20 6 lw 3 lw 1742 514 m20 6 lw 3 lw 1778 490 m20 6 lw 3 lw 1814 490 m20 6 lw 3 lw 1850 502 m20 6 lw 3 lw 1886 466 m20 6 lw 3 lw 1921 506 m20 6 lw 3 lw 1957 518 m20 6 lw 3 lw 1993 521 m20 6 lw 3 lw 2029 500 m20 6 lw 3 lw
 2065 493 m20 6 lw 3 lw 2101 502 m20 6 lw 2136 491 m s 2136 521 m s 3 lw 2136 506 m20 6 lw 1 1 1 c black 417 635 m 31 Y s 400 666 m 17 29 d 16 -29 d -33 X cl s 1 1 1 c black 452 635 m 31 Y s 436 666 m 16 29 d 17 -29 d -33 X cl s
 gr  gr showpage
end
%%EOF
